,time,latitude,longitude,depth,mag,magType,nst,gap,dmin,rms,net,id,updated,place,type,horizontalError,depthError,magError,magNst,status,locationSource,magSource
77,1970-01-05 11:49:10+00:00,23.984,102.73200000000001,15.0,5.9,mw,,,,,iscgem,iscgem799745,2017-04-26T17:23:22.547Z,"Yunnan, China",earthquake,,,,,automatic,iscgem,iscgem
78,1970-01-04 17:00:41+00:00,24.185,102.54299999999999,11.3,7.1,mw,,,,,iscgem,iscgem799712,2017-04-26T17:23:21.889Z,"Yunnan, China",earthquake,,,,,automatic,iscgem,iscgem
