,time,latitude,longitude,depth,mag,magType,nst,gap,dmin,rms,net,id,updated,place,type,horizontalError,depthError,magError,magNst,status,locationSource,magSource
107,1981-05-30 09:47:17.220000+00:00,-49.152,164.743,33.0,5.7,mb,,,,1.2,us,usp0001dy4,2016-11-09T22:38:39.548Z,"Auckland Islands, New Zealand region",earthquake,,,,15.0,reviewed,us,us
324,1981-05-27 18:57:21.660000+00:00,-48.56100000000001,164.047,33.0,5.3,ms,,,,1.5,us,usp0001dwq,2016-11-09T22:37:13.105Z,off the west coast of the South Island of New Zealand,earthquake,,,,1.0,reviewed,us,us
470,1981-05-25 21:59:02.910000+00:00,-49.26,164.17700000000002,33.0,4.6,mb,,,,1.3,us,usp0001dvf,2014-11-07T00:29:31.157Z,"Auckland Islands, New Zealand region",earthquake,,,,1.0,reviewed,us,us
477,1981-05-25 19:39:14.110000+00:00,-49.26,164.18900000000002,33.0,4.5,mb,,,,1.4,us,usp0001dvd,2014-11-07T00:29:31.145Z,"Auckland Islands, New Zealand region",earthquake,,,,1.0,reviewed,us,us
513,1981-05-25 11:03:03.740000+00:00,-49.286,164.423,33.0,4.7,mb,,,,1.4,us,usp0001dv6,2014-11-07T00:29:31.097Z,"Auckland Islands, New Zealand region",earthquake,,,,2.0,reviewed,us,us
514,1981-05-25 10:44:29.220000+00:00,-49.358000000000004,164.174,33.0,5.1,mb,,,,1.3,us,usp0001dv5,2014-11-07T00:29:31.092Z,"Auckland Islands, New Zealand region",earthquake,,,,4.0,reviewed,us,us
525,1981-05-25 05:25:14.460000+00:00,-48.786,164.357,33.0,7.6,ms,,,,1.2,us,usp0001dv1,2016-11-10T02:39:57.420Z,off the west coast of the South Island of New Zealand,earthquake,,,,10.0,reviewed,us,us
