,time,latitude,longitude,depth,mag,magType,nst,gap,dmin,rms,net,id,updated,place,type,horizontalError,depthError,magError,magNst,status,locationSource,magSource
763,1981-10-22 11:39:47.630000+00:00,-33.257,-73.141,26.0,5.1,mb,,,,0.9,us,usp0001gm4,2014-11-07T00:30:15.287Z,"off the coast of Valparaiso, Chile",earthquake,,,,10.0,reviewed,us,us
1242,1981-10-17 05:15:05.300000+00:00,-33.048,-73.14399999999999,33.0,4.5,mb,,,,1.4,us,usp0001ggt,2014-11-07T00:30:14.311Z,"off the coast of Valparaiso, Chile",earthquake,,,,2.0,reviewed,us,us
1262,1981-10-16 23:24:07.810000+00:00,-33.169000000000004,-73.278,33.0,4.8,mb,,,,0.7,us,usp0001ggm,2014-11-07T00:30:14.279Z,"off the coast of Valparaiso, Chile",earthquake,,,,1.0,reviewed,us,us
1283,1981-10-16 16:21:16.720000+00:00,-33.251,-73.328,33.0,4.5,mb,,,,0.9,us,usp0001gge,2014-11-07T00:30:14.229Z,"off the coast of Valparaiso, Chile",earthquake,,,,1.0,reviewed,us,us
1327,1981-10-16 03:25:42.220000+00:00,-33.134,-73.074,33.0,7.2,ms,,,,0.8,us,usp0001gg1,2017-04-13T21:54:11.819Z,"off the coast of Valparaiso, Chile",earthquake,,,,16.0,reviewed,us,us
