,time,latitude,longitude,depth,mag,magType,nst,gap,dmin,rms,net,id,updated,place,type,horizontalError,depthError,magError,magNst,status,locationSource,magSource
2162,1983-04-07 23:11:48.280000+00:00,8.519,-83.615,33.0,4.6,mb,,,,0.7,us,usp0001u8s,2014-11-07T00:32:57.412Z,Costa Rica,earthquake,,,,4.0,reviewed,us,us
2175,1983-04-07 20:46:41.790000+00:00,7.995,-82.73,33.0,5.3,mb,,,,0.9,us,usp0001u8k,2016-11-09T22:15:06.364Z,south of Panama,earthquake,,,,55.0,reviewed,us,us
2183,1983-04-07 19:29:14.930000+00:00,7.985,-82.695,34.7,5.5,mb,,,,1.0,us,usp0001u8h,2017-04-26T17:36:21.262Z,south of Panama,earthquake,,3.7,,74.0,reviewed,us,us
2418,1983-04-05 11:23:48.540000+00:00,8.984,-83.17399999999999,33.0,4.8,mb,,,,0.9,us,usp0001u6w,2014-11-07T00:32:56.710Z,Costa Rica,earthquake,,,,4.0,reviewed,us,us
2465,1983-04-05 00:41:30.870000+00:00,8.294,-83.3,33.0,4.9,mb,,,,1.3,us,usp0001u6h,2014-11-07T00:32:56.539Z,Costa Rica,earthquake,,,,4.0,reviewed,us,us
2507,1983-04-04 13:11:11.080000+00:00,8.773,-84.041,33.0,5.1,mb,,,,1.1,us,usp0001u63,2016-11-09T22:13:48.467Z,off the coast of Costa Rica,earthquake,,,,12.0,reviewed,us,us
2524,1983-04-04 07:27:38.650000+00:00,9.547,-83.96,33.0,4.9,mb,,,,0.8,us,usp0001u61,2014-11-07T00:32:55.724Z,Costa Rica,earthquake,,,,8.0,reviewed,us,us
2559,1983-04-03 21:34:40.650000+00:00,8.664,-83.538,33.0,4.9,mb,,,,0.9,us,usp0001u5h,2014-11-07T00:32:55.403Z,Costa Rica,earthquake,,,,4.0,reviewed,us,us
2575,1983-04-03 16:53:31.910000+00:00,9.218,-83.524,33.0,4.8,mb,,,,1.2,us,usp0001u5b,2014-11-07T00:32:55.237Z,Costa Rica,earthquake,,,,1.0,reviewed,us,us
2581,1983-04-03 14:46:50.350000+00:00,9.332,-83.964,33.0,5.3,mb,,,,1.2,us,usp0001u5a,2016-11-09T22:13:23.958Z,Costa Rica,earthquake,,,,26.0,reviewed,us,us
2623,1983-04-03 05:49:30.210000+00:00,8.816,-83.448,33.0,5.4,mb,,,,1.0,us,usp0001u4z,2014-11-07T00:32:55.085Z,Costa Rica,earthquake,,,,50.0,reviewed,us,us
2627,1983-04-03 05:25:28.800000+00:00,8.363,-83.353,33.0,4.5,mb,,,,1.4,us,usp0001u4y,2014-11-07T00:32:55.078Z,Costa Rica,earthquake,,,,3.0,reviewed,us,us
2632,1983-04-03 05:04:53.650000+00:00,8.798,-83.565,31.3,5.2,mb,,,,1.0,us,usp0001u4w,2014-11-07T00:32:55.016Z,Costa Rica,earthquake,,8.0,,34.0,reviewed,us,us
2640,1983-04-03 03:43:33.910000+00:00,8.302999999999999,-83.56200000000001,33.0,4.9,mb,,,,1.2,us,usp0001u4s,2014-11-07T00:32:54.987Z,Costa Rica,earthquake,,,,4.0,reviewed,us,us
2648,1983-04-03 03:04:13.910000+00:00,8.655,-83.32700000000001,33.0,5.5,mb,,,,0.9,us,usp0001u4r,2014-11-07T00:32:54.951Z,Costa Rica,earthquake,,,,23.0,reviewed,us,us
2649,1983-04-03 03:00:37.090000+00:00,8.941,-83.24,33.0,5.4,mb,,,,0.7,us,usp0001u4q,2017-04-26T17:36:18.612Z,Costa Rica,earthquake,,,,20.0,reviewed,us,us
2653,1983-04-03 02:50:01.180000+00:00,8.717,-83.12299999999999,37.0,7.1,mw,,,,1.0,us,usp0001u4p,2017-04-26T17:36:17.967Z,Costa Rica,earthquake,,,,,reviewed,us,nc
