,time,latitude,longitude,depth,mag,magType,nst,gap,dmin,rms,net,id,updated,place,type,horizontalError,depthError,magError,magNst,status,locationSource,magSource
1321,1983-08-22 12:39:06.570000+00:00,53.854,160.436,33.0,5.4,mb,,,,0.9,us,usp0001xv6,2014-11-07T00:33:39.676Z,"near the east coast of the Kamchatka Peninsula, Russia",earthquake,,,,66.0,reviewed,us,us
1430,1983-08-21 06:00:27.710000+00:00,55.583999999999996,161.188,33.0,4.6,mb,,,,0.9,us,usp0001xtz,2014-11-07T00:33:39.193Z,"near the east coast of the Kamchatka Peninsula, Russia",earthquake,,,,5.0,reviewed,us,us
1825,1983-08-17 16:43:56.750000+00:00,55.591,160.871,19.1,4.8,mb,,,,1.0,us,usp0001xrb,2014-11-07T00:33:38.876Z,"Kamchatka Peninsula, Russia",earthquake,,,,8.0,reviewed,us,us
1849,1983-08-17 10:55:54.130000+00:00,55.867,161.287,62.6,7.1,mw,,,,1.2,us,usp0001xqy,2017-04-26T17:36:51.223Z,"near the east coast of the Kamchatka Peninsula, Russia",earthquake,,5.4,,,reviewed,us,nc
2308,1983-08-13 02:27:47.850000+00:00,53.426,160.385,33.0,4.8,mb,,,,0.7,us,usp0001xn4,2014-11-07T00:33:38.344Z,"near the east coast of the Kamchatka Peninsula, Russia",earthquake,,,,20.0,reviewed,us,us
