,time,latitude,longitude,depth,mag,magType,nst,gap,dmin,rms,net,id,updated,place,type,horizontalError,depthError,magError,magNst,status,locationSource,magSource
668,1983-10-28 06:01:14.150000+00:00,-60.281000000000006,-24.94,33.0,5.4,mb,,,,1.1,us,usp0001zbh,2014-11-07T00:34:01.164Z,South Sandwich Islands region,earthquake,,,,3.0,reviewed,us,us
1293,1983-10-24 19:17:57.790000+00:00,-60.201,-24.454,33.0,4.5,mb,,,,0.5,us,usp0001z86,2014-11-07T00:34:00.812Z,South Sandwich Islands region,earthquake,,,,3.0,reviewed,us,us
1305,1983-10-24 16:54:44.080000+00:00,-60.324,-24.543000000000003,33.0,4.8,mb,,,,0.7,us,usp0001z84,2014-11-07T00:34:00.808Z,South Sandwich Islands region,earthquake,,,,5.0,reviewed,us,us
1525,1983-10-23 08:47:33.830000+00:00,-60.413000000000004,-24.769000000000002,33.0,4.8,mb,,,,0.8,us,usp0001z6q,2014-11-07T00:34:00.683Z,South Sandwich Islands region,earthquake,,,,3.0,reviewed,us,us
1570,1983-10-23 03:43:50.390000+00:00,-60.478,-25.275,33.0,4.5,mb,,,,0.8,us,usp0001z6h,2014-11-07T00:34:00.632Z,South Sandwich Islands region,earthquake,,,,2.0,reviewed,us,us
1581,1983-10-23 02:35:40.970000+00:00,-60.388000000000005,-25.311999999999998,33.0,5.1,mb,,,,1.0,us,usp0001z6e,2014-11-07T00:34:00.614Z,South Sandwich Islands region,earthquake,,,,5.0,reviewed,us,us
1611,1983-10-22 22:08:28.920000+00:00,-60.282,-25.249000000000002,33.0,5.5,mb,,,,1.0,us,usp0001z65,2016-11-09T23:46:44.662Z,South Sandwich Islands region,earthquake,,,,6.0,reviewed,us,us
1665,1983-10-22 13:07:39.170000+00:00,-60.62,-25.392,33.0,6.5,mw,,,,1.1,us,usp0001z5u,2016-11-10T00:49:42.347Z,South Sandwich Islands region,earthquake,,,,,reviewed,us,nc
1714,1983-10-22 05:53:23.710000+00:00,-60.403999999999996,-24.865,33.0,6.3,mb,,,,1.3,us,usp0001z5h,2016-11-09T23:46:44.181Z,South Sandwich Islands region,earthquake,,,,22.0,reviewed,us,us
1715,1983-10-22 05:32:10.060000+00:00,-60.49,-25.682,33.0,5.4,mb,,,,0.9,us,usp0001z5g,2014-11-07T00:34:00.502Z,South Sandwich Islands region,earthquake,,,,5.0,reviewed,us,us
1728,1983-10-22 04:21:35.010000+00:00,-60.665,-25.451,24.0,7.2,mw,,,,1.3,us,usp0001z5e,2016-11-10T00:49:41.760Z,South Sandwich Islands region,earthquake,,,,,reviewed,us,nc
2402,1983-10-17 13:24:55.810000+00:00,-56.888999999999996,-25.1,33.0,5.9,ms,,,,0.9,us,usp0001z24,2014-11-07T00:33:59.943Z,South Sandwich Islands region,earthquake,,,,1.0,reviewed,us,us
