,time,latitude,longitude,depth,mag,magType,nst,gap,dmin,rms,net,id,updated,place,type,horizontalError,depthError,magError,magNst,status,locationSource,magSource
7,1983-11-30 22:05:21.450000+00:00,-6.881,72.28,10.0,5.2,mb,,,,1.1,us,usp000206e,2014-11-07T00:34:10.102Z,Chagos Archipelago region,earthquake,,,,30.0,reviewed,us,us
8,1983-11-30 22:02:00.830000+00:00,-6.83,72.351,10.0,5.1,mb,,,,0.9,us,usp000206d,2014-11-07T00:34:10.095Z,Chagos Archipelago region,earthquake,,,,33.0,reviewed,us,us
12,1983-11-30 21:42:07.770000+00:00,-6.718,71.345,10.0,5.4,mb,,,,1.0,us,usp000206c,2014-11-07T00:34:10.084Z,Chagos Archipelago region,earthquake,,,,46.0,reviewed,us,us
15,1983-11-30 21:32:05.170000+00:00,-6.534,72.094,10.0,4.4,mb,,,,1.1,us,usp000206a,2014-11-07T00:34:10.078Z,Chagos Archipelago region,earthquake,,,,5.0,reviewed,us,us
17,1983-11-30 21:18:34.890000+00:00,-6.599,71.67699999999999,10.0,4.6,mb,,,,1.1,us,usp0002069,2014-11-07T00:34:10.076Z,Chagos Archipelago region,earthquake,,,,2.0,reviewed,us,us
19,1983-11-30 21:09:13.590000+00:00,-6.9270000000000005,72.306,10.0,4.9,mb,,,,0.8,us,usp0002068,2014-11-07T00:34:10.073Z,Chagos Archipelago region,earthquake,,,,12.0,reviewed,us,us
20,1983-11-30 21:07:34.770000+00:00,-6.817,72.083,10.0,4.8,mb,,,,1.1,us,usp0002067,2014-11-07T00:34:10.071Z,Chagos Archipelago region,earthquake,,,,8.0,reviewed,us,us
21,1983-11-30 20:57:06.420000+00:00,-6.827999999999999,72.021,10.0,4.8,mb,,,,1.2,us,usp0002066,2014-11-07T00:34:10.069Z,Chagos Archipelago region,earthquake,,,,4.0,reviewed,us,us
22,1983-11-30 20:50:04.480000+00:00,-6.718,71.431,10.0,4.6,mb,,,,0.6,us,usp0002065,2014-11-07T00:34:10.066Z,Chagos Archipelago region,earthquake,,,,5.0,reviewed,us,us
24,1983-11-30 20:15:34.910000+00:00,-6.671,72.339,10.0,4.9,mb,,,,0.8,us,usp0002064,2014-11-07T00:34:10.064Z,Chagos Archipelago region,earthquake,,,,9.0,reviewed,us,us
25,1983-11-30 20:12:00.400000+00:00,-6.545,71.487,10.0,4.9,mb,,,,1.0,us,usp0002063,2014-11-07T00:34:10.061Z,Chagos Archipelago region,earthquake,,,,9.0,reviewed,us,us
30,1983-11-30 19:50:59.690000+00:00,-6.943,71.685,10.0,5.1,mb,,,,1.4,us,usp0002062,2014-11-07T00:34:10.058Z,Chagos Archipelago region,earthquake,,,,5.0,reviewed,us,us
38,1983-11-30 19:16:33.840000+00:00,-6.829,72.271,10.0,5.4,mb,,,,0.9,us,usp000205z,2014-11-07T00:34:10.041Z,Chagos Archipelago region,earthquake,,,,42.0,reviewed,us,us
39,1983-11-30 19:08:35.640000+00:00,-6.7,71.795,10.0,4.9,mb,,,,1.1,us,usp000205y,2014-11-07T00:34:10.036Z,Chagos Archipelago region,earthquake,,,,9.0,reviewed,us,us
40,1983-11-30 18:59:19.100000+00:00,-6.671,71.337,10.0,4.5,mb,,,,0.9,us,usp000205x,2014-11-07T00:34:10.035Z,Chagos Archipelago region,earthquake,,,,2.0,reviewed,us,us
42,1983-11-30 18:46:15.350000+00:00,-6.587999999999999,71.725,10.0,5.1,mb,,,,1.4,us,usp000205w,2014-11-07T00:34:10.033Z,Chagos Archipelago region,earthquake,,,,7.0,reviewed,us,us
43,1983-11-30 18:31:15.720000+00:00,-7.175,72.459,10.0,5.2,mb,,,,0.9,us,usp000205v,2014-11-07T00:34:10.031Z,Chagos Archipelago region,earthquake,,,,2.0,reviewed,us,us
45,1983-11-30 17:46:00.670000+00:00,-6.852,72.11,10.0,7.3,mw,,,,1.2,us,usp000205u,2016-11-10T00:53:41.733Z,Chagos Archipelago region,earthquake,,,,,reviewed,us,nc
3054,1983-12-07 17:21:50.990000+00:00,-6.684,71.923,10.0,4.6,mb,,,,1.3,us,usp00020b9,2014-11-07T00:34:14.271Z,Chagos Archipelago region,earthquake,,,,4.0,reviewed,us,us
3119,1983-12-07 08:07:47.250000+00:00,-6.843,72.204,10.0,4.8,mb,,,,1.2,us,usp00020ay,2014-11-07T00:34:14.129Z,Chagos Archipelago region,earthquake,,,,8.0,reviewed,us,us
3124,1983-12-07 07:44:10.450000+00:00,-6.757000000000001,71.543,10.0,5.0,mb,,,,0.9,us,usp00020ax,2014-11-07T00:34:14.111Z,Chagos Archipelago region,earthquake,,,,20.0,reviewed,us,us
3182,1983-12-07 01:32:46.330000+00:00,-6.8839999999999995,71.639,10.0,4.7,mb,,,,0.8,us,usp00020av,2014-11-07T00:34:14.082Z,Chagos Archipelago region,earthquake,,,,14.0,reviewed,us,us
3300,1983-12-06 09:30:20.570000+00:00,-6.864,72.392,10.0,5.2,mb,,,,0.8,us,usp00020ag,2014-11-07T00:34:13.998Z,Chagos Archipelago region,earthquake,,,,25.0,reviewed,us,us
3355,1983-12-06 02:10:45+00:00,-7.064,71.535,10.0,4.7,mb,,,,1.3,us,usp00020ab,2014-11-07T00:34:13.963Z,Chagos Archipelago region,earthquake,,,,5.0,reviewed,us,us
3485,1983-12-05 04:09:19.410000+00:00,-6.768,72.28699999999999,10.0,4.6,mb,,,,1.3,us,usp000209d,2014-11-07T00:34:13.740Z,Chagos Archipelago region,earthquake,,,,7.0,reviewed,us,us
3514,1983-12-05 00:01:35.650000+00:00,-6.785,71.48,10.0,4.8,mb,,,,0.8,us,usp0002098,2014-11-07T00:34:13.688Z,Chagos Archipelago region,earthquake,,,,11.0,reviewed,us,us
3544,1983-12-04 13:06:30.290000+00:00,-6.813,72.295,10.0,5.0,mb,,,,1.2,us,usp0002093,2016-11-10T00:07:19.165Z,Chagos Archipelago region,earthquake,,,,18.0,reviewed,us,us
3556,1983-12-04 09:14:29.070000+00:00,-6.95,71.601,10.0,4.6,mb,,,,1.1,us,usp000208z,2014-11-07T00:34:13.600Z,Chagos Archipelago region,earthquake,,,,4.0,reviewed,us,us
3575,1983-12-04 02:48:30.640000+00:00,-6.691,71.375,10.0,4.9,mb,,,,1.0,us,usp000208w,2014-11-07T00:34:13.588Z,Chagos Archipelago region,earthquake,,,,9.0,reviewed,us,us
3618,1983-12-03 17:43:14.840000+00:00,-6.462999999999999,71.417,10.0,6.3,mw,,,,1.1,us,usp000208h,2016-11-10T00:54:03.229Z,Chagos Archipelago region,earthquake,,,,,reviewed,us,nc
3634,1983-12-03 11:55:42.680000+00:00,-6.682,72.438,10.0,5.0,mb,,,,0.9,us,usp000208e,2014-11-07T00:34:13.352Z,Chagos Archipelago region,earthquake,,,,12.0,reviewed,us,us
3665,1983-12-03 03:26:31.860000+00:00,-6.874,71.969,10.0,4.6,mb,,,,1.3,us,usp0002089,2014-11-07T00:34:13.320Z,Chagos Archipelago region,earthquake,,,,2.0,reviewed,us,us
3670,1983-12-03 03:10:01.020000+00:00,-6.669,71.638,10.0,4.7,mb,,,,0.8,us,usp0002085,2014-11-07T00:34:13.210Z,Chagos Archipelago region,earthquake,,,,4.0,reviewed,us,us
3699,1983-12-02 20:59:06.850000+00:00,-6.84,72.203,10.0,4.9,mb,,,,1.0,us,usp000207y,2014-11-07T00:34:13.032Z,Chagos Archipelago region,earthquake,,,,16.0,reviewed,us,us
3703,1983-12-02 20:38:16.070000+00:00,-6.577000000000001,71.09100000000001,10.0,5.3,mb,,,,1.1,us,usp000207x,2016-11-10T00:06:34.455Z,Chagos Archipelago region,earthquake,,,,38.0,reviewed,us,us
3715,1983-12-02 19:36:29.740000+00:00,-6.787000000000001,71.949,10.0,4.9,mb,,,,1.2,us,usp000207t,2014-11-07T00:34:12.972Z,Chagos Archipelago region,earthquake,,,,6.0,reviewed,us,us
3731,1983-12-02 15:25:23.510000+00:00,-6.657,71.795,10.0,5.0,mb,,,,1.1,us,usp000207n,2014-11-07T00:34:12.942Z,Chagos Archipelago region,earthquake,,,,5.0,reviewed,us,us
3753,1983-12-02 12:29:08.020000+00:00,-6.675,71.67,10.0,4.5,mb,,,,0.8,us,usp000207g,2014-11-07T00:34:12.907Z,Chagos Archipelago region,earthquake,,,,5.0,reviewed,us,us
3839,1983-12-01 22:29:29.590000+00:00,-6.699,71.782,10.0,5.4,mb,,,,1.0,us,usp0002079,2016-11-10T00:06:13.609Z,Chagos Archipelago region,earthquake,,,,41.0,reviewed,us,us
3859,1983-12-01 18:23:41.400000+00:00,-6.466,71.329,10.0,5.3,mb,,,,0.8,us,usp0002078,2016-11-10T00:06:14.102Z,Chagos Archipelago region,earthquake,,,,50.0,reviewed,us,us
3867,1983-12-01 15:33:11.960000+00:00,-6.8839999999999995,71.921,10.0,4.6,mb,,,,1.5,us,usp0002076,2014-11-07T00:34:12.260Z,Chagos Archipelago region,earthquake,,,,3.0,reviewed,us,us
3870,1983-12-01 15:09:07.390000+00:00,-6.7170000000000005,71.74600000000001,10.0,5.0,mb,,,,0.9,us,usp0002074,2014-11-07T00:34:12.182Z,Chagos Archipelago region,earthquake,,,,22.0,reviewed,us,us
3872,1983-12-01 14:24:06.050000+00:00,-7.004,71.609,10.0,4.4,mb,,,,1.4,us,usp0002073,2014-11-07T00:34:12.173Z,Chagos Archipelago region,earthquake,,,,4.0,reviewed,us,us
3874,1983-12-01 14:08:11.300000+00:00,-6.662999999999999,71.657,10.0,4.6,mb,,,,0.5,us,usp0002072,2014-11-07T00:34:12.163Z,Chagos Archipelago region,earthquake,,,,7.0,reviewed,us,us
3883,1983-12-01 12:22:21.540000+00:00,-6.7989999999999995,71.979,10.0,5.4,mb,,,,1.3,us,usp0002071,2014-11-07T00:34:12.095Z,Chagos Archipelago region,earthquake,,,,46.0,reviewed,us,us
3905,1983-12-01 09:41:11.870000+00:00,-6.691,71.36399999999999,10.0,4.6,mb,,,,0.4,us,usp0002070,2014-11-07T00:34:12.085Z,Chagos Archipelago region,earthquake,,,,5.0,reviewed,us,us
3915,1983-12-01 07:51:16.110000+00:00,-6.647,71.404,10.0,5.3,mb,,,,1.1,us,usp000206v,2014-11-07T00:34:11.954Z,Chagos Archipelago region,earthquake,,,,34.0,reviewed,us,us
3917,1983-12-01 07:23:40.280000+00:00,-6.568,71.85,10.0,4.6,mb,,,,0.3,us,usp000206u,2014-11-07T00:34:11.945Z,Chagos Archipelago region,earthquake,,,,1.0,reviewed,us,us
3918,1983-12-01 07:20:06.100000+00:00,-6.832000000000001,71.49,10.0,5.1,mb,,,,0.9,us,usp000206t,2014-11-07T00:34:11.900Z,Chagos Archipelago region,earthquake,,,,30.0,reviewed,us,us
3920,1983-12-01 06:57:46.120000+00:00,-6.7620000000000005,72.355,10.0,4.9,mb,,,,1.1,us,usp000206s,2014-11-07T00:34:11.863Z,Chagos Archipelago region,earthquake,,,,13.0,reviewed,us,us
3923,1983-12-01 06:19:50.250000+00:00,-6.316,70.971,10.0,5.0,mb,,,,1.1,us,usp000206r,2014-11-07T00:34:11.842Z,Chagos Archipelago region,earthquake,,,,4.0,reviewed,us,us
3925,1983-12-01 06:06:37.730000+00:00,-6.709,71.561,10.0,5.0,mb,,,,0.7,us,usp000206q,2014-11-07T00:34:11.817Z,Chagos Archipelago region,earthquake,,,,11.0,reviewed,us,us
3929,1983-12-01 05:45:34.420000+00:00,-6.653,71.423,10.0,5.6,mw,,,,1.0,us,usp000206n,2016-11-10T00:06:13.103Z,Chagos Archipelago region,earthquake,,,,,reviewed,us,nc
3956,1983-12-01 00:01:12.900000+00:00,-6.479,71.295,10.0,4.8,mb,,,,0.6,us,usp000206g,2014-11-07T00:34:10.853Z,Chagos Archipelago region,earthquake,,,,7.0,reviewed,us,us
