,time,latitude,longitude,depth,mag,magType,nst,gap,dmin,rms,net,id,updated,place,type,horizontalError,depthError,magError,magNst,status,locationSource,magSource
169,1983-11-29 19:51:34.070000+00:00,-7.558,128.112,179.5,5.2,mb,,,,1.1,us,usp000204y,2014-11-07T00:34:09.792Z,"Kepulauan Barat Daya, Indonesia",earthquake,,2.5,,18.0,reviewed,us,us
468,1983-11-27 03:43:25.930000+00:00,-7.4639999999999995,128.555,183.5,4.5,mb,,,,1.3,us,usp000203f,2014-11-07T00:34:09.665Z,"Kepulauan Barat Daya, Indonesia",earthquake,,12.3,,2.0,reviewed,us,us
506,1983-11-26 18:24:39.850000+00:00,-7.086,128.744,165.8,4.6,mb,,,,1.5,us,usp0002037,2014-11-07T00:34:09.615Z,"Kepulauan Barat Daya, Indonesia",earthquake,,35.2,,1.0,reviewed,us,us
766,1983-11-24 18:25:44.270000+00:00,-3.9560000000000004,129.017,148.8,4.6,mb,,,,1.0,us,usp0002018,2014-11-07T00:34:09.360Z,"Seram, Indonesia",earthquake,,35.8,,1.0,reviewed,us,us
791,1983-11-24 10:47:46.350000+00:00,-7.483,128.257,187.2,4.8,mb,,,,1.4,us,usp0002010,2014-11-07T00:34:09.346Z,"Kepulauan Barat Daya, Indonesia",earthquake,,10.5,,3.0,reviewed,us,us
805,1983-11-24 08:28:55.300000+00:00,-8.482000000000001,127.73299999999999,33.0,5.0,mb,,,,1.3,us,usp000200x,2014-11-07T00:34:09.338Z,East Timor region,earthquake,,,,8.0,reviewed,us,us
822,1983-11-24 05:30:34.230000+00:00,-7.481,128.168,178.5,7.3,mw,,,,1.2,us,usp000200r,2017-04-26T17:37:18.327Z,"Kepulauan Barat Daya, Indonesia",earthquake,,2.2,,,reviewed,us,nc
907,1983-11-23 13:58:11.680000+00:00,-7.285,131.046,50.9,5.2,mb,,,,0.8,us,usp0002008,2014-11-07T00:34:09.213Z,"Kepulauan Tanimbar, Indonesia",earthquake,,8.2,,3.0,reviewed,us,us
1219,1983-11-20 20:32:20.520000+00:00,-7.45,130.645,59.3,6.1,mw,,,,1.0,us,usp0001zyk,2016-11-10T00:00:25.773Z,"Kepulauan Tanimbar, Indonesia",earthquake,,,,,reviewed,us,nc
1417,1983-11-19 10:13:45.180000+00:00,-6.869,126.771,414.3,4.3,mb,,,,1.1,us,usp0001zxp,2014-11-07T00:34:08.798Z,Banda Sea,earthquake,,7.7,,3.0,reviewed,us,us
