,time,latitude,longitude,depth,mag,magType,nst,gap,dmin,rms,net,id,updated,place,type,horizontalError,depthError,magError,magNst,status,locationSource,magSource
3951,1984-11-15 07:40:26+00:00,-22.854,172.31,33.0,4.5,mb,,,,1.5,us,usp0002930,2014-11-07T00:35:42.867Z,southeast of the Loyalty Islands,earthquake,,,,4.0,reviewed,us,us
3983,1984-11-15 02:46:19.880000+00:00,-22.022,170.95,104.7,7.1,mw,,,,1.0,us,usp000292p,2016-11-10T00:52:07.618Z,southeast of the Loyalty Islands,earthquake,,,,,reviewed,us,nc
