,time,latitude,longitude,depth,mag,magType,nst,gap,dmin,rms,net,id,updated,place,type,horizontalError,depthError,magError,magNst,status,locationSource,magSource
188,1985-06-29 11:28:52.740000+00:00,-4.65,155.89600000000002,124.3,4.3,mb,,,,1.2,us,usp0002g8w,2014-11-07T00:36:46.057Z,"Bougainville region, Papua New Guinea",earthquake,,19.0,,2.0,reviewed,us,us
468,1985-06-27 12:45:59.480000+00:00,-6.57,154.93200000000002,49.0,5.2,mw,,,,1.0,us,usp0002g70,2016-11-09T22:51:23.434Z,"Bougainville region, Papua New Guinea",earthquake,,4.6,,,reviewed,us,hrv
534,1985-06-27 01:36:09.910000+00:00,-6.792999999999999,151.388,33.0,3.7,mb,,,,1.0,us,usp0002g6k,2014-11-07T00:36:45.749Z,"New Britain region, Papua New Guinea",earthquake,,,,1.0,reviewed,us,us
600,1985-06-26 15:39:10.350000+00:00,-4.9910000000000005,152.143,362.1,4.4,mb,,,,0.7,us,usp0002g64,2014-11-07T00:36:45.652Z,"New Britain region, Papua New Guinea",earthquake,,16.4,,1.0,reviewed,us,us
3223,1985-07-09 02:48:32.990000+00:00,-4.422,152.89600000000002,45.1,4.8,mb,,,,1.1,us,usp0002gmd,2014-11-07T00:36:51.309Z,"New Britain region, Papua New Guinea",earthquake,,9.3,,1.0,reviewed,us,us
3270,1985-07-08 20:03:32.380000+00:00,-5.287000000000001,153.001,26.5,5.1,mb,,,,1.2,us,usp0002gm5,2014-11-07T00:36:51.289Z,"New Ireland region, Papua New Guinea",earthquake,,9.1,,10.0,reviewed,us,us
3488,1985-07-07 16:58:47.350000+00:00,-4.337,152.70600000000002,33.0,3.9,mb,,,,1.4,us,usp0002gjq,2014-11-07T00:36:51.037Z,"New Britain region, Papua New Guinea",earthquake,,,,1.0,reviewed,us,us
3611,1985-07-06 20:28:58.980000+00:00,-5.275,152.936,50.3,4.7,mb,,,,1.3,us,usp0002ghh,2014-11-07T00:36:50.839Z,"New Britain region, Papua New Guinea",earthquake,,9.1,,6.0,reviewed,us,us
3637,1985-07-06 16:09:00.180000+00:00,-4.273,152.856,33.0,4.7,mb,,,,1.3,us,usp0002gh9,2014-11-07T00:36:50.813Z,"New Britain region, Papua New Guinea",earthquake,,,,2.0,reviewed,us,us
3638,1985-07-06 16:05:06.020000+00:00,-4.315,152.61700000000002,33.0,4.5,mb,,,,1.4,us,usp0002gh8,2014-11-07T00:36:50.811Z,"New Britain region, Papua New Guinea",earthquake,,,,1.0,reviewed,us,us
3692,1985-07-06 09:21:21.850000+00:00,-6.376,154.063,33.0,4.2,mb,,,,0.6,us,usp0002ggr,2014-11-07T00:36:50.710Z,"Bougainville region, Papua New Guinea",earthquake,,,,1.0,reviewed,us,us
3773,1985-07-05 23:58:19.040000+00:00,-4.461,152.658,53.3,4.1,mb,,,,1.3,us,usp0002gg8,2014-11-07T00:36:50.545Z,"New Britain region, Papua New Guinea",earthquake,,10.9,,1.0,reviewed,us,us
3845,1985-07-05 14:33:13.410000+00:00,-4.0489999999999995,152.592,33.0,4.7,mb,,,,0.8,us,usp0002gfa,2014-11-07T00:36:50.339Z,"New Britain region, Papua New Guinea",earthquake,,,,1.0,reviewed,us,us
3954,1985-07-04 19:54:19.020000+00:00,-4.091,152.55,33.0,4.1,mb,,,,0.9,us,usp0002geg,2014-11-07T00:36:50.051Z,"New Britain region, Papua New Guinea",earthquake,,,,1.0,reviewed,us,us
3965,1985-07-04 18:00:01.480000+00:00,-4.034,152.532,31.7,4.1,mb,,,,1.3,us,usp0002ged,2014-11-07T00:36:50.032Z,"New Britain region, Papua New Guinea",earthquake,,8.6,,1.0,reviewed,us,us
3972,1985-07-04 17:06:32.630000+00:00,-4.566,152.683,46.8,4.7,mb,,,,0.9,us,usp0002geb,2014-11-07T00:36:49.998Z,"New Britain region, Papua New Guinea",earthquake,,5.5,,10.0,reviewed,us,us
4008,1985-07-04 11:12:45.480000+00:00,-4.287,152.89600000000002,33.0,3.9,mb,,,,1.0,us,usp0002gdz,2014-11-07T00:36:49.917Z,"New Britain region, Papua New Guinea",earthquake,,,,1.0,reviewed,us,us
4051,1985-07-04 03:34:07.580000+00:00,-4.532,152.834,33.0,4.9,mb,,,,1.0,us,usp0002gdk,2014-11-07T00:36:49.784Z,"New Britain region, Papua New Guinea",earthquake,,,,6.0,reviewed,us,us
4072,1985-07-03 23:50:13.170000+00:00,-4.256,152.577,38.5,5.6,mw,,,,0.9,us,usp0002gdg,2016-11-09T22:54:08.265Z,"New Britain region, Papua New Guinea",earthquake,,3.3,,,reviewed,us,hrv
4083,1985-07-03 22:24:40.710000+00:00,-4.468999999999999,152.726,33.0,4.9,mb,,,,1.1,us,usp0002gdc,2014-11-07T00:36:49.717Z,"New Britain region, Papua New Guinea",earthquake,,,,7.0,reviewed,us,us
4090,1985-07-03 21:38:04.590000+00:00,-4.416,152.862,33.0,4.9,mb,,,,1.1,us,usp0002gdb,2014-11-07T00:36:49.709Z,"New Britain region, Papua New Guinea",earthquake,,,,6.0,reviewed,us,us
4130,1985-07-03 17:51:34.450000+00:00,-4.543,152.535,33.0,4.6,mb,,,,1.0,us,usp0002gd2,2014-11-07T00:36:49.639Z,"New Britain region, Papua New Guinea",earthquake,,,,1.0,reviewed,us,us
4158,1985-07-03 13:35:47.750000+00:00,-4.522,152.651,38.3,4.8,mb,,,,0.9,us,usp0002gcu,2014-11-07T00:36:49.526Z,"New Britain region, Papua New Guinea",earthquake,,7.6,,3.0,reviewed,us,us
4161,1985-07-03 13:27:14.900000+00:00,-4.428,152.694,33.0,4.1,mb,,,,1.4,us,usp0002gct,2014-11-07T00:36:49.523Z,"New Britain region, Papua New Guinea",earthquake,,,,1.0,reviewed,us,us
4168,1985-07-03 13:05:03.590000+00:00,-4.779,153.186,33.0,4.8,mb,,,,0.8,us,usp0002gcq,2014-11-07T00:36:49.504Z,"New Ireland region, Papua New Guinea",earthquake,,,,3.0,reviewed,us,us
4170,1985-07-03 12:36:35.030000+00:00,-4.458,152.847,39.8,4.9,mb,,,,1.1,us,usp0002gcp,2014-11-07T00:36:49.495Z,"New Britain region, Papua New Guinea",earthquake,,8.5,,4.0,reviewed,us,us
4171,1985-07-03 12:24:22.030000+00:00,-4.391,152.687,37.7,5.1,mb,,,,1.0,us,usp0002gcn,2014-11-07T00:36:49.475Z,"New Britain region, Papua New Guinea",earthquake,,6.4,,14.0,reviewed,us,us
4179,1985-07-03 11:18:13.790000+00:00,-4.349,152.685,33.0,4.9,mb,,,,1.2,us,usp0002gck,2014-11-07T00:36:49.446Z,"New Britain region, Papua New Guinea",earthquake,,,,6.0,reviewed,us,us
4180,1985-07-03 11:09:38.850000+00:00,-4.5089999999999995,152.803,42.9,4.6,mb,,,,0.8,us,usp0002gcj,2014-11-07T00:36:49.442Z,"New Britain region, Papua New Guinea",earthquake,,10.0,,1.0,reviewed,us,us
4215,1985-07-03 07:07:42.410000+00:00,-4.361000000000001,152.629,33.0,4.8,mb,,,,1.4,us,usp0002gcb,2014-11-07T00:36:49.320Z,"New Britain region, Papua New Guinea",earthquake,,,,2.0,reviewed,us,us
4218,1985-07-03 06:56:15.800000+00:00,-4.484,152.55700000000002,33.0,4.0,mb,,,,0.9,us,usp0002gc9,2014-11-07T00:36:49.310Z,"New Britain region, Papua New Guinea",earthquake,,,,1.0,reviewed,us,us
4219,1985-07-03 06:49:19.190000+00:00,-4.541,152.875,33.0,4.4,mb,,,,1.6,us,usp0002gc8,2014-11-07T00:36:49.304Z,"New Britain region, Papua New Guinea",earthquake,,,,1.0,reviewed,us,us
4222,1985-07-03 06:37:02.950000+00:00,-4.544,152.803,33.0,4.7,mb,,,,1.4,us,usp0002gc7,2014-11-07T00:36:49.301Z,"New Britain region, Papua New Guinea",earthquake,,,,1.0,reviewed,us,us
4226,1985-07-03 06:08:15.130000+00:00,-4.135,152.80700000000002,33.0,4.5,mb,,,,1.2,us,usp0002gc6,2014-11-07T00:36:49.296Z,"New Britain region, Papua New Guinea",earthquake,,,,2.0,reviewed,us,us
4232,1985-07-03 05:28:30.590000+00:00,-4.238,152.785,50.5,4.9,mb,,,,1.3,us,usp0002gc5,2014-11-07T00:36:49.287Z,"New Britain region, Papua New Guinea",earthquake,,12.1,,3.0,reviewed,us,us
4235,1985-07-03 05:20:15.470000+00:00,-4.364,152.951,33.0,5.5,mb,,,,0.8,us,usp0002gc4,2014-11-07T00:36:49.276Z,"New Britain region, Papua New Guinea",earthquake,,,,2.0,reviewed,us,us
4238,1985-07-03 04:36:51.730000+00:00,-4.439,152.828,33.0,7.3,mw,,,,1.0,us,usp0002gc3,2017-04-26T17:38:59.687Z,"New Britain region, Papua New Guinea",earthquake,,,,,reviewed,us,nc
4405,1985-07-01 23:10:04.860000+00:00,-5.113,152.315,33.0,4.6,mb,,,,0.8,us,usp0002gau,2014-11-07T00:36:48.462Z,"New Britain region, Papua New Guinea",earthquake,,,,1.0,reviewed,us,us
