,time,latitude,longitude,depth,mag,magType,nst,gap,dmin,rms,net,id,updated,place,type,horizontalError,depthError,magError,magNst,status,locationSource,magSource
288,1986-06-28 12:58:51.390000+00:00,-4.94,144.028,117.9,4.4,mb,,,,1.4,us,usp0002vgr,2014-11-07T00:38:35.445Z,"near the north coast of New Guinea, Papua New Guinea",earthquake,,24.1,,2.0,reviewed,us,us
410,1986-06-27 12:14:52.090000+00:00,-4.457,143.974,145.8,4.0,mb,,,,1.2,us,usp0002vfd,2014-11-07T00:38:35.257Z,"New Guinea, Papua New Guinea",earthquake,,15.4,,2.0,reviewed,us,us
542,1986-06-26 11:06:41.120000+00:00,-4.6339999999999995,144.10299999999998,129.2,4.0,mb,,,,1.2,us,usp0002ve6,2014-11-07T00:38:35.089Z,"near the north coast of New Guinea, Papua New Guinea",earthquake,,8.7,,1.0,reviewed,us,us
549,1986-06-26 09:53:29.510000+00:00,-5.997000000000001,146.884,120.3,4.0,mb,,,,0.7,us,usp0002ve3,2014-11-07T00:38:35.081Z,"eastern New Guinea region, Papua New Guinea",earthquake,,11.9,,2.0,reviewed,us,us
797,1986-06-24 03:11:30.930000+00:00,-4.448,143.94299999999998,102.3,7.2,mw,,,,1.0,us,usp0002vbr,2017-04-26T17:39:56.949Z,"New Guinea, Papua New Guinea",earthquake,,,,,reviewed,us,hrv
1164,1986-06-20 15:00:44.870000+00:00,-5.422999999999999,146.681,62.8,4.0,mb,,,,1.3,us,usp0002v7x,2014-11-07T00:38:33.860Z,"eastern New Guinea region, Papua New Guinea",earthquake,,11.6,,3.0,reviewed,us,us
1422,1986-06-18 11:25:25.950000+00:00,-5.114,146.023,161.9,4.4,mb,,,,1.0,us,usp0002v5v,2014-11-07T00:38:33.543Z,"eastern New Guinea region, Papua New Guinea",earthquake,,6.6,,3.0,reviewed,us,us
