,time,latitude,longitude,depth,mag,magType,nst,gap,dmin,rms,net,id,updated,place,type,horizontalError,depthError,magError,magNst,status,locationSource,magSource
2399,1987-03-10 14:59:23.420000+00:00,-0.268,-77.733,10.0,4.7,mb,,,,1.0,us,usp000335w,2014-11-07T00:40:02.954Z,Ecuador,earthquake,,,,12.0,reviewed,us,us
2435,1987-03-10 06:38:56.550000+00:00,-0.267,-77.95,10.0,4.7,mb,,,,1.3,us,usp000335j,2014-11-07T00:40:02.889Z,Ecuador,earthquake,,,,10.0,reviewed,us,us
2454,1987-03-10 01:35:28.550000+00:00,-0.187,-77.94800000000001,10.0,4.8,mb,,,,1.0,us,usp0003358,2014-11-07T00:40:02.790Z,Ecuador,earthquake,,,,10.0,reviewed,us,us
2524,1987-03-09 09:25:28.750000+00:00,-0.561,-78.797,10.0,4.7,mb,,,,1.4,us,usp000334g,2014-11-07T00:40:02.590Z,Ecuador,earthquake,,,,11.0,reviewed,us,us
2679,1987-03-07 22:58:14.080000+00:00,-0.138,-77.533,10.0,4.7,mb,,,,1.3,us,usp0003334,2014-11-07T00:40:02.308Z,Ecuador,earthquake,,,,12.0,reviewed,us,us
2705,1987-03-07 19:16:32.230000+00:00,-0.20800000000000002,-77.71600000000001,10.0,4.3,mb,,,,1.4,us,usp000332x,2014-11-07T00:40:02.212Z,Ecuador,earthquake,,,,5.0,reviewed,us,us
2867,1987-03-06 13:49:52.350000+00:00,0.14,-77.268,10.0,4.7,mb,,,,1.1,us,usp000331f,2014-11-07T00:40:01.732Z,Colombia-Ecuador border region,earthquake,,,,7.0,reviewed,us,us
2872,1987-03-06 12:40:05.030000+00:00,-0.152,-77.565,12.2,4.9,mb,,,,1.3,us,usp000331d,2014-11-07T00:40:01.647Z,Ecuador,earthquake,,,,9.0,reviewed,us,us
2902,1987-03-06 08:14:48.080000+00:00,0.022000000000000002,-77.92699999999999,8.5,6.0,mw,,,,1.2,us,usp0003315,2017-04-26T17:40:46.924Z,Colombia-Ecuador border region,earthquake,,,,,reviewed,us,hrv
2910,1987-03-06 06:33:03.690000+00:00,-0.055,-77.62899999999999,10.0,5.2,mb,,,,1.0,us,usp0003312,2014-11-07T00:40:01.207Z,Ecuador,earthquake,,,,50.0,reviewed,us,us
2925,1987-03-06 04:17:30.070000+00:00,-0.22,-77.6,10.0,5.5,mb,,,,1.3,us,usp000330x,2014-11-07T00:40:01.115Z,Ecuador,earthquake,,,,33.0,reviewed,us,us
2926,1987-03-06 04:10:41.960000+00:00,0.151,-77.821,10.0,7.2,mw,,,,1.2,us,usp000330w,2017-04-26T17:40:45.750Z,Colombia-Ecuador border region,earthquake,,,,,reviewed,us,hrv
2941,1987-03-06 01:54:50.490000+00:00,0.048,-77.653,14.1,6.4,mw,,,,0.9,us,usp000330t,2017-04-26T17:40:45.190Z,Colombia-Ecuador border region,earthquake,,,,,reviewed,us,nc
