,time,latitude,longitude,depth,mag,magType,nst,gap,dmin,rms,net,id,updated,place,type,horizontalError,depthError,magError,magNst,status,locationSource,magSource
956,1987-10-22 14:24:39.450000+00:00,-6.73,145.528,33.0,4.5,mb,,,,0.6,us,usp00039gk,2014-11-07T00:41:06.221Z,"New Guinea, Papua New Guinea",earthquake,,,,2.0,reviewed,us,us
1019,1987-10-22 01:58:28.870000+00:00,-7.1770000000000005,147.308,33.0,3.9,mb,,,,1.2,us,usp00039g3,2014-11-07T00:41:06.157Z,"eastern New Guinea region, Papua New Guinea",earthquake,,,,2.0,reviewed,us,us
1124,1987-10-21 03:01:52.710000+00:00,-6.681,149.376,82.0,4.7,mb,,,,0.6,us,usp00039ez,2014-11-07T00:41:05.949Z,"New Britain region, Papua New Guinea",earthquake,,19.2,,1.0,reviewed,us,us
1152,1987-10-20 22:04:53.040000+00:00,-6.821000000000001,149.156,33.0,4.6,mb,,,,0.8,us,usp00039ep,2014-11-07T00:41:05.930Z,"New Britain region, Papua New Guinea",earthquake,,,,2.0,reviewed,us,us
1314,1987-10-19 09:56:03.060000+00:00,-6.487,149.341,53.6,4.7,mb,,,,1.3,us,usp00039dh,2014-11-07T00:41:05.780Z,"New Britain region, Papua New Guinea",earthquake,,13.3,,3.0,reviewed,us,us
1390,1987-10-18 19:27:25.160000+00:00,-6.428,149.16,24.2,4.9,mb,,,,1.3,us,usp00039cx,2014-11-07T00:41:05.723Z,"New Britain region, Papua New Guinea",earthquake,,10.1,,2.0,reviewed,us,us
1422,1987-10-18 14:24:48.190000+00:00,-6.5520000000000005,149.226,40.1,5.5,mw,,,,1.3,us,usp00039cp,2016-11-09T23:44:55.894Z,"New Britain region, Papua New Guinea",earthquake,,10.5,,,reviewed,us,hrv
1423,1987-10-18 14:23:50.960000+00:00,-6.186,149.40200000000002,33.0,4.0,mb,,,,0.9,us,usp00039cn,2014-11-07T00:41:05.701Z,"New Britain region, Papua New Guinea",earthquake,,,,1.0,reviewed,us,us
1469,1987-10-18 03:52:20.060000+00:00,-6.349,149.502,33.0,4.1,mb,,,,1.3,us,usp00039cb,2014-11-07T00:41:05.676Z,"New Britain region, Papua New Guinea",earthquake,,,,1.0,reviewed,us,us
1528,1987-10-17 18:19:30.080000+00:00,-6.6579999999999995,149.283,59.3,4.9,mb,,,,1.3,us,usp00039bu,2014-11-07T00:41:05.620Z,"New Britain region, Papua New Guinea",earthquake,,18.7,,3.0,reviewed,us,us
1533,1987-10-17 17:35:24.510000+00:00,-7.051,148.91,33.0,4.5,mb,,,,1.4,us,usp00039bt,2014-11-07T00:41:05.617Z,"eastern New Guinea region, Papua New Guinea",earthquake,,,,4.0,reviewed,us,us
1545,1987-10-17 15:26:53.110000+00:00,-6.332999999999999,149.47,33.0,4.4,mb,,,,1.2,us,usp00039bn,2014-11-07T00:41:05.606Z,"New Britain region, Papua New Guinea",earthquake,,,,2.0,reviewed,us,us
1557,1987-10-17 13:08:51.750000+00:00,-6.645,149.214,50.5,4.8,mb,,,,1.3,us,usp00039bh,2014-11-07T00:41:05.594Z,"New Britain region, Papua New Guinea",earthquake,,12.4,,4.0,reviewed,us,us
1566,1987-10-17 10:52:25.160000+00:00,-6.0360000000000005,149.52200000000002,65.0,4.8,mb,,,,1.1,us,usp00039bf,2014-11-07T00:41:05.555Z,"New Britain region, Papua New Guinea",earthquake,,9.1,,5.0,reviewed,us,us
1583,1987-10-17 08:32:37.250000+00:00,-5.7379999999999995,147.36,203.0,4.3,mb,,,,1.3,us,usp00039be,2014-11-07T00:41:05.553Z,"eastern New Guinea region, Papua New Guinea",earthquake,,18.2,,2.0,reviewed,us,us
1588,1987-10-17 07:43:38.210000+00:00,-6.369,149.429,42.9,4.9,mb,,,,1.2,us,usp00039bc,2014-11-07T00:41:05.538Z,"New Britain region, Papua New Guinea",earthquake,,9.3,,6.0,reviewed,us,us
1603,1987-10-17 04:17:19.680000+00:00,-6.3260000000000005,149.34799999999998,51.6,4.9,mb,,,,1.1,us,usp00039b7,2014-11-07T00:41:05.524Z,"New Britain region, Papua New Guinea",earthquake,,10.4,,3.0,reviewed,us,us
1606,1987-10-17 03:32:58.670000+00:00,-6.452000000000001,149.486,48.3,4.4,mb,,,,1.2,us,usp00039b6,2014-11-07T00:41:05.522Z,"New Britain region, Papua New Guinea",earthquake,,16.2,,2.0,reviewed,us,us
1610,1987-10-17 02:54:15.470000+00:00,-6.452999999999999,149.377,33.0,4.2,mb,,,,0.7,us,usp00039b5,2014-11-07T00:41:05.521Z,"New Britain region, Papua New Guinea",earthquake,,,,2.0,reviewed,us,us
1614,1987-10-17 00:45:42.740000+00:00,-6.3629999999999995,149.32299999999998,51.6,5.1,mb,,,,1.1,us,usp00039b2,2014-11-07T00:41:05.511Z,"New Britain region, Papua New Guinea",earthquake,,9.0,,6.0,reviewed,us,us
1619,1987-10-16 23:38:32.600000+00:00,-6.303999999999999,149.632,33.0,4.4,mb,,,,1.3,us,usp00039b1,2014-11-07T00:41:05.509Z,"New Britain region, Papua New Guinea",earthquake,,,,1.0,reviewed,us,us
1622,1987-10-16 22:48:00.030000+00:00,-6.1979999999999995,149.56799999999998,33.0,4.5,mb,,,,1.1,us,usp00039az,2014-11-07T00:41:05.507Z,"New Britain region, Papua New Guinea",earthquake,,,,2.0,reviewed,us,us
1625,1987-10-16 22:27:42.130000+00:00,-6.529,149.253,57.3,4.9,mb,,,,0.7,us,usp00039ax,2014-11-07T00:41:05.502Z,"New Britain region, Papua New Guinea",earthquake,,12.4,,3.0,reviewed,us,us
1629,1987-10-16 21:40:42.920000+00:00,-6.421,149.14600000000002,59.0,4.5,mb,,,,1.0,us,usp00039aw,2014-11-07T00:41:05.500Z,"New Britain region, Papua New Guinea",earthquake,,16.5,,2.0,reviewed,us,us
1634,1987-10-16 20:48:01.640000+00:00,-6.266,149.06,47.8,7.4,mw,,,,1.2,us,usp00039av,2017-04-26T17:41:25.550Z,"New Britain region, Papua New Guinea",earthquake,,,,,reviewed,us,hrv
1637,1987-10-16 19:24:40.040000+00:00,-6.667000000000001,149.11,61.8,4.2,mb,,,,0.9,us,usp00039at,2014-11-07T00:41:05.449Z,"New Britain region, Papua New Guinea",earthquake,,14.0,,1.0,reviewed,us,us
1638,1987-10-16 19:08:17.680000+00:00,-6.362,149.315,46.7,5.0,mb,,,,1.1,us,usp00039as,2014-11-07T00:41:05.444Z,"New Britain region, Papua New Guinea",earthquake,,8.0,,4.0,reviewed,us,us
1674,1987-10-16 10:28:00.720000+00:00,-7.422999999999999,148.43,39.3,5.1,mw,,,,1.1,us,usp00039af,2016-11-09T23:43:58.759Z,"eastern New Guinea region, Papua New Guinea",earthquake,,7.1,,,reviewed,us,hrv
1689,1987-10-16 05:38:23.010000+00:00,-5.563,146.961,252.8,4.7,mb,,,,1.1,us,usp00039a7,2014-11-07T00:41:05.397Z,"eastern New Guinea region, Papua New Guinea",earthquake,,12.9,,2.0,reviewed,us,us
1996,1987-10-13 11:38:01.990000+00:00,-3.662,149.336,33.0,4.5,mb,,,,1.5,us,usp000397t,2014-11-07T00:41:05.067Z,Bismarck Sea,earthquake,,,,3.0,reviewed,us,us
2001,1987-10-13 09:58:29.670000+00:00,-5.3629999999999995,147.891,33.0,3.7,mb,,,,1.5,us,usp000397r,2014-11-07T00:41:05.062Z,"eastern New Guinea region, Papua New Guinea",earthquake,,,,1.0,reviewed,us,us
2176,1987-10-11 22:45:48.470000+00:00,-6.382000000000001,146.662,114.8,5.3,mw,,,,1.0,us,usp0003965,2016-11-09T23:41:57.458Z,"eastern New Guinea region, Papua New Guinea",earthquake,,4.3,,,reviewed,us,hrv
2387,1987-10-10 04:28:45.310000+00:00,-6.8260000000000005,147.65200000000002,63.6,4.8,mb,,,,1.3,us,usp000394j,2014-11-07T00:41:04.623Z,"eastern New Guinea region, Papua New Guinea",earthquake,,9.3,,4.0,reviewed,us,us
