,time,latitude,longitude,depth,mag,magType,nst,gap,dmin,rms,net,id,updated,place,type,horizontalError,depthError,magError,magNst,status,locationSource,magSource
62,1971-07-20 21:25:56+00:00,-5.728,153.884,40.0,5.7,mw,,,,,iscgem,iscgem782508,2015-05-13T18:53:05.000Z,"New Ireland region, Papua New Guinea",earthquake,,,,,automatic,iscgem,iscgem
70,1971-07-19 15:37:45+00:00,-5.567,150.562,10.0,6.3,mw,,,,,iscgem,iscgem782466,2017-04-26T17:25:10.302Z,"New Britain region, Papua New Guinea",earthquake,,,,,automatic,iscgem,iscgem
75,1971-07-19 00:14:46+00:00,-5.754,153.868,35.0,7.0,mw,,,,,iscgem,iscgem782440,2017-04-26T17:25:09.601Z,"New Ireland region, Papua New Guinea",earthquake,,,,,automatic,iscgem,iscgem
77,1971-07-18 14:31:19+00:00,-4.869,153.28799999999998,47.5,6.6,mw,,,,,iscgem,iscgem782428,2017-04-26T17:25:08.959Z,"New Ireland region, Papua New Guinea",earthquake,,,,,automatic,iscgem,iscgem
95,1971-07-14 18:27:47+00:00,-5.202999999999999,153.232,40.0,6.5,mw,,,,,iscgem,iscgem782236,2015-05-13T18:53:05.000Z,"New Ireland region, Papua New Guinea",earthquake,,,,,automatic,iscgem,iscgem
96,1971-07-14 18:27:06+00:00,-5.232,153.188,40.0,5.5,mw,,,,,iscgem,iscgem782235,2015-05-13T18:53:05.000Z,"New Ireland region, Papua New Guinea",earthquake,,,,,automatic,iscgem,iscgem
97,1971-07-14 17:38:52+00:00,-5.284,153.233,40.0,6.1,mw,,,,,iscgem,iscgem782231,2015-05-13T18:53:05.000Z,"New Ireland region, Papua New Guinea",earthquake,,,,,automatic,iscgem,iscgem
99,1971-07-14 12:30:17+00:00,-5.681,154.153,40.0,5.6,mw,,,,,iscgem,iscgem782204,2015-05-13T18:53:05.000Z,"Bougainville region, Papua New Guinea",earthquake,,,,,automatic,iscgem,iscgem
100,1971-07-14 07:41:12+00:00,-5.675,153.885,40.0,6.0,mw,,,,,iscgem,iscgem782184,2017-04-26T17:25:07.612Z,"New Ireland region, Papua New Guinea",earthquake,,,,,automatic,iscgem,iscgem
102,1971-07-14 07:37:22+00:00,-5.0360000000000005,153.545,70.0,5.8,mw,,,,,iscgem,iscgem782183,2015-05-13T18:53:05.000Z,"New Ireland region, Papua New Guinea",earthquake,,,,,automatic,iscgem,iscgem
104,1971-07-14 06:11:30+00:00,-5.524,153.85,40.0,8.0,mw,,,,,iscgem,iscgem782181,2017-04-26T17:25:06.962Z,"New Ireland region, Papua New Guinea",earthquake,,,,,automatic,iscgem,iscgem
116,1971-07-10 05:23:52+00:00,-6.086,154.578,50.0,5.9,mw,,,,,iscgem,iscgem782059,2015-05-13T18:53:05.000Z,"Bougainville region, Papua New Guinea",earthquake,,,,,automatic,iscgem,iscgem
121,1971-07-09 09:49:45+00:00,-5.977,154.39,65.0,5.9,mw,,,,,iscgem,iscgem782022,2015-05-13T18:53:05.000Z,"Bougainville region, Papua New Guinea",earthquake,,,,,automatic,iscgem,iscgem
