,time,latitude,longitude,depth,mag,magType,nst,gap,dmin,rms,net,id,updated,place,type,horizontalError,depthError,magError,magNst,status,locationSource,magSource
228,1989-10-31 05:07:57.360000+00:00,39.579,143.257,33.0,4.7,mb,,,,0.8,us,usp00041h7,2014-11-07T00:45:06.138Z,"off the east coast of Honshu, Japan",earthquake,,,,20.0,reviewed,us,us
360,1989-10-30 14:20:41.090000+00:00,39.213,144.239,10.0,4.1,mb,,,,0.3,us,usp00041gg,2014-11-07T00:45:05.990Z,"off the east coast of Honshu, Japan",earthquake,,,,2.0,reviewed,us,us
550,1989-10-29 23:18:04.500000+00:00,39.832,143.19799999999998,10.0,5.3,ms,,,,1.1,us,usp00041f8,2014-11-07T00:45:05.893Z,"off the east coast of Honshu, Japan",earthquake,,,,1.0,reviewed,us,us
633,1989-10-29 16:07:47.720000+00:00,39.513000000000005,143.643,10.0,4.1,mb,,,,1.3,us,usp00041ea,2014-11-07T00:45:05.427Z,"off the east coast of Honshu, Japan",earthquake,,,,3.0,reviewed,us,us
634,1989-10-29 15:53:10.700000+00:00,39.531,143.412,10.0,5.5,mw,,,,0.9,us,usp00041e9,2016-11-09T23:50:25.336Z,"off the east coast of Honshu, Japan",earthquake,,,,,reviewed,us,hrv
669,1989-10-29 12:45:37.640000+00:00,39.748000000000005,143.326,10.0,4.4,mb,,,,1.4,us,usp00041e2,2014-11-07T00:45:05.393Z,"off the east coast of Honshu, Japan",earthquake,,,,3.0,reviewed,us,us
692,1989-10-29 10:51:25.300000+00:00,39.5,143.408,18.0,5.5,mw,,,,1.1,us,usp00041dz,2016-11-09T23:50:24.803Z,"off the east coast of Honshu, Japan",earthquake,,,,,reviewed,us,hrv
745,1989-10-29 06:16:04.840000+00:00,39.934,142.822,10.0,4.1,mb,,,,1.7,us,usp00041dr,2014-11-07T00:45:05.364Z,"near the east coast of Honshu, Japan",earthquake,,,,2.0,reviewed,us,us
753,1989-10-29 05:37:51.360000+00:00,39.54,143.405,10.0,5.0,mb,,,,0.9,us,usp00041dp,2014-11-07T00:45:05.358Z,"off the east coast of Honshu, Japan",earthquake,,,,23.0,reviewed,us,us
756,1989-10-29 05:25:38.270000+00:00,39.571,143.333,9.6,6.9,mw,,,,1.0,us,usp00041dn,2016-11-10T00:50:24.986Z,"off the east coast of Honshu, Japan",earthquake,,,,,reviewed,us,nc
780,1989-10-29 03:32:30.490000+00:00,39.607,143.50799999999998,10.0,4.7,mb,,,,1.2,us,usp00041dh,2014-11-07T00:45:05.302Z,"off the east coast of Honshu, Japan",earthquake,,,,8.0,reviewed,us,us
784,1989-10-29 03:09:10.720000+00:00,39.59,143.458,10.0,5.9,mw,,,,1.0,us,usp00041dg,2016-11-09T23:50:24.148Z,"off the east coast of Honshu, Japan",earthquake,,,,,reviewed,us,hrv
1039,1989-10-28 04:42:24.820000+00:00,36.586999999999996,142.645,34.1,4.5,mb,,,,1.4,us,usp00041cg,2014-11-07T00:45:05.203Z,"off the east coast of Honshu, Japan",earthquake,,,,7.0,reviewed,us,us
1123,1989-10-27 20:49:31.070000+00:00,43.036,145.181,59.6,4.2,mb,,,,1.3,us,usp00041c5,2014-11-07T00:45:05.118Z,"Hokkaido, Japan region",earthquake,,27.6,,5.0,reviewed,us,us
1226,1989-10-27 10:59:39.670000+00:00,39.542,143.959,10.0,4.3,mb,,,,0.5,us,usp00041bq,2014-11-07T00:45:05.094Z,"off the east coast of Honshu, Japan",earthquake,,,,1.0,reviewed,us,us
1274,1989-10-27 08:42:45.840000+00:00,39.781,143.954,10.0,3.9,mb,,,,0.9,us,usp00041bk,2014-11-07T00:45:05.088Z,"off the east coast of Honshu, Japan",earthquake,,,,1.0,reviewed,us,us
1284,1989-10-27 08:09:00.700000+00:00,39.87,143.618,10.0,4.8,mb,,,,1.2,us,usp00041bg,2014-11-07T00:45:05.074Z,"off the east coast of Honshu, Japan",earthquake,,,,18.0,reviewed,us,us
1337,1989-10-27 03:03:21.410000+00:00,39.644,143.741,10.0,4.7,mb,,,,1.1,us,usp00041b6,2014-11-07T00:45:05.050Z,"off the east coast of Honshu, Japan",earthquake,,,,19.0,reviewed,us,us
1341,1989-10-27 02:24:00.520000+00:00,39.873000000000005,143.714,10.0,4.7,mb,,,,1.0,us,usp00041b5,2014-11-07T00:45:05.046Z,"off the east coast of Honshu, Japan",earthquake,,,,12.0,reviewed,us,us
1345,1989-10-27 02:06:08.090000+00:00,39.751999999999995,143.602,10.0,5.3,mb,,,,1.0,us,usp00041b4,2014-11-07T00:45:05.028Z,"off the east coast of Honshu, Japan",earthquake,,,,41.0,reviewed,us,us
1353,1989-10-27 01:45:55.080000+00:00,39.823,143.692,9.1,6.4,mw,,,,1.0,us,usp00041b1,2016-11-10T00:50:15.406Z,"off the east coast of Honshu, Japan",earthquake,,,,,reviewed,us,nc
1363,1989-10-27 00:19:56.990000+00:00,39.68,143.821,10.0,5.0,mb,,,,1.1,us,usp00041ax,2014-11-07T00:45:04.831Z,"off the east coast of Honshu, Japan",earthquake,,,,36.0,reviewed,us,us
1382,1989-10-26 22:56:38.250000+00:00,39.723,143.77100000000002,10.0,4.9,mb,,,,1.0,us,usp00041au,2014-11-07T00:45:04.821Z,"off the east coast of Honshu, Japan",earthquake,,,,18.0,reviewed,us,us
1385,1989-10-26 22:52:59.230000+00:00,39.743,143.811,10.0,4.6,mb,,,,1.0,us,usp00041at,2014-11-07T00:45:04.817Z,"off the east coast of Honshu, Japan",earthquake,,,,10.0,reviewed,us,us
1415,1989-10-26 20:01:24.790000+00:00,39.764,143.664,10.0,4.7,mb,,,,1.0,us,usp00041aq,2014-11-07T00:45:04.793Z,"off the east coast of Honshu, Japan",earthquake,,,,16.0,reviewed,us,us
1442,1989-10-26 18:30:33.310000+00:00,39.889,144.319,10.0,4.5,mb,,,,1.1,us,usp00041an,2014-11-07T00:45:04.790Z,"off the east coast of Honshu, Japan",earthquake,,,,1.0,reviewed,us,us
1463,1989-10-26 17:06:41.620000+00:00,39.812,143.539,8.0,6.2,mw,,,,0.9,us,usp00041af,2016-11-09T23:49:00.272Z,"off the east coast of Honshu, Japan",earthquake,,,,,reviewed,us,nc
1703,1989-10-26 01:45:58.680000+00:00,39.709,143.865,33.0,5.2,mb,,,,0.9,us,usp000419d,2014-11-07T00:45:04.655Z,"off the east coast of Honshu, Japan",earthquake,,,,8.0,reviewed,us,us
3608,1989-11-07 20:53:05.530000+00:00,42.027,142.393,70.6,4.8,mb,,,,1.0,us,usp00041uv,2014-11-07T00:45:11.485Z,"Hokkaido, Japan region",earthquake,,8.6,,37.0,reviewed,us,us
3651,1989-11-07 15:13:51.460000+00:00,40.312,143.535,33.0,4.7,mb,,,,0.9,us,usp00041un,2014-11-07T00:45:11.469Z,"off the east coast of Honshu, Japan",earthquake,,,,7.0,reviewed,us,us
3653,1989-11-07 15:00:35.610000+00:00,39.732,143.57299999999998,33.0,4.6,mb,,,,1.1,us,usp00041um,2014-11-07T00:45:11.466Z,"off the east coast of Honshu, Japan",earthquake,,,,11.0,reviewed,us,us
3744,1989-11-07 03:27:23.170000+00:00,39.141999999999996,143.509,32.5,4.8,mb,,,,1.4,us,usp00041u1,2014-11-07T00:45:11.421Z,"off the east coast of Honshu, Japan",earthquake,,9.3,,8.0,reviewed,us,us
3769,1989-11-07 00:30:29.470000+00:00,39.787,143.4,33.0,4.8,mb,,,,1.1,us,usp00041tx,2014-11-07T00:45:11.405Z,"off the east coast of Honshu, Japan",earthquake,,,,9.0,reviewed,us,us
3792,1989-11-06 22:04:59.570000+00:00,40.181,143.024,33.0,4.7,mb,,,,1.1,us,usp00041tr,2014-11-07T00:45:11.391Z,"off the east coast of Honshu, Japan",earthquake,,,,9.0,reviewed,us,us
3897,1989-11-06 08:56:19.390000+00:00,40.101,142.31799999999998,49.0,5.5,mw,,,,1.0,us,usp00041t4,2016-11-09T23:54:14.495Z,"near the east coast of Honshu, Japan",earthquake,,7.5,,,reviewed,us,hrv
3937,1989-11-06 06:03:58.430000+00:00,39.167,141.66,70.7,4.8,mb,,,,1.4,us,usp00041sv,2014-11-07T00:45:11.104Z,"eastern Honshu, Japan",earthquake,,7.5,,10.0,reviewed,us,us
4011,1989-11-05 19:24:03.770000+00:00,39.605,143.825,27.9,3.7,mb,,,,1.2,us,usp00041se,2014-11-07T00:45:11.050Z,"off the east coast of Honshu, Japan",earthquake,,,,2.0,reviewed,us,us
4014,1989-11-05 19:06:56.950000+00:00,39.713,143.72299999999998,28.6,4.7,mb,,,,0.7,us,usp00041sd,2014-11-07T00:45:11.048Z,"off the east coast of Honshu, Japan",earthquake,,,,3.0,reviewed,us,us
4023,1989-11-05 18:00:09.460000+00:00,39.872,143.454,33.0,4.8,mb,,,,1.2,us,usp00041sb,2014-11-07T00:45:11.017Z,"off the east coast of Honshu, Japan",earthquake,,,,3.0,reviewed,us,us
4042,1989-11-05 15:56:20.630000+00:00,39.159,143.515,28.7,5.2,mw,,,,1.1,us,usp00041s7,2016-11-09T23:53:40.163Z,"off the east coast of Honshu, Japan",earthquake,,,,,reviewed,us,hrv
4050,1989-11-05 15:08:26.080000+00:00,40.046,142.691,42.5,5.2,mb,,,,1.0,us,usp00041s6,2014-11-07T00:45:10.967Z,"near the east coast of Honshu, Japan",earthquake,,,,41.0,reviewed,us,us
4064,1989-11-05 13:42:04.470000+00:00,39.145,143.477,30.6,5.2,mw,,,,1.1,us,usp00041s1,2016-11-09T23:53:39.614Z,"off the east coast of Honshu, Japan",earthquake,,,,,reviewed,us,hrv
4202,1989-11-05 01:25:31.190000+00:00,39.074,143.408,37.3,4.0,mb,,,,1.0,us,usp00041rc,2014-11-07T00:45:10.858Z,"off the east coast of Honshu, Japan",earthquake,,12.7,,4.0,reviewed,us,us
4229,1989-11-04 21:56:42.610000+00:00,39.3,143.336,21.1,5.3,mw,,,,1.1,us,usp00041r7,2016-11-09T23:53:08.777Z,"off the east coast of Honshu, Japan",earthquake,,,,,reviewed,us,hrv
4235,1989-11-04 20:51:13.860000+00:00,39.097,143.57399999999998,26.9,5.5,ms,,,,0.9,us,usp00041r5,2014-11-07T00:45:10.809Z,"off the east coast of Honshu, Japan",earthquake,,,,1.0,reviewed,us,us
4243,1989-11-04 20:12:04.870000+00:00,39.118,143.35399999999998,30.2,5.9,mw,,,,1.1,us,usp00041r2,2016-11-09T23:53:08.135Z,"off the east coast of Honshu, Japan",earthquake,,,,,reviewed,us,hrv
4420,1989-11-04 02:49:16.730000+00:00,39.809,143.27200000000002,33.0,4.8,mb,,,,1.0,us,usp00041q1,2014-11-07T00:45:10.420Z,"off the east coast of Honshu, Japan",earthquake,,,,16.0,reviewed,us,us
4458,1989-11-03 22:45:01.990000+00:00,39.528,143.47,30.8,4.3,mb,,,,0.8,us,usp00041pt,2014-11-07T00:45:10.384Z,"off the east coast of Honshu, Japan",earthquake,,,,1.0,reviewed,us,us
4618,1989-11-03 08:15:13.570000+00:00,39.567,143.188,33.0,4.3,mb,,,,1.2,us,usp00041ny,2014-11-07T00:45:09.963Z,"off the east coast of Honshu, Japan",earthquake,,,,3.0,reviewed,us,us
4634,1989-11-03 05:49:47.410000+00:00,39.514,143.205,24.7,5.2,mb,,,,0.9,us,usp00041nu,2014-11-07T00:45:09.918Z,"off the east coast of Honshu, Japan",earthquake,,,,44.0,reviewed,us,us
4690,1989-11-02 22:35:40.690000+00:00,39.408,143.667,33.0,4.1,mb,,,,1.3,us,usp00041nj,2014-11-07T00:45:09.866Z,"off the east coast of Honshu, Japan",earthquake,,,,4.0,reviewed,us,us
4725,1989-11-02 19:42:37.590000+00:00,39.382,143.62,33.0,4.3,mb,,,,1.0,us,usp00041nf,2014-11-07T00:45:09.838Z,"off the east coast of Honshu, Japan",earthquake,,,,4.0,reviewed,us,us
4759,1989-11-02 16:17:58.460000+00:00,39.486999999999995,143.225,33.0,3.8,mb,,,,1.2,us,usp00041n7,2014-11-07T00:45:09.797Z,"off the east coast of Honshu, Japan",earthquake,,,,2.0,reviewed,us,us
4768,1989-11-02 15:55:19.340000+00:00,40.034,143.546,33.0,4.2,mb,,,,0.7,us,usp00041n6,2014-11-07T00:45:09.792Z,"off the east coast of Honshu, Japan",earthquake,,,,4.0,reviewed,us,us
4782,1989-11-02 13:42:14.480000+00:00,40.018,143.252,27.6,5.5,mw,,,,1.0,us,usp00041n3,2016-11-09T23:52:21.346Z,"off the east coast of Honshu, Japan",earthquake,,,,,reviewed,us,hrv
4801,1989-11-02 11:59:48.890000+00:00,39.638000000000005,143.7,29.4,5.5,ms,,,,0.9,us,usp00041n0,2014-11-07T00:45:09.705Z,"off the east coast of Honshu, Japan",earthquake,,,,1.0,reviewed,us,us
4803,1989-11-02 11:51:46.450000+00:00,39.49,143.09799999999998,26.6,5.3,mw,,,,1.0,us,usp00041mz,2016-11-09T23:52:20.855Z,"off the east coast of Honshu, Japan",earthquake,,,,,reviewed,us,hrv
4814,1989-11-02 11:30:54.290000+00:00,39.238,143.888,33.0,4.0,mb,,,,0.4,us,usp00041mw,2014-11-07T00:45:09.659Z,"off the east coast of Honshu, Japan",earthquake,,,,1.0,reviewed,us,us
4821,1989-11-02 10:37:29.660000+00:00,39.211999999999996,143.94,33.0,4.0,mb,,,,0.4,us,usp00041mv,2014-11-07T00:45:09.657Z,"off the east coast of Honshu, Japan",earthquake,,,,1.0,reviewed,us,us
4830,1989-11-02 10:03:11.550000+00:00,39.596,143.137,33.0,4.7,mb,,,,1.1,us,usp00041mq,2014-11-07T00:45:09.587Z,"off the east coast of Honshu, Japan",earthquake,,,,11.0,reviewed,us,us
4834,1989-11-02 09:34:40.910000+00:00,39.788000000000004,143.173,33.6,4.9,mb,,,,1.1,us,usp00041mp,2014-11-07T00:45:09.580Z,"off the east coast of Honshu, Japan",earthquake,,14.2,,11.0,reviewed,us,us
4860,1989-11-02 08:15:14.850000+00:00,38.821999999999996,143.582,33.0,4.1,mb,,,,0.8,us,usp00041mk,2014-11-07T00:45:09.570Z,"off the east coast of Honshu, Japan",earthquake,,,,1.0,reviewed,us,us
4877,1989-11-02 07:09:27.400000+00:00,39.821999999999996,142.602,33.0,3.8,mb,,,,1.4,us,usp00041mg,2014-11-07T00:45:09.542Z,"near the east coast of Honshu, Japan",earthquake,,,,3.0,reviewed,us,us
4923,1989-11-02 04:01:40.140000+00:00,39.437,143.43200000000002,33.0,4.1,mb,,,,0.9,us,usp00041mb,2014-11-07T00:45:09.504Z,"off the east coast of Honshu, Japan",earthquake,,,,2.0,reviewed,us,us
4937,1989-11-02 02:22:51.520000+00:00,39.422,143.468,33.0,4.6,mb,,,,1.0,us,usp00041m7,2014-11-07T00:45:09.484Z,"off the east coast of Honshu, Japan",earthquake,,,,6.0,reviewed,us,us
4947,1989-11-02 01:42:38.560000+00:00,39.534,143.511,33.0,4.8,mb,,,,1.0,us,usp00041m4,2014-11-07T00:45:09.428Z,"off the east coast of Honshu, Japan",earthquake,,,,9.0,reviewed,us,us
4950,1989-11-02 01:13:25.940000+00:00,39.567,143.378,30.1,4.5,mb,,,,1.0,us,usp00041m3,2014-11-07T00:45:09.422Z,"off the east coast of Honshu, Japan",earthquake,,,,5.0,reviewed,us,us
4951,1989-11-02 01:09:42.520000+00:00,39.404,143.52,27.3,4.7,mb,,,,0.9,us,usp00041m2,2014-11-07T00:45:09.406Z,"off the east coast of Honshu, Japan",earthquake,,,,15.0,reviewed,us,us
4961,1989-11-01 23:52:45.520000+00:00,39.075,144.061,33.0,3.8,mb,,,,1.1,us,usp00041m1,2014-11-07T00:45:09.404Z,"off the east coast of Honshu, Japan",earthquake,,,,1.0,reviewed,us,us
4964,1989-11-01 23:37:07.500000+00:00,39.224000000000004,144.954,33.0,4.3,mb,,,,1.3,us,usp00041m0,2014-11-07T00:45:09.400Z,"off the east coast of Honshu, Japan",earthquake,,,,2.0,reviewed,us,us
4967,1989-11-01 23:20:16.540000+00:00,39.338,143.556,29.3,4.2,mb,,,,0.6,us,usp00041ky,2014-11-07T00:45:09.389Z,"off the east coast of Honshu, Japan",earthquake,,,,3.0,reviewed,us,us
4970,1989-11-01 23:05:46.310000+00:00,39.179,142.997,38.7,5.5,ms,,,,0.9,us,usp00041kx,2014-11-07T00:45:09.342Z,"near the east coast of Honshu, Japan",earthquake,,7.3,,1.0,reviewed,us,us
4971,1989-11-01 23:04:48.190000+00:00,39.52,143.136,31.4,4.3,mb,,,,1.0,us,usp00041kw,2014-11-07T00:45:09.331Z,"off the east coast of Honshu, Japan",earthquake,,,,4.0,reviewed,us,us
4976,1989-11-01 22:34:26.890000+00:00,39.345,143.411,33.0,4.4,mb,,,,1.1,us,usp00041kv,2014-11-07T00:45:09.321Z,"off the east coast of Honshu, Japan",earthquake,,,,4.0,reviewed,us,us
4979,1989-11-01 22:09:29.830000+00:00,39.444,143.336,33.0,4.1,mb,,,,1.4,us,usp00041ku,2014-11-07T00:45:09.316Z,"off the east coast of Honshu, Japan",earthquake,,,,1.0,reviewed,us,us
4981,1989-11-01 21:53:25.480000+00:00,39.897,142.961,33.0,4.8,mb,,,,1.1,us,usp00041kt,2014-11-07T00:45:09.292Z,"near the east coast of Honshu, Japan",earthquake,,,,9.0,reviewed,us,us
4984,1989-11-01 21:40:18.760000+00:00,39.689,143.35399999999998,33.0,4.8,mb,,,,0.9,us,usp00041kr,2014-11-07T00:45:09.277Z,"off the east coast of Honshu, Japan",earthquake,,,,9.0,reviewed,us,us
4996,1989-11-01 20:20:02.780000+00:00,39.998000000000005,142.714,57.1,5.3,mb,,,,1.0,us,usp00041kq,2014-11-07T00:45:09.233Z,"near the east coast of Honshu, Japan",earthquake,,6.6,,38.0,reviewed,us,us
5004,1989-11-01 19:52:45.300000+00:00,39.513000000000005,143.615,29.7,5.1,mb,,,,1.0,us,usp00041kn,2014-11-07T00:45:09.198Z,"off the east coast of Honshu, Japan",earthquake,,,,23.0,reviewed,us,us
5014,1989-11-01 19:29:31.830000+00:00,39.551,143.592,33.0,4.5,mb,,,,0.9,us,usp00041km,2014-11-07T00:45:09.195Z,"off the east coast of Honshu, Japan",earthquake,,,,3.0,reviewed,us,us
5020,1989-11-01 18:49:05.020000+00:00,40.108000000000004,142.466,33.0,4.5,mb,,,,1.5,us,usp00041kk,2014-11-07T00:45:09.192Z,"near the east coast of Honshu, Japan",earthquake,,,,5.0,reviewed,us,us
5023,1989-11-01 18:36:33.890000+00:00,39.637,143.137,30.2,6.0,mb,,,,1.0,us,usp00041kh,2015-05-13T18:53:28.000Z,"off the east coast of Honshu, Japan",earthquake,,,,40.0,reviewed,us,us
5025,1989-11-01 18:25:34.940000+00:00,39.836999999999996,142.76,28.6,7.4,mw,,,,1.1,us,usp00041kg,2017-04-26T17:43:21.677Z,"near the east coast of Honshu, Japan",earthquake,,,,,reviewed,us,hrv
5085,1989-11-01 12:24:02.960000+00:00,39.431999999999995,143.249,33.3,5.2,mw,,,,0.9,us,usp00041jy,2016-11-09T23:51:55.461Z,"off the east coast of Honshu, Japan",earthquake,,,,,reviewed,us,hrv
