,time,latitude,longitude,depth,mag,magType,nst,gap,dmin,rms,net,id,updated,place,type,horizontalError,depthError,magError,magNst,status,locationSource,magSource
3480,1990-03-09 05:12:25.660000+00:00,-21.394000000000002,174.39,29.3,4.4,mb,,,,1.0,us,usp00046cb,2014-11-07T00:45:54.563Z,Vanuatu region,earthquake,,,,4.0,reviewed,us,us
3832,1990-03-07 13:00:31.570000+00:00,-22.051,175.24599999999998,33.0,4.7,mb,,,,1.5,us,usp000469t,2014-11-07T00:45:54.205Z,south of the Fiji Islands,earthquake,,,,7.0,reviewed,us,us
3871,1990-03-07 09:06:47.540000+00:00,-22.151,174.949,33.0,5.2,mb,,,,1.0,us,usp000469q,2014-11-07T00:45:54.193Z,southeast of the Loyalty Islands,earthquake,,,,10.0,reviewed,us,us
3972,1990-03-06 23:28:51.610000+00:00,-21.435,175.81900000000002,50.4,5.1,mb,,,,1.1,us,usp0004696,2014-11-07T00:45:54.147Z,south of the Fiji Islands,earthquake,,,,8.0,reviewed,us,us
4412,1990-03-04 22:12:40.350000+00:00,-21.276,175.96,33.0,4.5,mb,,,,1.4,us,usp000466q,2014-11-07T00:45:52.713Z,south of the Fiji Islands,earthquake,,,,3.0,reviewed,us,us
4429,1990-03-04 19:40:28.170000+00:00,-21.267,175.93900000000002,33.0,4.9,mb,,,,1.2,us,usp000466j,2014-11-07T00:45:52.381Z,south of the Fiji Islands,earthquake,,,,4.0,reviewed,us,us
4466,1990-03-04 14:48:12.580000+00:00,-23.311,176.263,33.0,4.5,mb,,,,1.4,us,usp0004667,2014-11-07T00:45:52.261Z,south of the Fiji Islands,earthquake,,,,2.0,reviewed,us,us
4495,1990-03-04 12:28:25.220000+00:00,-22.480999999999998,174.512,33.0,4.5,mb,,,,1.2,us,usp0004664,2014-11-07T00:45:52.236Z,southeast of the Loyalty Islands,earthquake,,,,3.0,reviewed,us,us
4516,1990-03-04 10:09:02.420000+00:00,-20.069000000000003,177.162,33.0,4.6,mb,,,,0.7,us,usp0004661,2014-11-07T00:45:52.214Z,south of the Fiji Islands,earthquake,,,,1.0,reviewed,us,us
4530,1990-03-04 08:39:29.010000+00:00,-21.963,175.233,33.0,4.6,mb,,,,1.1,us,usp000465y,2014-11-07T00:45:52.193Z,south of the Fiji Islands,earthquake,,,,7.0,reviewed,us,us
4580,1990-03-04 04:08:46.110000+00:00,-21.654,175.782,33.0,4.5,mb,,,,1.0,us,usp000465r,2014-11-07T00:45:52.144Z,south of the Fiji Islands,earthquake,,,,2.0,reviewed,us,us
4591,1990-03-04 02:46:04.490000+00:00,-21.103,175.485,33.0,4.9,mb,,,,1.3,us,usp000465p,2014-11-07T00:45:52.129Z,south of the Fiji Islands,earthquake,,,,5.0,reviewed,us,us
4618,1990-03-04 01:12:59.520000+00:00,-21.864,175.355,33.0,5.0,mb,,,,1.2,us,usp000465h,2014-11-07T00:45:52.104Z,south of the Fiji Islands,earthquake,,,,2.0,reviewed,us,us
4648,1990-03-04 00:00:35.970000+00:00,-21.435,175.951,33.0,4.1,mb,,,,1.5,us,usp000465d,2014-11-07T00:45:52.071Z,south of the Fiji Islands,earthquake,,,,1.0,reviewed,us,us
4738,1990-03-03 19:44:26.700000+00:00,-22.500999999999998,174.205,33.0,5.0,mb,,,,1.1,us,usp0004658,2014-11-07T00:45:52.006Z,southeast of the Loyalty Islands,earthquake,,,,11.0,reviewed,us,us
4743,1990-03-03 19:29:01.790000+00:00,-21.683000000000003,175.56900000000002,33.0,5.1,mb,,,,1.1,us,usp0004657,2014-11-07T00:45:51.945Z,south of the Fiji Islands,earthquake,,,,9.0,reviewed,us,us
4748,1990-03-03 19:21:02.290000+00:00,-21.291999999999998,174.97799999999998,33.0,4.4,mb,,,,1.2,us,usp0004656,2014-11-07T00:45:51.938Z,Vanuatu region,earthquake,,,,1.0,reviewed,us,us
4776,1990-03-03 18:32:50.560000+00:00,-21.721,175.34400000000002,33.0,5.3,mb,,,,0.9,us,usp0004653,2014-11-07T00:45:51.886Z,south of the Fiji Islands,earthquake,,,,17.0,reviewed,us,us
4817,1990-03-03 17:57:46.410000+00:00,-21.944000000000003,174.91099999999997,33.0,4.2,mb,,,,1.0,us,usp0004652,2014-11-07T00:45:51.873Z,Vanuatu region,earthquake,,,,1.0,reviewed,us,us
4820,1990-03-03 17:55:06.710000+00:00,-21.289,175.895,33.0,3.9,mb,,,,1.4,us,usp0004651,2014-11-07T00:45:51.871Z,south of the Fiji Islands,earthquake,,,,1.0,reviewed,us,us
4843,1990-03-03 17:22:11.240000+00:00,-21.886999999999997,175.27700000000002,33.0,4.5,mb,,,,1.3,us,usp0004650,2014-11-07T00:45:51.867Z,south of the Fiji Islands,earthquake,,,,1.0,reviewed,us,us
4848,1990-03-03 17:03:15.990000+00:00,-21.118000000000002,174.988,33.0,5.1,mb,,,,1.5,us,usp000464y,2014-11-07T00:45:51.852Z,Vanuatu region,earthquake,,,,2.0,reviewed,us,us
4865,1990-03-03 15:54:44.410000+00:00,-21.158,175.282,33.0,4.4,mb,,,,1.3,us,usp000464v,2014-11-07T00:45:51.842Z,south of the Fiji Islands,earthquake,,,,1.0,reviewed,us,us
4866,1990-03-03 15:35:32.630000+00:00,-22.084,174.148,33.0,3.8,mb,,,,0.7,us,usp000464u,2014-11-07T00:45:51.838Z,southeast of the Loyalty Islands,earthquake,,,,1.0,reviewed,us,us
4870,1990-03-03 14:57:04.200000+00:00,-21.375999999999998,176.053,33.0,4.8,mb,,,,1.2,us,usp000464t,2014-11-07T00:45:51.829Z,south of the Fiji Islands,earthquake,,,,5.0,reviewed,us,us
4872,1990-03-03 14:42:07.210000+00:00,-22.273000000000003,175.301,33.0,4.7,mb,,,,1.1,us,usp000464r,2014-11-07T00:45:51.819Z,south of the Fiji Islands,earthquake,,,,2.0,reviewed,us,us
4886,1990-03-03 13:52:30.480000+00:00,-21.185,175.297,33.0,4.2,mb,,,,1.3,us,usp000464n,2014-11-07T00:45:51.810Z,south of the Fiji Islands,earthquake,,,,3.0,reviewed,us,us
4890,1990-03-03 13:43:15.160000+00:00,-21.426,176.042,33.0,4.1,mb,,,,0.9,us,usp000464m,2014-11-07T00:45:51.807Z,south of the Fiji Islands,earthquake,,,,2.0,reviewed,us,us
4892,1990-03-03 13:37:31.640000+00:00,-21.0,174.671,33.0,4.5,mb,,,,1.0,us,usp000464k,2014-11-07T00:45:51.803Z,Vanuatu region,earthquake,,,,2.0,reviewed,us,us
4894,1990-03-03 13:18:28.880000+00:00,-21.274,174.15099999999998,33.0,4.3,mb,,,,1.5,us,usp000464j,2014-11-07T00:45:51.798Z,Vanuatu region,earthquake,,,,2.0,reviewed,us,us
4902,1990-03-03 12:44:22.420000+00:00,-22.405,174.16400000000002,33.0,6.6,ms,,,,1.0,us,usp000464f,2015-05-13T18:53:28.000Z,southeast of the Loyalty Islands,earthquake,,,,3.0,reviewed,us,us
4904,1990-03-03 12:34:59.260000+00:00,-21.557,175.753,33.0,6.2,ms,,,,1.0,us,usp000464e,2014-11-07T00:45:51.729Z,south of the Fiji Islands,earthquake,,,,1.0,reviewed,us,us
4907,1990-03-03 12:16:27.960000+00:00,-22.122,175.16299999999998,33.2,7.6,mw,,,,1.3,us,usp000464d,2016-11-10T00:27:40.187Z,south of the Fiji Islands,earthquake,,,,,reviewed,us,hrv
