,time,latitude,longitude,depth,mag,magType,nst,gap,dmin,rms,net,id,updated,place,type,horizontalError,depthError,magError,magNst,status,locationSource,magSource
55,1990-03-31 14:08:02.580000+00:00,16.451,145.8,33.0,4.7,mb,,,,1.1,us,usp000479z,2014-11-07T00:46:01.353Z,"Anatahan region, Northern Mariana Islands",earthquake,,,,10.0,reviewed,us,us
107,1990-03-31 06:35:53.690000+00:00,16.495,145.892,33.0,4.7,mb,,,,0.9,us,usp000479f,2014-11-07T00:46:01.315Z,"Anatahan region, Northern Mariana Islands",earthquake,,,,10.0,reviewed,us,us
204,1990-03-30 15:07:28.730000+00:00,16.349,145.933,33.0,4.8,mb,,,,1.0,us,usp000478n,2014-11-07T00:46:01.102Z,"Anatahan region, Northern Mariana Islands",earthquake,,,,6.0,reviewed,us,us
231,1990-03-30 11:35:41.780000+00:00,16.6,145.94799999999998,33.0,4.6,mb,,,,1.2,us,usp000478f,2014-11-07T00:46:01.090Z,"Anatahan region, Northern Mariana Islands",earthquake,,,,9.0,reviewed,us,us
268,1990-03-30 08:27:19.290000+00:00,16.479,145.95600000000002,33.0,4.8,mb,,,,1.1,us,usp000478b,2014-11-07T00:46:01.080Z,"Anatahan region, Northern Mariana Islands",earthquake,,,,13.0,reviewed,us,us
287,1990-03-30 07:43:34.730000+00:00,16.507,145.937,33.0,5.1,mb,,,,1.1,us,usp0004789,2014-11-07T00:46:01.072Z,"Anatahan region, Northern Mariana Islands",earthquake,,,,19.0,reviewed,us,us
288,1990-03-30 07:41:53.100000+00:00,16.525,146.013,33.0,4.4,mb,,,,1.0,us,usp0004788,2014-11-07T00:46:01.071Z,"Anatahan region, Northern Mariana Islands",earthquake,,,,3.0,reviewed,us,us
335,1990-03-30 03:58:03.230000+00:00,16.52,146.265,33.0,4.3,mb,,,,1.6,us,usp0004782,2014-11-07T00:46:01.056Z,"Anatahan region, Northern Mariana Islands",earthquake,,,,4.0,reviewed,us,us
356,1990-03-30 02:53:57.660000+00:00,16.479,145.99,21.7,5.3,mb,,,,1.1,us,usp000477z,2014-11-07T00:46:01.045Z,"Anatahan region, Northern Mariana Islands",earthquake,,,,18.0,reviewed,us,us
3268,1990-04-12 20:16:34.720000+00:00,15.151,147.563,33.0,4.9,mb,,,,0.8,us,usp00047uy,2014-11-07T00:46:09.271Z,Mariana Islands region,earthquake,,,,4.0,reviewed,us,us
3364,1990-04-12 06:04:32.900000+00:00,16.083,144.79,97.8,4.3,mb,,,,0.7,us,usp00047ug,2014-11-07T00:46:09.242Z,"Anatahan region, Northern Mariana Islands",earthquake,,16.2,,2.0,reviewed,us,us
3479,1990-04-11 17:26:18.210000+00:00,15.511,147.811,33.0,4.4,mb,,,,0.9,us,usp00047tt,2014-11-07T00:46:09.120Z,Mariana Islands region,earthquake,,,,2.0,reviewed,us,us
3505,1990-04-11 13:46:08.980000+00:00,14.935,147.608,33.5,4.7,mb,,,,0.9,us,usp00047tk,2014-11-07T00:46:09.103Z,Mariana Islands region,earthquake,,,,13.0,reviewed,us,us
3516,1990-04-11 12:12:13.280000+00:00,15.139000000000001,147.457,33.0,4.4,mb,,,,0.7,us,usp00047te,2014-11-07T00:46:09.075Z,Mariana Islands region,earthquake,,,,4.0,reviewed,us,us
3524,1990-04-11 11:31:49.320000+00:00,15.245999999999999,147.515,34.1,5.0,mb,,,,0.9,us,usp00047td,2014-11-07T00:46:09.070Z,Mariana Islands region,earthquake,,,,20.0,reviewed,us,us
3571,1990-04-11 01:58:45.940000+00:00,15.079,147.512,33.0,4.3,mb,,,,0.8,us,usp00047t3,2014-11-07T00:46:09.024Z,Mariana Islands region,earthquake,,,,3.0,reviewed,us,us
3596,1990-04-10 21:28:00.540000+00:00,15.777999999999999,147.814,33.0,4.6,mb,,,,0.9,us,usp00047sv,2014-11-07T00:46:09.002Z,Mariana Islands region,earthquake,,,,5.0,reviewed,us,us
3602,1990-04-10 20:26:56.640000+00:00,15.113,147.535,26.6,5.0,mb,,,,1.0,us,usp00047su,2014-11-07T00:46:08.998Z,Mariana Islands region,earthquake,,6.5,,12.0,reviewed,us,us
3617,1990-04-10 18:55:38.920000+00:00,15.125,147.536,24.4,4.8,mb,,,,0.7,us,usp00047sr,2014-11-07T00:46:08.992Z,Mariana Islands region,earthquake,,6.6,,7.0,reviewed,us,us
3637,1990-04-10 17:00:26.660000+00:00,15.525,147.724,33.5,4.9,mb,,,,1.2,us,usp00047sh,2014-11-07T00:46:08.979Z,Mariana Islands region,earthquake,,,,17.0,reviewed,us,us
3659,1990-04-10 13:40:53.430000+00:00,15.03,147.57299999999998,33.0,4.6,mb,,,,0.8,us,usp00047sb,2014-11-07T00:46:08.955Z,Mariana Islands region,earthquake,,,,8.0,reviewed,us,us
3703,1990-04-10 06:42:45.180000+00:00,14.614,146.86,33.0,5.1,mb,,,,1.3,us,usp00047s3,2014-11-07T00:46:08.938Z,"Rota region, Northern Mariana Islands",earthquake,,,,11.0,reviewed,us,us
3751,1990-04-10 00:35:35.470000+00:00,15.16,147.542,20.2,5.0,mb,,,,0.7,us,usp00047rv,2014-11-07T00:46:08.899Z,Mariana Islands region,earthquake,,5.8,,10.0,reviewed,us,us
3789,1990-04-09 20:23:10.100000+00:00,15.114,147.597,20.5,4.5,mb,,,,0.8,us,usp00047rk,2014-11-07T00:46:08.854Z,Mariana Islands region,earthquake,,8.3,,7.0,reviewed,us,us
3800,1990-04-09 19:22:54.260000+00:00,15.439,146.912,33.0,4.6,mb,,,,1.0,us,usp00047rf,2014-11-07T00:46:08.842Z,"Saipan region, Northern Mariana Islands",earthquake,,,,10.0,reviewed,us,us
3907,1990-04-09 08:53:55.960000+00:00,16.516,145.86700000000002,33.0,4.3,mb,,,,1.3,us,usp00047qs,2014-11-07T00:46:08.761Z,"Anatahan region, Northern Mariana Islands",earthquake,,,,4.0,reviewed,us,us
3908,1990-04-09 08:38:45.740000+00:00,15.513,146.725,33.0,5.0,mb,,,,1.2,us,usp00047qr,2014-11-07T00:46:08.757Z,"Saipan region, Northern Mariana Islands",earthquake,,,,13.0,reviewed,us,us
3932,1990-04-09 06:00:08.650000+00:00,15.709000000000001,147.562,10.0,5.0,mb,,,,0.9,us,usp00047qb,2014-11-07T00:46:08.723Z,Mariana Islands region,earthquake,,,,15.0,reviewed,us,us
3972,1990-04-09 00:18:55.140000+00:00,15.367,147.878,33.0,4.1,mb,,,,0.5,us,usp00047q0,2014-11-07T00:46:08.690Z,Mariana Islands region,earthquake,,,,4.0,reviewed,us,us
4046,1990-04-08 14:03:09.560000+00:00,15.4,147.721,33.0,4.4,mb,,,,0.8,us,usp00047pn,2014-11-07T00:46:08.643Z,Mariana Islands region,earthquake,,,,2.0,reviewed,us,us
4095,1990-04-08 08:16:02.670000+00:00,15.54,147.675,41.6,4.5,mb,,,,0.9,us,usp00047p9,2014-11-07T00:46:08.500Z,Mariana Islands region,earthquake,,13.8,,7.0,reviewed,us,us
4098,1990-04-08 07:33:05.290000+00:00,15.626,147.618,33.0,4.7,mb,,,,1.0,us,usp00047p7,2014-11-07T00:46:08.494Z,Mariana Islands region,earthquake,,,,10.0,reviewed,us,us
4107,1990-04-08 07:08:23.890000+00:00,16.094,145.69899999999998,33.0,4.8,mb,,,,0.7,us,usp00047p6,2014-11-07T00:46:08.491Z,"Anatahan region, Northern Mariana Islands",earthquake,,,,6.0,reviewed,us,us
4118,1990-04-08 06:38:26.630000+00:00,15.15,147.59799999999998,33.0,4.4,mb,,,,0.4,us,usp00047p4,2014-11-07T00:46:08.483Z,Mariana Islands region,earthquake,,,,3.0,reviewed,us,us
4121,1990-04-08 06:02:17.400000+00:00,14.885,147.428,33.0,4.8,mb,,,,0.8,us,usp00047p2,2014-11-07T00:46:08.478Z,Mariana Islands region,earthquake,,,,11.0,reviewed,us,us
4148,1990-04-08 02:28:20.330000+00:00,15.555,147.589,33.0,4.2,mb,,,,0.7,us,usp00047nu,2014-11-07T00:46:08.411Z,Mariana Islands region,earthquake,,,,3.0,reviewed,us,us
4173,1990-04-07 22:56:23.010000+00:00,15.078,147.536,33.0,4.4,mb,,,,0.8,us,usp00047nj,2014-11-07T00:46:08.389Z,Mariana Islands region,earthquake,,,,6.0,reviewed,us,us
4190,1990-04-07 21:45:31.430000+00:00,15.942,145.235,33.0,4.4,mb,,,,0.4,us,usp00047nd,2014-11-07T00:46:08.374Z,"Saipan region, Northern Mariana Islands",earthquake,,,,3.0,reviewed,us,us
4242,1990-04-07 15:56:33.230000+00:00,14.965,147.491,33.0,4.7,mb,,,,1.0,us,usp00047n2,2014-11-07T00:46:08.245Z,Mariana Islands region,earthquake,,,,4.0,reviewed,us,us
4282,1990-04-07 12:49:47.710000+00:00,15.453,147.596,31.5,4.5,mb,,,,0.9,us,usp00047mr,2014-11-07T00:46:08.212Z,Mariana Islands region,earthquake,,8.2,,9.0,reviewed,us,us
4290,1990-04-07 12:05:00.300000+00:00,15.095,147.55200000000002,33.0,4.6,ms,,,,0.6,us,usp00047mq,2014-11-07T00:46:08.209Z,Mariana Islands region,earthquake,,,,1.0,reviewed,us,us
4331,1990-04-07 10:20:30.330000+00:00,14.968,147.80100000000002,33.0,4.3,mb,,,,0.8,us,usp00047mk,2014-11-07T00:46:08.199Z,Mariana Islands region,earthquake,,,,3.0,reviewed,us,us
4346,1990-04-07 09:56:21.130000+00:00,15.057,147.55100000000002,33.0,4.6,mb,,,,0.8,us,usp00047mh,2014-11-07T00:46:08.194Z,Mariana Islands region,earthquake,,,,7.0,reviewed,us,us
4348,1990-04-07 09:41:26.650000+00:00,15.048,147.553,33.0,4.7,mb,,,,1.1,us,usp00047mg,2014-11-07T00:46:08.191Z,Mariana Islands region,earthquake,,,,7.0,reviewed,us,us
4394,1990-04-07 06:26:53.840000+00:00,15.289000000000001,147.434,33.0,4.4,mb,,,,0.9,us,usp00047ma,2014-11-07T00:46:08.174Z,Mariana Islands region,earthquake,,,,7.0,reviewed,us,us
4417,1990-04-07 05:30:31.600000+00:00,15.394,147.438,33.0,4.3,mb,,,,1.0,us,usp00047m4,2014-11-07T00:46:08.159Z,Mariana Islands region,earthquake,,,,3.0,reviewed,us,us
4507,1990-04-07 01:10:32.870000+00:00,15.119000000000002,147.59799999999998,33.0,4.3,mb,,,,0.8,us,usp00047ks,2014-11-07T00:46:08.117Z,Mariana Islands region,earthquake,,,,5.0,reviewed,us,us
4519,1990-04-07 00:32:00.270000+00:00,15.048,147.595,33.0,4.7,mb,,,,0.9,us,usp00047kq,2014-11-07T00:46:08.109Z,Mariana Islands region,earthquake,,,,6.0,reviewed,us,us
4528,1990-04-07 00:04:45.560000+00:00,15.078,147.597,33.0,4.5,mb,,,,0.7,us,usp00047km,2014-11-07T00:46:08.101Z,Mariana Islands region,earthquake,,,,5.0,reviewed,us,us
4550,1990-04-06 22:56:58.890000+00:00,15.068,147.593,33.0,4.8,mb,,,,0.9,us,usp00047kg,2014-11-07T00:46:08.090Z,Mariana Islands region,earthquake,,,,8.0,reviewed,us,us
4560,1990-04-06 22:38:44.990000+00:00,15.027999999999999,147.564,35.2,5.3,mw,,,,0.9,us,usp00047kd,2016-11-09T22:14:43.989Z,Mariana Islands region,earthquake,,,,,reviewed,us,hrv
4570,1990-04-06 22:06:45.710000+00:00,15.083,147.629,33.0,4.0,mb,,,,0.5,us,usp00047ka,2014-11-07T00:46:08.064Z,Mariana Islands region,earthquake,,,,2.0,reviewed,us,us
4587,1990-04-06 21:03:09.600000+00:00,15.014000000000001,147.53799999999998,33.0,4.9,mb,,,,0.8,us,usp00047k8,2014-11-07T00:46:08.058Z,Mariana Islands region,earthquake,,,,7.0,reviewed,us,us
4594,1990-04-06 19:40:06.750000+00:00,14.667,146.819,33.0,5.1,ms,,,,1.2,us,usp00047k4,2014-11-07T00:46:08.018Z,"Rota region, Northern Mariana Islands",earthquake,,,,1.0,reviewed,us,us
4604,1990-04-06 18:04:58.290000+00:00,14.988,147.642,33.0,4.4,mb,,,,0.5,us,usp00047k2,2014-11-07T00:46:07.944Z,Mariana Islands region,earthquake,,,,5.0,reviewed,us,us
4609,1990-04-06 17:33:45.960000+00:00,15.555,147.612,41.7,4.2,mb,,,,0.7,us,usp00047jz,2014-11-07T00:46:07.823Z,Mariana Islands region,earthquake,,,,5.0,reviewed,us,us
4624,1990-04-06 14:57:20.100000+00:00,15.177,147.596,15.5,6.3,mw,,,,1.1,us,usp00047jt,2016-11-10T00:30:50.805Z,Mariana Islands region,earthquake,,,,,reviewed,us,nc
4630,1990-04-06 14:17:42.540000+00:00,15.314,147.644,33.0,4.1,mb,,,,0.9,us,usp00047jp,2014-11-07T00:46:07.606Z,Mariana Islands region,earthquake,,,,4.0,reviewed,us,us
4637,1990-04-06 13:48:30.350000+00:00,15.187999999999999,147.622,33.0,4.1,mb,,,,0.6,us,usp00047jm,2014-11-07T00:46:07.601Z,Mariana Islands region,earthquake,,,,3.0,reviewed,us,us
4639,1990-04-06 13:18:35.020000+00:00,15.227,147.546,33.0,4.9,mb,,,,0.7,us,usp00047jj,2014-11-07T00:46:07.595Z,Mariana Islands region,earthquake,,,,11.0,reviewed,us,us
4647,1990-04-06 12:04:05.870000+00:00,16.042,147.614,33.3,5.1,mb,,,,1.2,us,usp00047je,2014-11-07T00:46:07.584Z,Mariana Islands region,earthquake,,,,15.0,reviewed,us,us
4650,1990-04-06 11:39:37.540000+00:00,15.242,147.55200000000002,33.0,4.6,mb,,,,0.7,us,usp00047jd,2014-11-07T00:46:07.582Z,Mariana Islands region,earthquake,,,,8.0,reviewed,us,us
4652,1990-04-06 11:36:05.740000+00:00,15.172,147.649,33.0,4.6,mb,,,,0.6,us,usp00047jc,2014-11-07T00:46:07.579Z,Mariana Islands region,earthquake,,,,4.0,reviewed,us,us
4658,1990-04-06 10:46:13.970000+00:00,15.1,147.561,33.0,4.6,mb,,,,0.5,us,usp00047ja,2014-11-07T00:46:07.575Z,Mariana Islands region,earthquake,,,,5.0,reviewed,us,us
4662,1990-04-06 10:06:01.580000+00:00,15.267999999999999,147.563,33.0,5.1,mb,,,,0.8,us,usp00047j8,2014-11-07T00:46:07.565Z,Mariana Islands region,earthquake,,,,18.0,reviewed,us,us
4677,1990-04-06 09:03:37.250000+00:00,15.67,147.56,38.3,4.7,mb,,,,0.8,us,usp00047j7,2014-11-07T00:46:07.538Z,Mariana Islands region,earthquake,,,,7.0,reviewed,us,us
4680,1990-04-06 08:44:09.530000+00:00,15.620999999999999,147.72,33.0,4.5,mb,,,,0.6,us,usp00047j6,2014-11-07T00:46:07.504Z,Mariana Islands region,earthquake,,,,5.0,reviewed,us,us
4682,1990-04-06 08:40:12.920000+00:00,15.088,147.588,33.0,4.4,mb,,,,0.5,us,usp00047j5,2014-11-07T00:46:07.502Z,Mariana Islands region,earthquake,,,,2.0,reviewed,us,us
4683,1990-04-06 08:26:58.770000+00:00,15.067,147.643,33.0,4.4,mb,,,,0.5,us,usp00047j4,2014-11-07T00:46:07.499Z,Mariana Islands region,earthquake,,,,5.0,reviewed,us,us
4687,1990-04-06 07:33:30.520000+00:00,15.548,147.56,42.7,5.3,mb,,,,0.8,us,usp00047j2,2014-11-07T00:46:07.445Z,Mariana Islands region,earthquake,,,,24.0,reviewed,us,us
4694,1990-04-06 06:54:42.220000+00:00,15.242,147.555,33.0,4.9,mb,,,,0.7,us,usp00047j0,2014-11-07T00:46:07.397Z,Mariana Islands region,earthquake,,,,13.0,reviewed,us,us
4696,1990-04-06 06:30:11.140000+00:00,15.454,147.588,33.0,5.3,mb,,,,0.9,us,usp00047hz,2014-11-07T00:46:07.366Z,Mariana Islands region,earthquake,,,,21.0,reviewed,us,us
4701,1990-04-06 06:17:43.030000+00:00,15.536,147.463,36.3,5.5,ms,,,,0.7,us,usp00047hy,2014-11-07T00:46:07.330Z,Mariana Islands region,earthquake,,,,1.0,reviewed,us,us
4709,1990-04-06 05:31:20.650000+00:00,15.177999999999999,147.507,33.0,5.0,mb,,,,0.9,us,usp00047hu,2014-11-07T00:46:07.103Z,Mariana Islands region,earthquake,,,,16.0,reviewed,us,us
4711,1990-04-06 05:14:18.410000+00:00,15.705,148.43,33.0,4.9,mb,,,,1.2,us,usp00047ht,2014-11-07T00:46:07.042Z,Mariana Islands region,earthquake,,,,8.0,reviewed,us,us
4715,1990-04-06 05:08:00.720000+00:00,15.07,147.624,33.0,5.0,mb,,,,0.8,us,usp00047hs,2014-11-07T00:46:06.995Z,Mariana Islands region,earthquake,,,,16.0,reviewed,us,us
4718,1990-04-06 04:45:10.530000+00:00,15.962,147.35,33.0,5.1,mb,,,,1.5,us,usp00047hq,2014-11-07T00:46:06.983Z,Mariana Islands region,earthquake,,,,5.0,reviewed,us,us
4719,1990-04-06 04:42:32.050000+00:00,15.128,147.621,12.6,5.5,mb,,,,1.0,us,usp00047hp,2014-11-07T00:46:06.919Z,Mariana Islands region,earthquake,,3.5,,37.0,reviewed,us,us
4720,1990-04-06 04:39:08.400000+00:00,15.252,147.51,33.0,5.1,mb,,,,0.9,us,usp00047hn,2014-11-07T00:46:06.912Z,Mariana Islands region,earthquake,,,,19.0,reviewed,us,us
4725,1990-04-06 04:24:58.710000+00:00,15.193,147.628,33.0,4.9,mb,,,,1.0,us,usp00047hm,2014-11-07T00:46:06.906Z,Mariana Islands region,earthquake,,,,14.0,reviewed,us,us
4726,1990-04-06 04:14:13.810000+00:00,15.140999999999998,147.485,33.0,4.3,mb,,,,0.6,us,usp00047hk,2014-11-07T00:46:06.905Z,Mariana Islands region,earthquake,,,,3.0,reviewed,us,us
4727,1990-04-06 03:56:42+00:00,15.259,147.62,33.0,5.2,mb,,,,0.9,us,usp00047hj,2014-11-07T00:46:06.896Z,Mariana Islands region,earthquake,,,,22.0,reviewed,us,us
4729,1990-04-06 03:47:07.140000+00:00,15.224,147.55100000000002,33.0,5.0,mb,,,,0.9,us,usp00047hg,2014-11-07T00:46:06.889Z,Mariana Islands region,earthquake,,,,12.0,reviewed,us,us
4730,1990-04-06 03:46:35.190000+00:00,15.479000000000001,147.632,33.0,4.5,mb,,,,0.8,us,usp00047hf,2014-11-07T00:46:06.886Z,Mariana Islands region,earthquake,,,,3.0,reviewed,us,us
4733,1990-04-06 03:19:37.070000+00:00,15.56,147.491,33.0,5.0,mb,,,,0.6,us,usp00047he,2014-11-07T00:46:06.883Z,Mariana Islands region,earthquake,,,,10.0,reviewed,us,us
4736,1990-04-06 02:48:05.820000+00:00,15.571,147.57399999999998,39.0,5.0,ms,,,,1.0,us,usp00047hc,2014-11-07T00:46:06.870Z,Mariana Islands region,earthquake,,,,1.0,reviewed,us,us
4738,1990-04-06 02:40:01.770000+00:00,15.52,147.566,38.3,5.1,mb,,,,1.0,us,usp00047hb,2014-11-07T00:46:06.858Z,Mariana Islands region,earthquake,,,,19.0,reviewed,us,us
4741,1990-04-06 02:06:54.630000+00:00,15.274000000000001,147.731,33.0,4.3,mb,,,,1.0,us,usp00047h9,2014-11-07T00:46:06.851Z,Mariana Islands region,earthquake,,,,3.0,reviewed,us,us
4744,1990-04-06 01:39:47.710000+00:00,14.558,148.91,33.0,4.7,mb,,,,1.4,us,usp00047h8,2014-11-07T00:46:06.849Z,Mariana Islands region,earthquake,,,,1.0,reviewed,us,us
4745,1990-04-06 01:37:26.170000+00:00,15.673,147.606,23.4,5.0,mb,,,,1.1,us,usp00047h7,2014-11-07T00:46:06.841Z,Mariana Islands region,earthquake,,,,16.0,reviewed,us,us
4750,1990-04-06 01:13:59.780000+00:00,15.617,147.81799999999998,33.0,4.9,mb,,,,0.7,us,usp00047h4,2014-11-07T00:46:06.834Z,Mariana Islands region,earthquake,,,,3.0,reviewed,us,us
4756,1990-04-06 00:51:06.920000+00:00,15.567,147.602,33.0,4.7,mb,,,,0.9,us,usp00047h3,2014-11-07T00:46:06.830Z,Mariana Islands region,earthquake,,,,7.0,reviewed,us,us
4761,1990-04-06 00:02:26.870000+00:00,15.198,147.51,36.0,5.7,ms,,,,1.0,us,usp00047h2,2014-11-07T00:46:06.819Z,Mariana Islands region,earthquake,,,,1.0,reviewed,us,us
4764,1990-04-05 23:58:57.440000+00:00,15.604000000000001,147.555,33.0,5.3,mb,,,,1.2,us,usp00047h1,2014-11-07T00:46:06.810Z,Mariana Islands region,earthquake,,,,19.0,reviewed,us,us
4765,1990-04-05 23:57:12.220000+00:00,15.105,147.828,33.0,5.1,mb,,,,1.1,us,usp00047h0,2014-11-07T00:46:06.807Z,Mariana Islands region,earthquake,,,,8.0,reviewed,us,us
4766,1990-04-05 23:44:45.430000+00:00,15.54,147.60399999999998,36.7,5.0,mb,,,,0.9,us,usp00047gz,2014-11-07T00:46:06.799Z,Mariana Islands region,earthquake,,,,20.0,reviewed,us,us
4767,1990-04-05 23:33:37.100000+00:00,15.457,147.70600000000002,34.3,5.4,mb,,,,0.9,us,usp00047gy,2014-11-07T00:46:06.786Z,Mariana Islands region,earthquake,,,,39.0,reviewed,us,us
4768,1990-04-05 23:30:04.830000+00:00,15.186,147.429,33.0,5.1,mb,,,,0.7,us,usp00047gx,2014-11-07T00:46:06.781Z,Mariana Islands region,earthquake,,,,10.0,reviewed,us,us
4769,1990-04-05 23:26:17.440000+00:00,15.526,147.592,37.0,5.2,mb,,,,0.9,us,usp00047gw,2014-11-07T00:46:06.770Z,Mariana Islands region,earthquake,,,,18.0,reviewed,us,us
4770,1990-04-05 23:23:38.750000+00:00,15.572000000000001,147.572,33.0,5.1,mb,,,,1.0,us,usp00047gv,2014-11-07T00:46:06.763Z,Mariana Islands region,earthquake,,,,18.0,reviewed,us,us
4771,1990-04-05 23:22:10.700000+00:00,15.177999999999999,147.469,33.0,4.9,mb,,,,0.8,us,usp00047gu,2014-11-07T00:46:06.757Z,Mariana Islands region,earthquake,,,,12.0,reviewed,us,us
4776,1990-04-05 22:52:59.900000+00:00,15.552,147.529,45.5,5.5,mb,,,,0.9,us,usp00047gs,2014-11-07T00:46:06.739Z,Mariana Islands region,earthquake,,,,37.0,reviewed,us,us
4777,1990-04-05 22:45:41.910000+00:00,15.339,147.589,33.0,5.0,mb,,,,1.1,us,usp00047gr,2014-11-07T00:46:06.735Z,Mariana Islands region,earthquake,,,,5.0,reviewed,us,us
4783,1990-04-05 22:28:39.260000+00:00,15.323,147.60299999999998,33.0,5.2,mb,,,,0.8,us,usp00047gq,2014-11-07T00:46:06.730Z,Mariana Islands region,earthquake,,,,11.0,reviewed,us,us
4788,1990-04-05 21:57:09.160000+00:00,15.529000000000002,147.769,10.0,5.2,mb,,,,0.9,us,usp00047gn,2014-11-07T00:46:06.721Z,Mariana Islands region,earthquake,,,,18.0,reviewed,us,us
4791,1990-04-05 21:32:21.960000+00:00,15.302999999999999,147.507,33.0,5.3,mb,,,,0.9,us,usp00047gm,2014-11-07T00:46:06.718Z,Mariana Islands region,earthquake,,,,10.0,reviewed,us,us
4792,1990-04-05 21:22:31.330000+00:00,15.331,147.553,33.0,5.7,mb,,,,1.0,us,usp00047gk,2014-11-07T00:46:06.709Z,Mariana Islands region,earthquake,,,,20.0,reviewed,us,us
4794,1990-04-05 21:12:35.550000+00:00,15.125,147.596,11.4,7.6,mw,,,,1.2,us,usp00047gj,2017-02-07T23:21:06.887Z,Mariana Islands region,earthquake,,,,,reviewed,us,par
4951,1990-04-04 19:29:59.020000+00:00,16.524,145.971,33.0,4.5,mb,,,,1.1,us,usp00047f9,2014-11-07T00:46:06.011Z,"Anatahan region, Northern Mariana Islands",earthquake,,,,4.0,reviewed,us,us
5000,1990-04-04 12:01:03.770000+00:00,16.93,144.69299999999998,33.0,4.8,mb,,,,0.9,us,usp00047es,2014-11-07T00:46:05.931Z,"Anatahan region, Northern Mariana Islands",earthquake,,,,1.0,reviewed,us,us
5001,1990-04-04 11:59:35.330000+00:00,16.437,145.868,54.9,4.8,mb,,,,1.2,us,usp00047er,2014-11-07T00:46:05.792Z,"Anatahan region, Northern Mariana Islands",earthquake,,,,18.0,reviewed,us,us
5174,1990-04-03 09:38:53.140000+00:00,16.521,146.02100000000002,33.0,3.9,mb,,,,0.6,us,usp00047dj,2014-11-07T00:46:04.834Z,"Anatahan region, Northern Mariana Islands",earthquake,,,,3.0,reviewed,us,us
