,time,latitude,longitude,depth,mag,magType,nst,gap,dmin,rms,net,id,updated,place,type,horizontalError,depthError,magError,magNst,status,locationSource,magSource
113,1971-08-02 13:00:02+00:00,41.424,143.47299999999998,44.7,5.5,mw,,,,,iscgem,iscgem780843,2015-05-13T18:53:05.000Z,"Hokkaido, Japan region",earthquake,,,,,automatic,iscgem,iscgem
115,1971-08-02 07:24:58+00:00,41.415,143.416,54.8,7.1,mw,,,,,iscgem,iscgem780829,2017-04-26T17:25:17.164Z,"Hokkaido, Japan region",earthquake,,,,,automatic,iscgem,iscgem
