,time,latitude,longitude,depth,mag,magType,nst,gap,dmin,rms,net,id,updated,place,type,horizontalError,depthError,magError,magNst,status,locationSource,magSource
2856,1992-10-18 15:55:03.480000+00:00,-16.56,167.424,34.0,4.6,mb,,,,1.3,us,usp0005fhh,2014-11-07T00:51:41.282Z,Vanuatu,earthquake,,13.5,,5.0,reviewed,us,us
3078,1992-10-17 18:10:23.880000+00:00,-19.334,169.636,36.1,5.4,mw,,,,1.3,us,usp0005ffs,2016-11-09T23:44:31.590Z,Vanuatu,earthquake,,9.6,,,reviewed,us,hrv
3108,1992-10-17 15:30:28.700000+00:00,-19.627,170.06099999999998,33.0,4.8,mb,,,,1.7,us,usp0005ffk,2014-11-07T00:51:40.791Z,Vanuatu,earthquake,,,,2.0,reviewed,us,us
3127,1992-10-17 14:12:33.130000+00:00,-19.355999999999998,169.695,39.5,5.1,mb,,,,1.5,us,usp0005ffd,2014-11-07T00:51:40.767Z,Vanuatu,earthquake,,20.8,,4.0,reviewed,us,us
3152,1992-10-17 11:41:03.300000+00:00,-19.160999999999998,169.484,33.0,5.3,mb,,,,1.2,us,usp0005ff6,2014-11-07T00:51:40.731Z,Vanuatu,earthquake,,,,41.0,reviewed,us,us
3193,1992-10-17 07:29:51.380000+00:00,-19.171,168.85299999999998,125.3,5.2,mb,,,,1.0,us,usp0005feu,2014-11-07T00:51:40.418Z,Vanuatu,earthquake,,6.5,,11.0,reviewed,us,us
3209,1992-10-17 05:47:58.110000+00:00,-19.239,169.47299999999998,33.0,5.5,mw,,,,1.3,us,usp0005fer,2016-11-09T23:44:31.015Z,Vanuatu,earthquake,,,,,reviewed,us,hrv
3229,1992-10-17 03:35:40.270000+00:00,-19.211,169.524,51.5,4.8,mb,,,,1.5,us,usp0005fek,2014-11-07T00:51:40.388Z,Vanuatu,earthquake,,17.2,,3.0,reviewed,us,us
3233,1992-10-17 02:51:50.920000+00:00,-19.226,169.553,11.8,6.5,mw,,,,1.3,us,usp0005feh,2017-04-26T17:47:08.900Z,Vanuatu,earthquake,,,,,reviewed,us,hrv
3239,1992-10-17 02:06:01.990000+00:00,-19.354,169.69400000000002,57.2,5.3,mb,,,,1.3,us,usp0005fef,2014-11-07T00:51:40.329Z,Vanuatu,earthquake,,17.6,,6.0,reviewed,us,us
3336,1992-10-16 16:15:19.780000+00:00,-20.43,169.255,40.0,5.3,mw,,,,1.4,us,usp0005fdt,2016-11-09T23:44:05.922Z,Vanuatu,earthquake,,,,,reviewed,us,hrv
3553,1992-10-15 14:40:23.310000+00:00,-19.157,169.614,20.3,5.4,mw,,,,1.4,us,usp0005fcf,2016-11-09T23:43:36.484Z,Vanuatu,earthquake,,,,,reviewed,us,hrv
3589,1992-10-15 11:20:57.540000+00:00,-19.688,170.176,33.0,4.5,mb,,,,1.2,us,usp0005fc6,2014-11-07T00:51:39.984Z,Vanuatu,earthquake,,,,2.0,reviewed,us,us
4130,1992-10-12 22:02:27.660000+00:00,-18.722,169.31,244.2,4.5,mb,,,,0.6,us,usp0005f8r,2014-11-07T00:51:39.651Z,Vanuatu,earthquake,,19.7,,5.0,reviewed,us,us
4373,1992-10-11 23:40:58.400000+00:00,-20.494,168.266,33.0,4.3,mb,,,,1.6,us,usp0005f7n,2014-11-07T00:51:39.459Z,"Loyalty Islands, New Caledonia",earthquake,,,,5.0,reviewed,us,us
4413,1992-10-11 19:24:26.290000+00:00,-19.247,168.94799999999998,129.0,7.4,mw,,,,1.1,us,usp0005f79,2017-04-26T17:47:07.004Z,Vanuatu,earthquake,,,,,reviewed,us,hrv
4547,1992-10-11 05:26:52.950000+00:00,-19.09,167.65400000000002,33.0,4.1,mb,,,,0.8,us,usp0005f67,2014-11-07T00:51:39.104Z,Vanuatu region,earthquake,,,,3.0,reviewed,us,us
