,time,latitude,longitude,depth,mag,magType,nst,gap,dmin,rms,net,id,updated,place,type,horizontalError,depthError,magError,magNst,status,locationSource,magSource
2483,1993-09-17 17:29:30.400000+00:00,13.935,-93.12,33.0,4.4,mb,,,,1.1,us,usp00060hw,2014-11-07T00:53:58.801Z,"off the coast of Chiapas, Mexico",earthquake,,,,3.0,reviewed,us,us
2543,1993-09-17 09:59:46.940000+00:00,14.239,-92.79799999999999,33.0,4.2,md,,,,0.3,us,usp00060h2,2014-11-07T00:53:58.737Z,"offshore Chiapas, Mexico",earthquake,,,,,reviewed,us,gcg
2610,1993-09-17 03:10:01.460000+00:00,14.225,-93.109,33.0,4.1,mb,,,,1.7,us,usp00060gh,2014-11-07T00:53:58.700Z,"offshore Chiapas, Mexico",earthquake,,,,4.0,reviewed,us,us
2616,1993-09-17 02:20:04.640000+00:00,14.948,-92.459,33.0,4.2,mb,,,,1.2,us,usp00060ge,2014-11-07T00:53:58.694Z,"Chiapas, Mexico",earthquake,,,,1.0,reviewed,us,us
2721,1993-09-16 15:05:13.320000+00:00,14.025,-92.85799999999999,33.0,4.1,mb,,,,1.3,us,usp00060ft,2014-11-07T00:53:58.638Z,"offshore Chiapas, Mexico",earthquake,,,,2.0,reviewed,us,us
2726,1993-09-16 14:56:15.880000+00:00,13.437000000000001,-92.521,33.0,4.2,mb,,,,0.7,us,usp00060fs,2014-11-07T00:53:58.637Z,near the coast of Guatemala,earthquake,,,,2.0,reviewed,us,us
2760,1993-09-16 11:08:42.340000+00:00,14.019,-92.88,33.0,4.1,mb,,,,1.6,us,usp00060fb,2014-11-07T00:53:58.585Z,"offshore Chiapas, Mexico",earthquake,,,,1.0,reviewed,us,us
2765,1993-09-16 10:47:37.380000+00:00,13.745,-92.861,33.0,4.3,mb,,,,1.6,us,usp00060f9,2014-11-07T00:53:58.581Z,"off the coast of Chiapas, Mexico",earthquake,,,,5.0,reviewed,us,us
2800,1993-09-16 06:36:20.280000+00:00,14.133,-92.95299999999999,33.0,4.4,mb,,,,1.4,us,usp00060er,2014-11-07T00:53:58.527Z,"offshore Chiapas, Mexico",earthquake,,,,13.0,reviewed,us,us
2908,1993-09-15 16:29:51.790000+00:00,14.019,-92.91,33.0,3.8,mb,,,,0.9,us,usp00060dx,2014-11-07T00:53:58.406Z,"offshore Chiapas, Mexico",earthquake,,,,2.0,reviewed,us,us
2919,1993-09-15 15:39:50.650000+00:00,14.164000000000001,-92.805,27.2,4.6,mb,,,,1.4,us,usp00060dv,2014-11-07T00:53:58.402Z,"offshore Chiapas, Mexico",earthquake,,,,8.0,reviewed,us,us
3050,1993-09-15 04:20:45.160000+00:00,14.081,-92.773,33.0,3.9,mb,,,,1.4,us,usp00060cm,2014-11-07T00:53:58.304Z,"offshore Chiapas, Mexico",earthquake,,,,2.0,reviewed,us,us
3074,1993-09-15 02:28:17.840000+00:00,14.052,-93.079,33.0,4.2,mb,,,,1.4,us,usp00060ce,2014-11-07T00:53:58.277Z,"off the coast of Chiapas, Mexico",earthquake,,,,2.0,reviewed,us,us
3094,1993-09-15 00:51:58.400000+00:00,14.015999999999998,-93.15100000000001,24.9,4.5,mb,,,,1.3,us,usp00060c6,2014-11-07T00:53:58.259Z,"off the coast of Chiapas, Mexico",earthquake,,,,10.0,reviewed,us,us
3204,1993-09-14 14:18:30.200000+00:00,14.037,-93.12299999999999,33.0,4.1,mb,,,,1.6,us,usp00060bd,2014-11-07T00:53:58.179Z,"off the coast of Chiapas, Mexico",earthquake,,,,2.0,reviewed,us,us
3209,1993-09-14 13:20:40.530000+00:00,14.272,-93.09200000000001,33.0,4.7,mb,,,,1.3,us,usp00060ba,2014-11-07T00:53:58.169Z,"offshore Chiapas, Mexico",earthquake,,,,13.0,reviewed,us,us
3214,1993-09-14 12:45:31.930000+00:00,14.097000000000001,-92.757,33.0,4.7,mb,,,,1.2,us,usp00060b7,2014-11-07T00:53:58.163Z,"offshore Chiapas, Mexico",earthquake,,,,13.0,reviewed,us,us
3336,1993-09-14 03:59:27.810000+00:00,14.231,-93.11399999999999,31.2,5.6,mw,,,,1.1,us,usp00060a9,2016-11-09T23:29:15.855Z,"offshore Chiapas, Mexico",earthquake,,,,,reviewed,us,hrv
3347,1993-09-14 02:11:20.050000+00:00,14.497,-93.20700000000001,33.0,4.3,mb,,,,1.5,us,usp00060a6,2014-11-07T00:53:58.074Z,"offshore Chiapas, Mexico",earthquake,,,,1.0,reviewed,us,us
3379,1993-09-13 21:40:28.360000+00:00,14.155999999999999,-93.15,33.0,4.6,md,,,,0.9,us,usp000609s,2014-11-07T00:53:57.803Z,"off the coast of Chiapas, Mexico",earthquake,,,,,reviewed,us,gcg
3381,1993-09-13 21:32:44.030000+00:00,14.069,-93.03399999999999,33.0,4.1,mb,,,,1.6,us,usp000609r,2014-11-07T00:53:57.801Z,"off the coast of Chiapas, Mexico",earthquake,,,,2.0,reviewed,us,us
3464,1993-09-13 09:17:25.010000+00:00,13.885,-92.97,33.0,4.3,mb,,,,1.1,us,usp000608r,2014-11-07T00:53:57.501Z,"off the coast of Chiapas, Mexico",earthquake,,,,2.0,reviewed,us,us
3568,1993-09-12 16:19:38.170000+00:00,14.435,-92.545,33.0,4.2,mb,,,,0.8,us,usp000607e,2014-11-07T00:53:57.357Z,"offshore Chiapas, Mexico",earthquake,,,,2.0,reviewed,us,us
3574,1993-09-12 15:27:20.660000+00:00,14.155999999999999,-92.954,33.0,4.6,mb,,,,1.4,us,usp000607b,2014-11-07T00:53:57.345Z,"offshore Chiapas, Mexico",earthquake,,,,16.0,reviewed,us,us
3576,1993-09-12 15:07:45.100000+00:00,14.007,-93.22399999999999,33.0,4.1,mb,,,,1.3,us,usp000607a,2014-11-07T00:53:57.342Z,"off the coast of Chiapas, Mexico",earthquake,,,,3.0,reviewed,us,us
3581,1993-09-12 14:09:03.700000+00:00,14.165999999999999,-92.897,33.0,4.3,mb,,,,1.3,us,usp0006076,2014-11-07T00:53:57.324Z,"offshore Chiapas, Mexico",earthquake,,,,12.0,reviewed,us,us
3583,1993-09-12 13:56:20.150000+00:00,14.737,-92.76899999999999,33.0,4.3,mb,,,,1.4,us,usp0006075,2014-11-07T00:53:57.321Z,"offshore Chiapas, Mexico",earthquake,,,,8.0,reviewed,us,us
3651,1993-09-12 03:22:38.500000+00:00,13.825999999999999,-90.429,68.2,6.0,mw,,,,1.1,us,usp000606e,2017-04-26T17:48:06.929Z,offshore Guatemala,earthquake,,,,,reviewed,us,hrv
3674,1993-09-11 23:05:43.350000+00:00,15.034,-92.921,33.0,4.4,mb,,,,1.6,us,usp0006068,2014-11-07T00:53:57.177Z,"offshore Chiapas, Mexico",earthquake,,,,4.0,reviewed,us,us
3690,1993-09-11 20:55:39.830000+00:00,14.22,-93.037,33.0,4.1,mb,,,,0.4,us,usp0006063,2014-11-07T00:53:57.167Z,"offshore Chiapas, Mexico",earthquake,,,,2.0,reviewed,us,us
3693,1993-09-11 20:02:55.330000+00:00,14.280999999999999,-92.62200000000001,33.0,4.4,mb,,,,1.1,us,usp0006061,2014-11-07T00:53:57.163Z,"offshore Chiapas, Mexico",earthquake,,,,3.0,reviewed,us,us
3696,1993-09-11 19:29:42.740000+00:00,14.375,-92.31200000000001,33.0,5.7,mw,,,,0.9,us,usp000605z,2016-11-09T23:27:43.283Z,offshore Guatemala,earthquake,,,,,reviewed,us,hrv
3702,1993-09-11 18:42:58.400000+00:00,13.977,-93.189,17.1,4.3,mb,,,,1.8,us,usp000605w,2014-11-07T00:53:57.112Z,"off the coast of Chiapas, Mexico",earthquake,,,,4.0,reviewed,us,us
3730,1993-09-11 15:18:00.150000+00:00,14.033,-93.31700000000001,33.0,4.1,mb,,,,1.4,us,usp000605n,2014-11-07T00:53:57.068Z,"off the coast of Chiapas, Mexico",earthquake,,,,3.0,reviewed,us,us
3773,1993-09-11 09:32:31.540000+00:00,14.065,-93.0,33.0,4.3,mb,,,,1.6,us,usp0006054,2014-11-07T00:53:57.030Z,"offshore Chiapas, Mexico",earthquake,,,,6.0,reviewed,us,us
3775,1993-09-11 09:17:23.380000+00:00,14.818,-92.78399999999999,33.0,4.4,mb,,,,1.1,us,usp0006052,2014-11-07T00:53:57.026Z,"offshore Chiapas, Mexico",earthquake,,,,6.0,reviewed,us,us
3800,1993-09-11 07:49:09.050000+00:00,14.408,-92.95100000000001,33.0,4.4,md,,,,0.6,us,usp000604p,2014-11-07T00:53:56.997Z,"offshore Chiapas, Mexico",earthquake,,,,,reviewed,us,gcg
3822,1993-09-11 05:23:18.910000+00:00,14.390999999999998,-92.98299999999999,33.0,5.2,ms,,,,1.3,us,usp000604c,2014-11-07T00:53:56.929Z,"offshore Chiapas, Mexico",earthquake,,,,12.0,reviewed,us,us
3826,1993-09-11 05:04:39.120000+00:00,13.935,-93.209,33.0,4.4,mb,,,,1.2,us,usp0006049,2014-11-07T00:53:56.924Z,"off the coast of Chiapas, Mexico",earthquake,,,,2.0,reviewed,us,us
3830,1993-09-11 04:25:24.710000+00:00,14.526,-92.385,33.0,4.4,mb,,,,0.6,us,usp0006047,2014-11-07T00:53:56.856Z,"offshore Chiapas, Mexico",earthquake,,,,6.0,reviewed,us,us
3831,1993-09-11 04:24:45.050000+00:00,13.219000000000001,-92.088,33.0,4.4,mb,,,,1.3,us,usp0006046,2014-11-07T00:53:56.854Z,near the coast of Guatemala,earthquake,,,,4.0,reviewed,us,us
3833,1993-09-11 04:10:10.750000+00:00,14.072000000000001,-93.051,33.0,4.5,mb,,,,1.1,us,usp0006044,2014-11-07T00:53:56.846Z,"off the coast of Chiapas, Mexico",earthquake,,,,11.0,reviewed,us,us
3835,1993-09-11 03:51:19.940000+00:00,13.844000000000001,-93.11200000000001,33.0,4.3,mb,,,,0.9,us,usp0006043,2014-11-07T00:53:56.844Z,"off the coast of Chiapas, Mexico",earthquake,,,,2.0,reviewed,us,us
3838,1993-09-11 03:27:42.130000+00:00,14.37,-92.54899999999999,33.0,4.8,mb,,,,1.0,us,usp0006042,2014-11-07T00:53:56.835Z,"offshore Chiapas, Mexico",earthquake,,,,46.0,reviewed,us,us
3843,1993-09-11 03:10:57.960000+00:00,15.155999999999999,-92.615,33.0,4.2,mb,,,,0.8,us,usp0006041,2014-11-07T00:53:56.833Z,"Chiapas, Mexico",earthquake,,,,5.0,reviewed,us,us
3845,1993-09-11 03:02:42.720000+00:00,14.175,-93.016,33.0,4.6,md,,,,0.6,us,usp0006040,2014-11-07T00:53:56.832Z,"offshore Chiapas, Mexico",earthquake,,,,,reviewed,us,gcg
3847,1993-09-11 02:52:41.810000+00:00,15.327,-92.568,33.0,4.1,mb,,,,1.5,us,usp000603z,2014-11-07T00:53:56.830Z,"Chiapas, Mexico",earthquake,,,,3.0,reviewed,us,us
3851,1993-09-11 02:24:18.460000+00:00,14.655,-92.54700000000001,33.0,4.2,mb,,,,1.4,us,usp000603y,2014-11-07T00:53:56.828Z,"offshore Chiapas, Mexico",earthquake,,,,6.0,reviewed,us,us
3856,1993-09-11 01:24:57.240000+00:00,14.366,-93.069,30.1,5.0,mb,,,,1.2,us,usp000603u,2014-11-07T00:53:56.815Z,"offshore Chiapas, Mexico",earthquake,,,,26.0,reviewed,us,us
3862,1993-09-11 00:30:47.940000+00:00,14.232999999999999,-92.88,33.0,4.8,mb,,,,1.3,us,usp000603t,2014-11-07T00:53:56.811Z,"offshore Chiapas, Mexico",earthquake,,,,12.0,reviewed,us,us
3868,1993-09-11 00:00:09.680000+00:00,14.359000000000002,-93.189,33.0,4.6,mb,,,,1.6,us,usp000603r,2014-11-07T00:53:56.808Z,"offshore Chiapas, Mexico",earthquake,,,,4.0,reviewed,us,us
3869,1993-09-10 23:45:29.990000+00:00,14.187999999999999,-92.84200000000001,33.0,4.5,mb,,,,0.4,us,usp000603q,2014-11-07T00:53:56.806Z,"offshore Chiapas, Mexico",earthquake,,,,1.0,reviewed,us,us
3871,1993-09-10 23:23:36.180000+00:00,14.324000000000002,-93.03,51.8,4.8,mb,,,,1.1,us,usp000603p,2014-11-07T00:53:56.800Z,"offshore Chiapas, Mexico",earthquake,,5.8,,32.0,reviewed,us,us
3872,1993-09-10 23:17:18.560000+00:00,14.962,-92.68299999999999,33.0,4.3,mb,,,,1.2,us,usp000603n,2014-11-07T00:53:56.798Z,"offshore Chiapas, Mexico",earthquake,,,,4.0,reviewed,us,us
3877,1993-09-10 22:37:24.710000+00:00,14.463,-92.698,70.7,4.7,mb,,,,1.0,us,usp000603k,2014-11-07T00:53:56.790Z,"offshore Chiapas, Mexico",earthquake,,4.5,,25.0,reviewed,us,us
3885,1993-09-10 21:58:36.010000+00:00,14.39,-93.19,44.7,4.2,mb,,,,1.2,us,usp000603g,2014-11-07T00:53:56.783Z,"offshore Chiapas, Mexico",earthquake,,10.0,,6.0,reviewed,us,us
3887,1993-09-10 21:49:45.940000+00:00,14.209000000000001,-92.939,52.2,4.5,mb,,,,0.9,us,usp000603e,2014-11-07T00:53:56.777Z,"offshore Chiapas, Mexico",earthquake,,7.0,,6.0,reviewed,us,us
3890,1993-09-10 21:22:34+00:00,13.942,-93.03399999999999,52.0,4.7,mb,,,,0.8,us,usp000603d,2014-11-07T00:53:56.774Z,"off the coast of Chiapas, Mexico",earthquake,,7.8,,6.0,reviewed,us,us
3891,1993-09-10 21:14:37.570000+00:00,14.05,-92.925,33.0,4.6,md,,,,1.1,us,usp000603c,2014-11-07T00:53:56.772Z,"offshore Chiapas, Mexico",earthquake,,,,,reviewed,us,gcg
3893,1993-09-10 21:10:39.720000+00:00,14.093,-92.772,54.8,4.6,mb,,,,1.1,us,usp000603b,2014-11-07T00:53:56.770Z,"offshore Chiapas, Mexico",earthquake,,14.9,,1.0,reviewed,us,us
3898,1993-09-10 20:39:09.040000+00:00,14.145999999999999,-93.10700000000001,48.7,4.9,mb,,,,1.0,us,usp000603a,2014-11-07T00:53:56.764Z,"off the coast of Chiapas, Mexico",earthquake,,6.0,,25.0,reviewed,us,us
3901,1993-09-10 20:20:51.120000+00:00,13.770999999999999,-92.956,33.0,4.5,mb,,,,1.5,us,usp0006038,2014-11-07T00:53:56.761Z,"off the coast of Chiapas, Mexico",earthquake,,,,1.0,reviewed,us,us
3904,1993-09-10 19:55:47.550000+00:00,14.177999999999999,-93.315,64.3,4.9,mb,,,,1.0,us,usp0006036,2014-11-07T00:53:56.757Z,"off the coast of Chiapas, Mexico",earthquake,,10.4,,7.0,reviewed,us,us
3905,1993-09-10 19:51:44.460000+00:00,13.735999999999999,-93.007,37.1,4.4,mb,,,,0.9,us,usp0006035,2014-11-07T00:53:56.755Z,"off the coast of Chiapas, Mexico",earthquake,,18.5,,3.0,reviewed,us,us
3908,1993-09-10 19:45:06.780000+00:00,14.311,-92.971,72.2,4.7,mb,,,,1.2,us,usp0006032,2014-11-07T00:53:56.741Z,"offshore Chiapas, Mexico",earthquake,,6.0,,26.0,reviewed,us,us
3911,1993-09-10 19:12:54.620000+00:00,14.717,-92.645,34.1,7.2,mw,,,,1.3,us,usp0006030,2017-04-26T17:48:05.747Z,"offshore Chiapas, Mexico",earthquake,,,,,reviewed,us,hrv
3914,1993-09-10 18:58:57.020000+00:00,14.415,-92.764,63.3,6.0,mw,,,,1.0,us,usp000602z,2016-11-09T23:27:14.226Z,"offshore Chiapas, Mexico",earthquake,,3.9,,,reviewed,us,hrv
3917,1993-09-10 18:34:06.100000+00:00,14.095,-93.09700000000001,33.0,4.0,mb,,,,1.2,us,usp000602y,2014-11-07T00:53:56.657Z,"off the coast of Chiapas, Mexico",earthquake,,,,2.0,reviewed,us,us
3922,1993-09-10 17:28:08.610000+00:00,14.429,-92.805,61.9,5.8,mw,,,,1.1,us,usp000602w,2016-11-09T23:27:13.681Z,"offshore Chiapas, Mexico",earthquake,,4.3,,,reviewed,us,hrv
4738,1993-09-07 02:09:37.960000+00:00,14.248,-93.26299999999999,56.1,4.2,mb,,,,1.3,us,usp0005zvb,2014-11-07T00:53:55.831Z,"off the coast of Chiapas, Mexico",earthquake,,16.3,,9.0,reviewed,us,us
4798,1993-09-06 19:30:02.940000+00:00,14.568,-93.13600000000001,43.3,4.5,mb,,,,0.9,us,usp0005zus,2014-11-07T00:53:55.763Z,"offshore Chiapas, Mexico",earthquake,,6.1,,19.0,reviewed,us,us
4800,1993-09-06 19:09:18.130000+00:00,17.413,-94.09,56.5,4.2,mb,,,,1.3,us,usp0005zur,2014-11-07T00:53:55.760Z,"Veracruz, Mexico",earthquake,,10.9,,6.0,reviewed,us,us
4808,1993-09-06 18:19:59.410000+00:00,14.386,-93.275,36.3,4.6,mb,,,,1.2,us,usp0005zuk,2014-11-07T00:53:55.744Z,"offshore Chiapas, Mexico",earthquake,,8.1,,12.0,reviewed,us,us
5154,1993-09-05 01:40:28.080000+00:00,14.073,-92.999,33.0,4.1,mb,,,,1.4,us,usp0005zs3,2014-11-07T00:53:55.318Z,"offshore Chiapas, Mexico",earthquake,,,,3.0,reviewed,us,us
5161,1993-09-05 00:24:55.220000+00:00,14.193,-92.84299999999999,33.0,3.9,mb,,,,0.6,us,usp0005zs0,2014-11-07T00:53:55.308Z,"offshore Chiapas, Mexico",earthquake,,,,1.0,reviewed,us,us
5220,1993-09-04 17:31:27.010000+00:00,13.812999999999999,-93.875,33.0,4.1,mb,,,,1.5,us,usp0005zrm,2014-11-07T00:53:55.105Z,"off the coast of Chiapas, Mexico",earthquake,,,,1.0,reviewed,us,us
5243,1993-09-04 14:00:21.430000+00:00,13.921,-93.208,33.0,4.2,mb,,,,1.2,us,usp0005zrd,2014-11-07T00:53:55.063Z,"off the coast of Chiapas, Mexico",earthquake,,,,2.0,reviewed,us,us
5273,1993-09-04 09:17:06.710000+00:00,14.255,-92.775,67.1,4.2,mb,,,,1.2,us,usp0005zqz,2014-11-07T00:53:54.859Z,"offshore Chiapas, Mexico",earthquake,,11.7,,1.0,reviewed,us,us
5279,1993-09-04 08:49:42.330000+00:00,14.475,-92.854,56.5,5.6,mw,,,,1.1,us,usp0005zqw,2016-11-09T23:24:28.649Z,"offshore Chiapas, Mexico",earthquake,,4.9,,,reviewed,us,hrv
5321,1993-09-04 04:39:34.160000+00:00,12.128,-93.531,33.0,4.2,mb,,,,0.8,us,usp0005zqn,2014-11-07T00:53:54.698Z,"off the coast of Chiapas, Mexico",earthquake,,,,2.0,reviewed,us,us
5330,1993-09-04 03:54:19.340000+00:00,14.12,-93.27600000000001,50.0,4.0,mb,,,,0.5,us,usp0005zqj,2014-11-07T00:53:54.669Z,"off the coast of Chiapas, Mexico",earthquake,,,,3.0,reviewed,us,us
5334,1993-09-04 03:34:59.570000+00:00,13.875,-93.30799999999999,33.0,3.9,mb,,,,1.1,us,usp0005zqf,2014-11-07T00:53:54.659Z,"off the coast of Chiapas, Mexico",earthquake,,,,2.0,reviewed,us,us
5346,1993-09-04 02:01:28.030000+00:00,13.943,-93.154,42.8,4.4,mb,,,,1.4,us,usp0005zqb,2014-11-07T00:53:54.640Z,"off the coast of Chiapas, Mexico",earthquake,,19.2,,1.0,reviewed,us,us
5354,1993-09-04 00:45:37.750000+00:00,14.474,-92.781,56.9,4.4,mb,,,,1.1,us,usp0005zqa,2014-11-07T00:53:54.631Z,"offshore Chiapas, Mexico",earthquake,,7.1,,18.0,reviewed,us,us
