,time,latitude,longitude,depth,mag,magType,nst,gap,dmin,rms,net,id,updated,place,type,horizontalError,depthError,magError,magNst,status,locationSource,magSource
431,1995-11-28 21:10:43.670000+00:00,29.178,34.873000000000005,10.0,4.4,ml,,,,0.6,us,usp00077q6,2014-11-07T00:59:14.523Z,Egypt,earthquake,,,,,reviewed,us,jer
499,1995-11-28 12:00:51.550000+00:00,29.146,34.931,10.0,4.5,ml,,,,0.7,us,usp00077pf,2014-11-07T00:59:14.479Z,Egypt,earthquake,,,,,reviewed,us,jer
949,1995-11-26 02:17:47.980000+00:00,29.09,35.025999999999996,10.0,3.6,mb,,,,1.0,us,usp00077hd,2014-11-07T00:59:13.937Z,Jordan-Saudi Arabia border region,earthquake,,,,1.0,reviewed,us,us
963,1995-11-25 23:06:20.830000+00:00,29.184,35.01,10.0,4.2,ml,,,,0.5,us,usp00077h9,2014-11-07T00:59:13.930Z,Jordan-Saudi Arabia border region,earthquake,,,,,reviewed,us,jer
967,1995-11-25 22:41:30.110000+00:00,29.054000000000002,34.774,12.4,4.1,ml,,,,0.7,us,usp00077h7,2014-11-07T00:59:13.926Z,Egypt,earthquake,,4.3,,,reviewed,us,jer
1074,1995-11-25 11:41:35.260000+00:00,29.12,34.836,10.0,4.8,mb,,,,1.1,us,usp00077g1,2014-11-07T00:59:13.815Z,Egypt,earthquake,,,,43.0,reviewed,us,us
1177,1995-11-24 22:26:35.470000+00:00,29.189,34.876999999999995,10.0,4.2,ml,,,,0.5,us,usp00077em,2014-11-07T00:59:13.590Z,Egypt,earthquake,,,,,reviewed,us,jer
1218,1995-11-24 16:43:45.460000+00:00,28.941,34.71,10.0,4.9,mb,,,,1.3,us,usp00077e3,2014-11-07T00:59:13.443Z,Egypt,earthquake,,,,61.0,reviewed,us,us
1331,1995-11-24 04:09:51.590000+00:00,29.313000000000002,35.075,10.0,4.5,ml,,,,0.6,us,usp00077cs,2014-11-07T00:59:13.297Z,Jordan-Saudi Arabia border region,earthquake,,,,,reviewed,us,jer
1335,1995-11-24 03:35:45.120000+00:00,29.201999999999998,35.115,10.0,4.4,ml,,,,0.5,us,usp00077cr,2014-11-07T00:59:13.295Z,Jordan-Saudi Arabia border region,earthquake,,,,,reviewed,us,jer
1386,1995-11-23 22:28:19.860000+00:00,28.663,34.915,10.0,3.9,mb,,,,0.8,us,usp00077c5,2014-11-07T00:59:13.245Z,Egypt,earthquake,,,,1.0,reviewed,us,us
1417,1995-11-23 18:07:17.290000+00:00,29.333000000000002,34.749,10.0,5.7,mw,,,,1.1,us,usp00077bq,2017-04-26T17:51:21.182Z,Egypt,earthquake,,,,,reviewed,us,hrv
1563,1995-11-23 03:05:07.600000+00:00,28.726,34.768,10.0,4.6,mb,,,,1.2,us,usp00077ah,2014-11-07T00:59:13.010Z,Egypt,earthquake,,,,21.0,reviewed,us,us
1598,1995-11-22 22:16:53.930000+00:00,28.52,34.701,10.0,5.4,mw,,,,1.3,us,usp00077a3,2016-11-10T00:01:45.145Z,Egypt,earthquake,,,,,reviewed,us,hrv
1610,1995-11-22 20:02:31.410000+00:00,29.055999999999997,34.795,10.0,4.4,mb,,,,0.8,us,usp00077a0,2014-11-07T00:59:12.907Z,Egypt,earthquake,,,,13.0,reviewed,us,us
1672,1995-11-22 12:47:05.180000+00:00,28.535999999999998,35.005,10.0,5.1,mb,,,,1.3,us,usp000779c,2014-11-07T00:59:12.498Z,western Saudi Arabia,earthquake,,,,66.0,reviewed,us,us
1681,1995-11-22 11:37:14.620000+00:00,28.768,34.841,10.0,4.9,ml,,,,1.4,us,usp0007798,2014-11-07T00:59:12.487Z,Egypt,earthquake,,,,,reviewed,us,jer
1701,1995-11-22 09:52:48.380000+00:00,28.83,35.399,10.0,4.0,mb,,,,0.4,us,usp000778y,2014-11-07T00:59:12.467Z,western Saudi Arabia,earthquake,,,,5.0,reviewed,us,us
1710,1995-11-22 08:58:43.220000+00:00,29.024,34.738,10.0,4.4,ml,,,,0.6,us,usp000778u,2014-11-07T00:59:12.459Z,Egypt,earthquake,,,,,reviewed,us,jer
1719,1995-11-22 07:55:30.480000+00:00,29.049,34.713,10.0,4.8,mb,,,,1.1,us,usp000778r,2014-11-07T00:59:12.447Z,Egypt,earthquake,,,,41.0,reviewed,us,us
1750,1995-11-22 04:15:11.940000+00:00,28.826,34.799,10.0,7.2,mw,,,,1.3,us,usp0007788,2017-04-26T17:51:19.917Z,Egypt,earthquake,,,,,reviewed,us,hrv
