,time,latitude,longitude,depth,mag,magType,nst,gap,dmin,rms,net,id,updated,place,type,horizontalError,depthError,magError,magNst,status,locationSource,magSource
5,1997-02-28 22:58:48.150000+00:00,30.076,68.128,33.0,4.4,mb,,,,1.01,us,usp0007y1c,2014-11-07T01:02:12.278Z,Pakistan,earthquake,,,,13.0,reviewed,us,us
10,1997-02-28 22:15:01.940000+00:00,29.979,68.167,33.0,4.3,mb,,,,0.87,us,usp0007y1a,2014-11-07T01:02:12.273Z,Pakistan,earthquake,,,,8.0,reviewed,us,us
18,1997-02-28 21:12:10.780000+00:00,29.706999999999997,68.51100000000001,33.0,4.4,mb,,,,0.88,us,usp0007y17,2014-11-07T01:02:12.268Z,Pakistan,earthquake,,,,1.0,reviewed,us,us
45,1997-02-28 16:14:37.210000+00:00,30.083000000000002,67.906,33.0,4.3,mb,,,,0.84,us,usp0007y0u,2014-11-07T01:02:12.238Z,Pakistan,earthquake,,,,5.0,reviewed,us,us
53,1997-02-28 15:17:25.790000+00:00,29.638,68.281,33.0,4.1,mb,,,,0.92,us,usp0007y0q,2014-11-07T01:02:12.227Z,Pakistan,earthquake,,,,2.0,reviewed,us,us
54,1997-02-28 15:14:58.140000+00:00,29.831,68.212,33.0,3.6,mb,,,,0.47,us,usp0007y0p,2014-11-07T01:02:12.226Z,Pakistan,earthquake,,,,1.0,reviewed,us,us
63,1997-02-28 13:59:20.820000+00:00,29.831999999999997,68.05199999999999,33.0,3.8,mb,,,,0.64,us,usp0007y0h,2014-11-07T01:02:12.201Z,Pakistan,earthquake,,,,1.0,reviewed,us,us
86,1997-02-28 10:36:52.450000+00:00,29.883000000000003,68.09899999999999,33.0,4.4,mb,,,,0.98,us,usp0007y04,2014-11-07T01:02:12.104Z,Pakistan,earthquake,,,,3.0,reviewed,us,us
89,1997-02-28 10:24:40.320000+00:00,29.933000000000003,67.76899999999999,33.0,3.8,mb,,,,1.05,us,usp0007y01,2014-11-07T01:02:12.099Z,Pakistan,earthquake,,,,1.0,reviewed,us,us
92,1997-02-28 10:12:33.240000+00:00,29.362,68.098,33.0,3.8,mb,,,,1.44,us,usp0007y00,2014-11-07T01:02:12.097Z,Pakistan,earthquake,,,,2.0,reviewed,us,us
96,1997-02-28 09:47:10.940000+00:00,29.781999999999996,68.188,33.0,3.6,mb,,,,1.3,us,usp0007xzy,2014-11-07T01:02:12.093Z,Pakistan,earthquake,,,,1.0,reviewed,us,us
104,1997-02-28 08:27:39.020000+00:00,29.694000000000003,68.218,33.0,4.1,mb,,,,0.94,us,usp0007xzs,2014-11-07T01:02:12.083Z,Pakistan,earthquake,,,,1.0,reviewed,us,us
109,1997-02-28 07:52:09.910000+00:00,29.729,68.086,33.0,4.4,mb,,,,0.77,us,usp0007xzn,2014-11-07T01:02:12.071Z,Pakistan,earthquake,,,,3.0,reviewed,us,us
117,1997-02-28 06:44:53.330000+00:00,29.875999999999998,68.093,33.0,3.8,mb,,,,0.79,us,usp0007xzg,2014-11-07T01:02:12.051Z,Pakistan,earthquake,,,,1.0,reviewed,us,us
119,1997-02-28 06:25:47.500000+00:00,29.627,68.199,33.0,4.5,mb,,,,1.17,us,usp0007xzf,2014-11-07T01:02:12.048Z,Pakistan,earthquake,,,,5.0,reviewed,us,us
125,1997-02-28 05:34:42.180000+00:00,29.476999999999997,68.499,33.0,4.3,mb,,,,1.09,us,usp0007xz9,2014-11-07T01:02:12.036Z,Pakistan,earthquake,,,,2.0,reviewed,us,us
127,1997-02-28 05:28:37.590000+00:00,30.008000000000003,67.836,33.0,4.3,mb,,,,0.72,us,usp0007xz7,2014-11-07T01:02:12.032Z,Pakistan,earthquake,,,,5.0,reviewed,us,us
128,1997-02-28 05:25:57.160000+00:00,29.605999999999998,68.555,33.0,3.7,mb,,,,0.94,us,usp0007xz6,2014-11-07T01:02:12.030Z,Pakistan,earthquake,,,,1.0,reviewed,us,us
129,1997-02-28 04:59:34.560000+00:00,29.898000000000003,68.113,33.0,4.3,mb,,,,0.84,us,usp0007xz5,2014-11-07T01:02:12.028Z,Pakistan,earthquake,,,,1.0,reviewed,us,us
135,1997-02-28 03:20:25.620000+00:00,30.024,68.173,33.0,4.3,mb,,,,0.73,us,usp0007xz2,2014-11-07T01:02:12.022Z,Pakistan,earthquake,,,,1.0,reviewed,us,us
136,1997-02-28 03:17:35.780000+00:00,29.557,68.568,33.0,4.7,mb,,,,1.05,us,usp0007xz1,2014-11-07T01:02:12.015Z,Pakistan,earthquake,,,,37.0,reviewed,us,us
137,1997-02-28 03:12:09.940000+00:00,30.095,68.164,33.0,4.1,mb,,,,0.94,us,usp0007xz0,2014-11-07T01:02:12.012Z,Pakistan,earthquake,,,,2.0,reviewed,us,us
141,1997-02-28 02:51:58.630000+00:00,29.555999999999997,68.625,33.0,4.0,mb,,,,0.89,us,usp0007xyx,2014-11-07T01:02:12.006Z,Pakistan,earthquake,,,,1.0,reviewed,us,us
143,1997-02-28 02:43:13.080000+00:00,29.467,68.53399999999999,33.0,3.9,mb,,,,1.17,us,usp0007xyv,2014-11-07T01:02:12.003Z,Pakistan,earthquake,,,,1.0,reviewed,us,us
146,1997-02-28 02:28:09.210000+00:00,29.551,68.543,33.0,3.6,mb,,,,0.99,us,usp0007xys,2014-11-07T01:02:11.999Z,Pakistan,earthquake,,,,1.0,reviewed,us,us
147,1997-02-28 02:22:04.850000+00:00,29.853,67.778,33.0,4.1,mb,,,,0.58,us,usp0007xyr,2014-11-07T01:02:11.998Z,Pakistan,earthquake,,,,1.0,reviewed,us,us
148,1997-02-28 02:11:13.650000+00:00,29.493000000000002,68.32300000000001,33.0,4.4,mb,,,,0.72,us,usp0007xyq,2014-11-07T01:02:11.995Z,Pakistan,earthquake,,,,9.0,reviewed,us,us
150,1997-02-28 02:05:28.540000+00:00,29.906999999999996,68.086,33.0,3.8,mb,,,,0.87,us,usp0007xyn,2014-11-07T01:02:11.992Z,Pakistan,earthquake,,,,1.0,reviewed,us,us
153,1997-02-28 01:46:26.240000+00:00,29.631999999999998,68.2,33.0,4.7,mb,,,,0.81,us,usp0007xyk,2014-11-07T01:02:11.986Z,Pakistan,earthquake,,,,37.0,reviewed,us,us
156,1997-02-28 01:26:22.050000+00:00,29.933000000000003,68.202,33.0,3.8,mb,,,,0.83,us,usp0007xyj,2014-11-07T01:02:11.985Z,Pakistan,earthquake,,,,1.0,reviewed,us,us
158,1997-02-28 01:14:41.420000+00:00,29.699,68.366,33.0,3.8,mb,,,,0.81,us,usp0007xyh,2014-11-07T01:02:11.983Z,Pakistan,earthquake,,,,1.0,reviewed,us,us
159,1997-02-28 01:13:12.980000+00:00,29.623,68.258,33.0,3.6,mb,,,,1.33,us,usp0007xyg,2014-11-07T01:02:11.982Z,Pakistan,earthquake,,,,1.0,reviewed,us,us
163,1997-02-28 01:04:10.630000+00:00,29.674,68.565,33.0,4.5,mb,,,,1.12,us,usp0007xyf,2014-11-07T01:02:11.978Z,Pakistan,earthquake,,,,17.0,reviewed,us,us
165,1997-02-28 00:58:28.680000+00:00,29.815,68.375,33.0,4.5,mb,,,,1.2,us,usp0007xyd,2014-11-07T01:02:11.976Z,Pakistan,earthquake,,,,2.0,reviewed,us,us
167,1997-02-28 00:45:09.370000+00:00,29.872,67.825,33.0,4.0,mb,,,,1.1,us,usp0007xyc,2014-11-07T01:02:11.974Z,Pakistan,earthquake,,,,1.0,reviewed,us,us
172,1997-02-28 00:36:12.730000+00:00,29.596,68.623,33.0,4.3,mb,,,,0.66,us,usp0007xyb,2014-11-07T01:02:11.972Z,Pakistan,earthquake,,,,3.0,reviewed,us,us
173,1997-02-28 00:33:50.340000+00:00,29.904,68.137,33.0,4.0,mb,,,,0.87,us,usp0007xya,2014-11-07T01:02:11.970Z,Pakistan,earthquake,,,,1.0,reviewed,us,us
176,1997-02-28 00:28:03.330000+00:00,29.980999999999998,68.113,33.0,3.8,mb,,,,0.8,us,usp0007xy7,2014-11-07T01:02:11.964Z,Pakistan,earthquake,,,,1.0,reviewed,us,us
178,1997-02-28 00:12:16.890000+00:00,29.631,68.402,33.0,3.8,mb,,,,1.07,us,usp0007xy5,2014-11-07T01:02:11.961Z,Pakistan,earthquake,,,,1.0,reviewed,us,us
181,1997-02-27 23:54:14.880000+00:00,29.336,67.813,33.0,3.8,mb,,,,1.21,us,usp0007xy2,2014-11-07T01:02:11.940Z,Pakistan,earthquake,,,,1.0,reviewed,us,us
183,1997-02-27 23:46:08.510000+00:00,30.069000000000003,68.041,33.0,3.7,mb,,,,0.85,us,usp0007xy1,2014-11-07T01:02:11.939Z,Pakistan,earthquake,,,,1.0,reviewed,us,us
184,1997-02-27 23:39:09.490000+00:00,30.051,67.983,33.0,4.3,mb,,,,0.95,us,usp0007xy0,2014-11-07T01:02:11.936Z,Pakistan,earthquake,,,,6.0,reviewed,us,us
191,1997-02-27 22:56:46.130000+00:00,30.162,68.062,33.0,3.7,mb,,,,1.47,us,usp0007xxw,2014-11-07T01:02:11.930Z,Pakistan,earthquake,,,,1.0,reviewed,us,us
192,1997-02-27 22:55:59.300000+00:00,29.988000000000003,68.143,33.0,3.8,mb,,,,1.48,us,usp0007xxv,2014-11-07T01:02:11.928Z,Pakistan,earthquake,,,,1.0,reviewed,us,us
194,1997-02-27 22:50:23.250000+00:00,30.395,68.016,33.0,4.0,mb,,,,1.31,us,usp0007xxu,2014-11-07T01:02:11.926Z,Pakistan,earthquake,,,,2.0,reviewed,us,us
195,1997-02-27 22:49:13.330000+00:00,29.654,68.248,33.0,4.2,mb,,,,0.68,us,usp0007xxt,2014-11-07T01:02:11.924Z,Pakistan,earthquake,,,,3.0,reviewed,us,us
196,1997-02-27 22:41:58.730000+00:00,29.526999999999997,68.294,33.0,4.7,mb,,,,0.83,us,usp0007xxs,2014-11-07T01:02:11.918Z,Pakistan,earthquake,,,,37.0,reviewed,us,us
197,1997-02-27 22:39:49.700000+00:00,29.561,68.546,33.0,4.7,mb,,,,1.23,us,usp0007xxr,2014-11-07T01:02:11.914Z,Pakistan,earthquake,,,,14.0,reviewed,us,us
198,1997-02-27 22:36:51.610000+00:00,29.639,68.084,33.0,3.6,mb,,,,1.41,us,usp0007xxq,2014-11-07T01:02:11.912Z,Pakistan,earthquake,,,,1.0,reviewed,us,us
200,1997-02-27 22:31:00.080000+00:00,30.046,68.036,33.0,4.1,mb,,,,1.3,us,usp0007xxp,2014-11-07T01:02:11.910Z,Pakistan,earthquake,,,,1.0,reviewed,us,us
201,1997-02-27 22:21:07.170000+00:00,30.498,67.628,33.0,4.7,mb,,,,1.01,us,usp0007xxn,2014-11-07T01:02:11.908Z,Pakistan,earthquake,,,,6.0,reviewed,us,us
202,1997-02-27 22:20:19.620000+00:00,29.980999999999998,68.241,33.0,4.3,mb,,,,1.31,us,usp0007xxm,2014-11-07T01:02:11.905Z,Pakistan,earthquake,,,,7.0,reviewed,us,us
203,1997-02-27 22:17:41.520000+00:00,29.958000000000002,68.064,33.0,4.3,mb,,,,1.03,us,usp0007xxk,2014-11-07T01:02:11.903Z,Pakistan,earthquake,,,,4.0,reviewed,us,us
204,1997-02-27 22:12:24.820000+00:00,29.938000000000002,68.12100000000001,33.0,3.9,mb,,,,0.93,us,usp0007xxj,2014-11-07T01:02:11.902Z,Pakistan,earthquake,,,,1.0,reviewed,us,us
205,1997-02-27 22:09:47.240000+00:00,29.802,68.51899999999999,33.0,3.7,mb,,,,0.63,us,usp0007xxh,2014-11-07T01:02:11.901Z,Pakistan,earthquake,,,,1.0,reviewed,us,us
207,1997-02-27 22:00:39.290000+00:00,30.055,68.064,33.0,4.3,mb,,,,1.26,us,usp0007xxf,2014-11-07T01:02:11.897Z,Pakistan,earthquake,,,,6.0,reviewed,us,us
211,1997-02-27 21:51:55.720000+00:00,30.105,67.921,33.0,4.4,mb,,,,1.11,us,usp0007xxc,2014-11-07T01:02:11.892Z,Pakistan,earthquake,,,,5.0,reviewed,us,us
212,1997-02-27 21:47:27.560000+00:00,29.824,67.891,33.0,4.6,mb,,,,0.76,us,usp0007xxb,2014-11-07T01:02:11.889Z,Pakistan,earthquake,,,,3.0,reviewed,us,us
213,1997-02-27 21:44:25.010000+00:00,29.799,68.18,33.0,4.9,mb,,,,1.36,us,usp0007xxa,2014-11-07T01:02:11.887Z,Pakistan,earthquake,,,,2.0,reviewed,us,us
214,1997-02-27 21:44:02.110000+00:00,29.906,67.943,33.0,4.8,mb,,,,1.05,us,usp0007xx9,2014-11-07T01:02:11.882Z,Pakistan,earthquake,,,,15.0,reviewed,us,us
216,1997-02-27 21:30:36.570000+00:00,29.985,67.977,33.0,6.0,mb,,,,0.96,us,usp0007xx7,2017-04-26T17:53:08.197Z,Pakistan,earthquake,,,,83.0,reviewed,us,us
217,1997-02-27 21:27:34.780000+00:00,29.925,68.12899999999999,33.0,4.4,mb,,,,1.0,us,usp0007xx6,2014-11-07T01:02:11.847Z,Pakistan,earthquake,,,,9.0,reviewed,us,us
219,1997-02-27 21:19:49.210000+00:00,29.747,68.375,33.0,4.6,mb,,,,0.7,us,usp0007xx4,2014-11-07T01:02:11.843Z,Pakistan,earthquake,,,,5.0,reviewed,us,us
220,1997-02-27 21:17:25.690000+00:00,29.767,68.322,33.0,5.1,mb,,,,0.67,us,usp0007xx3,2014-11-07T01:02:11.838Z,Pakistan,earthquake,,,,38.0,reviewed,us,us
221,1997-02-27 21:08:02.360000+00:00,29.976,68.208,33.0,7.1,mwc,,,,1.17,us,usp0007xx2,2017-04-26T17:53:07.644Z,Pakistan,earthquake,,,,,reviewed,us,hrv
3825,1997-03-05 17:26:33.870000+00:00,30.506,67.695,33.0,3.7,mb,,,,1.07,us,usp0007yb9,2014-11-07T01:02:17.857Z,Pakistan,earthquake,,,,1.0,reviewed,us,us
3828,1997-03-05 16:42:07.320000+00:00,29.62,68.278,33.0,4.0,mb,,,,1.33,us,usp0007yb6,2014-11-07T01:02:17.840Z,Pakistan,earthquake,,,,1.0,reviewed,us,us
3890,1997-03-05 08:40:51.630000+00:00,29.771,68.318,33.0,4.1,mb,,,,1.3,us,usp0007ya9,2014-11-07T01:02:17.695Z,Pakistan,earthquake,,,,2.0,reviewed,us,us
3917,1997-03-05 04:22:03.410000+00:00,29.285,68.388,33.0,3.8,mb,,,,0.8,us,usp0007y9v,2014-11-07T01:02:17.660Z,Pakistan,earthquake,,,,1.0,reviewed,us,us
3918,1997-03-05 04:15:57.580000+00:00,29.531999999999996,68.182,33.0,3.7,mb,,,,0.81,us,usp0007y9u,2014-11-07T01:02:17.658Z,Pakistan,earthquake,,,,1.0,reviewed,us,us
3981,1997-03-04 20:33:19.610000+00:00,29.605999999999998,68.74600000000001,33.0,4.0,mb,,,,1.16,us,usp0007y97,2014-11-07T01:02:17.106Z,Pakistan,earthquake,,,,2.0,reviewed,us,us
4006,1997-03-04 14:06:51.370000+00:00,29.756999999999998,68.241,33.0,3.9,mb,,,,1.28,us,usp0007y8x,2014-11-07T01:02:17.067Z,Pakistan,earthquake,,,,1.0,reviewed,us,us
4011,1997-03-04 13:03:47.860000+00:00,29.421999999999997,68.79,33.0,5.7,mwc,,,,1.07,us,usp0007y8u,2017-04-26T17:53:10.692Z,Pakistan,earthquake,,,,,reviewed,us,hrv
4013,1997-03-04 12:58:30.690000+00:00,29.935,68.385,33.0,3.9,mb,,,,1.08,us,usp0007y8s,2014-11-07T01:02:16.975Z,Pakistan,earthquake,,,,1.0,reviewed,us,us
4017,1997-03-04 11:24:26.520000+00:00,29.566,68.237,33.0,3.6,mb,,,,0.57,us,usp0007y8q,2014-11-07T01:02:16.966Z,Pakistan,earthquake,,,,1.0,reviewed,us,us
4027,1997-03-04 09:56:28.440000+00:00,30.369,67.72399999999999,33.0,3.6,mb,,,,1.18,us,usp0007y8j,2014-11-07T01:02:16.953Z,Pakistan,earthquake,,,,1.0,reviewed,us,us
4063,1997-03-04 02:49:35.070000+00:00,29.658,68.37899999999999,33.0,4.5,mb,,,,1.02,us,usp0007y82,2014-11-07T01:02:16.763Z,Pakistan,earthquake,,,,12.0,reviewed,us,us
4102,1997-03-03 19:42:43.660000+00:00,29.563000000000002,68.253,33.0,4.5,mb,,,,1.07,us,usp0007y7f,2014-11-07T01:02:16.609Z,Pakistan,earthquake,,,,15.0,reviewed,us,us
4139,1997-03-03 13:22:54.040000+00:00,29.644000000000002,68.2,33.0,3.9,mb,,,,0.97,us,usp0007y6u,2014-11-07T01:02:16.415Z,Pakistan,earthquake,,,,2.0,reviewed,us,us
4140,1997-03-03 13:06:53.780000+00:00,29.91,67.801,33.0,3.8,mb,,,,0.93,us,usp0007y6t,2014-11-07T01:02:16.383Z,Pakistan,earthquake,,,,1.0,reviewed,us,us
4173,1997-03-03 06:51:10.610000+00:00,30.340999999999998,67.959,33.0,3.8,mb,,,,0.95,us,usp0007y68,2014-11-07T01:02:16.225Z,Pakistan,earthquake,,,,1.0,reviewed,us,us
4194,1997-03-03 02:31:31.160000+00:00,29.601999999999997,68.832,33.0,4.5,mb,,,,1.4,us,usp0007y5v,2014-11-07T01:02:16.156Z,Pakistan,earthquake,,,,3.0,reviewed,us,us
4195,1997-03-03 02:28:33.270000+00:00,29.578000000000003,68.51100000000001,33.0,4.7,mb,,,,1.19,us,usp0007y5u,2014-11-07T01:02:16.122Z,Pakistan,earthquake,,,,37.0,reviewed,us,us
4196,1997-03-03 02:25:20.860000+00:00,29.892,67.983,33.0,4.3,mb,,,,1.13,us,usp0007y5t,2014-11-07T01:02:16.112Z,Pakistan,earthquake,,,,10.0,reviewed,us,us
4277,1997-03-02 12:33:07.020000+00:00,29.546999999999997,68.26100000000001,33.0,3.6,mb,,,,0.51,us,usp0007y4j,2014-11-07T01:02:15.674Z,Pakistan,earthquake,,,,1.0,reviewed,us,us
4281,1997-03-02 12:01:48.590000+00:00,29.845,68.071,33.0,3.9,mb,,,,1.07,us,usp0007y4g,2014-11-07T01:02:15.664Z,Pakistan,earthquake,,,,1.0,reviewed,us,us
4294,1997-03-02 08:43:52.350000+00:00,29.906,68.157,33.0,3.6,mb,,,,1.13,us,usp0007y4a,2014-11-07T01:02:15.639Z,Pakistan,earthquake,,,,1.0,reviewed,us,us
4313,1997-03-02 05:27:10.810000+00:00,29.783,68.229,33.0,4.3,mb,,,,0.99,us,usp0007y44,2014-11-07T01:02:15.572Z,Pakistan,earthquake,,,,7.0,reviewed,us,us
4326,1997-03-02 03:58:25.080000+00:00,29.656,68.116,33.0,4.3,mb,,,,0.9,us,usp0007y3z,2014-11-07T01:02:15.509Z,Pakistan,earthquake,,,,4.0,reviewed,us,us
4364,1997-03-01 21:23:52.660000+00:00,29.997,68.23100000000001,33.0,4.2,mb,,,,0.93,us,usp0007y3j,2014-11-07T01:02:15.258Z,Pakistan,earthquake,,,,7.0,reviewed,us,us
4368,1997-03-01 20:23:32.310000+00:00,29.854,68.09,33.0,4.3,mb,,,,1.07,us,usp0007y3g,2014-11-07T01:02:15.238Z,Pakistan,earthquake,,,,4.0,reviewed,us,us
4376,1997-03-01 19:02:47.760000+00:00,30.026999999999997,67.752,33.0,3.6,mb,,,,1.44,us,usp0007y3a,2014-11-07T01:02:15.143Z,Pakistan,earthquake,,,,1.0,reviewed,us,us
4396,1997-03-01 16:38:31.300000+00:00,29.805,68.484,33.0,3.6,mb,,,,1.68,us,usp0007y35,2014-11-07T01:02:15.111Z,Pakistan,earthquake,,,,1.0,reviewed,us,us
4416,1997-03-01 13:17:42.740000+00:00,29.925,68.084,33.0,3.6,mb,,,,1.09,us,usp0007y2x,2014-11-07T01:02:15.056Z,Pakistan,earthquake,,,,1.0,reviewed,us,us
4445,1997-03-01 09:15:23.850000+00:00,30.746,67.845,33.0,3.8,mb,,,,0.71,us,usp0007y2g,2014-11-07T01:02:14.902Z,Pakistan,earthquake,,,,1.0,reviewed,us,us
4447,1997-03-01 09:10:26.260000+00:00,29.968000000000004,68.166,33.0,3.9,mb,,,,1.1,us,usp0007y2e,2014-11-07T01:02:14.886Z,Pakistan,earthquake,,,,1.0,reviewed,us,us
4452,1997-03-01 08:25:36.190000+00:00,30.42,67.419,33.0,4.3,mb,,,,1.23,us,usp0007y2b,2014-11-07T01:02:14.855Z,Pakistan,earthquake,,,,1.0,reviewed,us,us
4455,1997-03-01 08:13:32.840000+00:00,29.585,68.324,33.0,4.3,mb,,,,0.95,us,usp0007y2a,2014-11-07T01:02:14.845Z,Pakistan,earthquake,,,,3.0,reviewed,us,us
4457,1997-03-01 07:55:24.870000+00:00,30.125999999999998,67.872,33.0,3.7,mb,,,,1.04,us,usp0007y28,2014-11-07T01:02:14.823Z,Pakistan,earthquake,,,,1.0,reviewed,us,us
4458,1997-03-01 07:44:31.520000+00:00,29.881,67.985,33.0,4.4,mb,,,,1.08,us,usp0007y27,2014-11-07T01:02:14.758Z,Pakistan,earthquake,,,,3.0,reviewed,us,us
4464,1997-03-01 06:31:27.100000+00:00,29.805999999999997,68.041,33.0,4.1,mb,,,,1.09,us,usp0007y23,2014-11-07T01:02:14.620Z,Pakistan,earthquake,,,,2.0,reviewed,us,us
4474,1997-03-01 05:35:51.370000+00:00,29.903000000000002,68.19,33.0,3.8,mb,,,,1.16,us,usp0007y1y,2014-11-07T01:02:14.346Z,Pakistan,earthquake,,,,1.0,reviewed,us,us
4481,1997-03-01 04:16:25.050000+00:00,30.546,68.01100000000001,33.0,3.9,mb,,,,1.41,us,usp0007y1v,2014-11-07T01:02:14.211Z,Pakistan,earthquake,,,,1.0,reviewed,us,us
4487,1997-03-01 02:36:15.550000+00:00,29.995,67.682,33.0,3.6,mb,,,,1.76,us,usp0007y1r,2014-11-07T01:02:14.149Z,Pakistan,earthquake,,,,1.0,reviewed,us,us
4491,1997-03-01 02:06:27.200000+00:00,30.125999999999998,67.992,33.0,4.1,mb,,,,1.28,us,usp0007y1p,2014-11-07T01:02:14.057Z,Pakistan,earthquake,,,,3.0,reviewed,us,us
4495,1997-03-01 01:39:08.430000+00:00,29.881999999999998,67.964,33.0,4.1,mb,,,,0.79,us,usp0007y1n,2014-11-07T01:02:14.046Z,Pakistan,earthquake,,,,1.0,reviewed,us,us
4496,1997-03-01 01:35:51.190000+00:00,30.018,67.846,33.0,3.9,mb,,,,0.91,us,usp0007y1m,2014-11-07T01:02:14.030Z,Pakistan,earthquake,,,,3.0,reviewed,us,us
4503,1997-03-01 00:57:07.360000+00:00,29.574,68.26,33.0,3.8,mb,,,,1.84,us,usp0007y1g,2014-11-07T01:02:13.812Z,Pakistan,earthquake,,,,1.0,reviewed,us,us
4505,1997-03-01 00:42:07.950000+00:00,29.54,68.354,33.0,4.8,mb,,,,1.11,us,usp0007y1e,2014-11-07T01:02:13.187Z,Pakistan,earthquake,,,,42.0,reviewed,us,us
