,time,latitude,longitude,depth,mag,magType,nst,gap,dmin,rms,net,id,updated,place,type,horizontalError,depthError,magError,magNst,status,locationSource,magSource
2559,1999-05-22 22:56:24.760000+00:00,-5.601,152.618,33.0,5.7,mwc,,,,0.97,us,usp00098jd,2016-11-09T22:35:17.791Z,"New Britain region, Papua New Guinea",earthquake,,,,,reviewed,us,hrv
2636,1999-05-22 13:17:31.140000+00:00,-5.659,152.36700000000002,33.0,4.4,mb,,,,1.37,us,usp00098hg,2014-11-07T01:07:42.349Z,"New Britain region, Papua New Guinea",earthquake,,,,3.0,reviewed,us,us
2640,1999-05-22 12:56:10.350000+00:00,-5.678,152.618,33.0,4.3,mb,,,,1.18,us,usp00098hd,2014-11-07T01:07:42.345Z,"New Britain region, Papua New Guinea",earthquake,,,,1.0,reviewed,us,us
2642,1999-05-22 12:52:48.490000+00:00,-5.803999999999999,152.398,33.0,4.5,mb,,,,1.3,us,usp00098hc,2014-11-07T01:07:42.343Z,"New Britain region, Papua New Guinea",earthquake,,,,11.0,reviewed,us,us
2649,1999-05-22 12:15:29.800000+00:00,-5.372000000000001,151.708,33.0,4.5,mb,,,,1.41,us,usp00098hb,2014-11-07T01:07:42.341Z,"New Britain region, Papua New Guinea",earthquake,,,,7.0,reviewed,us,us
2650,1999-05-22 12:06:58.430000+00:00,-5.638,152.279,33.0,4.7,mb,,,,1.18,us,usp00098ha,2014-11-07T01:07:42.338Z,"New Britain region, Papua New Guinea",earthquake,,,,14.0,reviewed,us,us
2654,1999-05-22 11:27:17.150000+00:00,-5.16,153.036,33.0,4.2,mb,,,,1.32,us,usp00098h8,2014-11-07T01:07:42.335Z,"New Ireland region, Papua New Guinea",earthquake,,,,1.0,reviewed,us,us
2791,1999-05-21 15:53:41.660000+00:00,-5.053,152.57299999999998,33.0,4.8,mb,,,,1.04,us,usp00098fk,2014-11-07T01:07:42.142Z,"New Britain region, Papua New Guinea",earthquake,,,,14.0,reviewed,us,us
2807,1999-05-21 12:44:49.350000+00:00,-5.744,150.31799999999998,86.0,4.2,mb,,,,1.04,us,usp00098fb,2014-11-07T01:07:42.127Z,"New Britain region, Papua New Guinea",earthquake,,15.2,,1.0,reviewed,us,us
3101,1999-05-20 08:29:37.510000+00:00,-5.444,153.005,57.0,4.4,mb,,,,1.3,us,usp00098c6,2014-11-07T01:07:41.840Z,"New Ireland region, Papua New Guinea",earthquake,,22.5,,2.0,reviewed,us,us
3119,1999-05-20 07:00:28.730000+00:00,-4.7,153.245,72.8,5.4,mwc,,,,0.95,us,usp00098c1,2016-11-09T22:34:12.778Z,"New Ireland region, Papua New Guinea",earthquake,,,,,reviewed,us,hrv
3205,1999-05-19 21:27:39.070000+00:00,-4.872,151.833,135.9,4.9,mb,,,,0.74,us,usp00098bd,2014-11-07T01:07:41.780Z,"New Britain region, Papua New Guinea",earthquake,,4.3,,8.0,reviewed,us,us
3355,1999-05-19 06:26:08.780000+00:00,-5.482,153.091,33.0,4.1,mb,,,,1.22,us,usp00098ak,2014-11-07T01:07:41.710Z,"New Ireland region, Papua New Guinea",earthquake,,,,1.0,reviewed,us,us
3382,1999-05-19 03:54:54.040000+00:00,-5.138999999999999,153.02,61.8,4.2,mb,,,,1.03,us,usp00098a9,2014-11-07T01:07:41.673Z,"New Ireland region, Papua New Guinea",earthquake,,15.3,,3.0,reviewed,us,us
3576,1999-05-18 14:57:56.150000+00:00,-5.38,153.046,33.0,5.4,mwc,,,,1.12,us,usp000988m,2016-11-09T22:33:18.049Z,"New Ireland region, Papua New Guinea",earthquake,,,,,reviewed,us,hrv
3584,1999-05-18 14:38:28.920000+00:00,-5.204,152.816,33.0,5.3,mwc,,,,0.88,us,usp000988h,2016-11-09T22:33:17.342Z,"New Britain region, Papua New Guinea",earthquake,,,,,reviewed,us,hrv
3685,1999-05-18 06:16:10.450000+00:00,-5.03,152.764,33.0,5.8,mwc,,,,1.14,us,usp000987x,2016-11-09T22:33:15.660Z,"New Britain region, Papua New Guinea",earthquake,,,,,reviewed,us,hrv
3775,1999-05-18 00:13:51.370000+00:00,-7.117999999999999,154.885,33.0,4.6,mb,,,,1.02,us,usp0009879,2014-11-07T01:07:41.336Z,"Bougainville region, Papua New Guinea",earthquake,,,,1.0,reviewed,us,us
3855,1999-05-17 18:58:19.100000+00:00,-5.434,152.872,33.0,4.6,mb,,,,1.05,us,usp000986w,2014-11-07T01:07:41.298Z,"New Britain region, Papua New Guinea",earthquake,,,,2.0,reviewed,us,us
3860,1999-05-17 18:33:16.920000+00:00,-5.098,152.622,63.4,4.9,mb,,,,1.03,us,usp000986u,2014-11-07T01:07:41.290Z,"New Britain region, Papua New Guinea",earthquake,,8.3,,17.0,reviewed,us,us
3862,1999-05-17 18:19:50.930000+00:00,-5.414,152.784,65.4,4.6,mb,,,,1.12,us,usp000986t,2014-11-07T01:07:41.288Z,"New Britain region, Papua New Guinea",earthquake,,11.2,,4.0,reviewed,us,us
3872,1999-05-17 17:42:30.700000+00:00,-5.132000000000001,152.611,77.7,4.3,mb,,,,1.23,us,usp000986r,2014-11-07T01:07:41.285Z,"New Britain region, Papua New Guinea",earthquake,,15.1,,2.0,reviewed,us,us
3886,1999-05-17 17:04:20.620000+00:00,-5.039,152.537,81.1,5.6,mwc,,,,1.0,us,usp000986n,2016-11-09T22:32:48.954Z,"New Britain region, Papua New Guinea",earthquake,,4.0,,,reviewed,us,hrv
3964,1999-05-17 13:20:50.690000+00:00,-5.419,153.006,33.0,4.4,mb,,,,1.18,us,usp0009867,2014-11-07T01:07:41.232Z,"New Ireland region, Papua New Guinea",earthquake,,,,2.0,reviewed,us,us
3978,1999-05-17 12:35:53.360000+00:00,-5.522,152.705,33.0,4.4,mb,,,,0.97,us,usp0009865,2014-11-07T01:07:41.230Z,"New Britain region, Papua New Guinea",earthquake,,,,1.0,reviewed,us,us
4003,1999-05-17 11:30:11.100000+00:00,-5.37,152.84799999999998,59.4,4.8,mb,,,,0.79,us,usp0009860,2014-11-07T01:07:41.222Z,"New Britain region, Papua New Guinea",earthquake,,9.6,,3.0,reviewed,us,us
4009,1999-05-17 11:16:06.370000+00:00,-5.199,152.739,62.8,4.7,mb,,,,0.95,us,usp000985z,2014-11-07T01:07:41.218Z,"New Britain region, Papua New Guinea",earthquake,,8.5,,12.0,reviewed,us,us
4012,1999-05-17 11:06:00.170000+00:00,-5.228,152.791,69.9,4.5,mb,,,,0.96,us,usp000985y,2014-11-07T01:07:41.216Z,"New Britain region, Papua New Guinea",earthquake,,12.9,,1.0,reviewed,us,us
4020,1999-05-17 10:47:38.360000+00:00,-5.204,152.761,58.4,4.9,mb,,,,0.89,us,usp000985x,2014-11-07T01:07:41.213Z,"New Britain region, Papua New Guinea",earthquake,,9.2,,13.0,reviewed,us,us
4032,1999-05-17 10:07:56.450000+00:00,-5.165,152.877,27.0,6.6,mwc,,,,0.99,us,usp000985t,2017-04-26T17:55:58.037Z,"New Britain region, Papua New Guinea",earthquake,,,,,reviewed,us,hrv
4062,1999-05-17 09:06:39.830000+00:00,-5.195,152.73,69.4,5.5,mwc,,,,1.02,us,usp000985q,2016-11-09T22:32:48.433Z,"New Britain region, Papua New Guinea",earthquake,,4.1,,,reviewed,us,hrv
4833,1999-05-16 00:51:20.460000+00:00,-4.751,152.486,73.7,7.1,mwc,,,,0.95,us,usp000982a,2017-04-26T17:55:56.841Z,"New Britain region, Papua New Guinea",earthquake,,2.2,,,reviewed,us,hrv
5483,1999-05-15 08:37:35.570000+00:00,-5.21,150.855,158.1,4.5,mb,,,,0.87,us,usp0009805,2014-11-07T01:07:40.634Z,"New Britain region, Papua New Guinea",earthquake,,6.5,,15.0,reviewed,us,us
5583,1999-05-14 21:03:15+00:00,-5.564,149.736,147.4,4.9,mb,,,,0.94,us,usp00097z4,2014-11-07T01:07:40.551Z,"New Britain region, Papua New Guinea",earthquake,,7.0,,11.0,reviewed,us,us
5889,1999-05-13 15:46:59.810000+00:00,-5.403,152.46200000000002,58.0,4.6,mb,,,,1.02,us,usp00097wc,2014-11-07T01:07:40.267Z,"New Britain region, Papua New Guinea",earthquake,,9.8,,8.0,reviewed,us,us
6172,1999-05-11 15:24:49.420000+00:00,-5.691,153.356,33.0,4.5,mb,,,,1.33,us,usp00097st,2014-11-07T01:07:39.892Z,"New Ireland region, Papua New Guinea",earthquake,,,,4.0,reviewed,us,us
6262,1999-05-10 20:33:02.090000+00:00,-5.159,150.88,138.0,7.1,mwb,,,,0.93,us,usp00097rj,2017-04-26T17:55:55.623Z,"New Britain region, Papua New Guinea",earthquake,,,,,reviewed,us,us
