,time,latitude,longitude,depth,mag,magType,nst,gap,dmin,rms,net,id,updated,place,type,horizontalError,depthError,magError,magNst,status,locationSource,magSource
1484,2000-06-22 00:20:22.520000+00:00,-13.312999999999999,97.271,10.0,4.4,mb,13.0,,,0.61,us,usp0009uyh,2014-11-07T01:10:24.076Z,South Indian Ocean,earthquake,,,,4.0,reviewed,us,us
1488,2000-06-22 00:02:21.550000+00:00,-13.257,97.204,10.0,5.0,mwc,47.0,,,0.79,us,usp0009uyg,2016-11-09T22:49:00.885Z,South Indian Ocean,earthquake,,,,,reviewed,us,hrv
1489,2000-06-22 00:01:10.050000+00:00,-13.252,97.147,10.0,4.5,mb,8.0,,,0.65,us,usp0009uyf,2014-11-07T01:10:24.065Z,South Indian Ocean,earthquake,,,,1.0,reviewed,us,us
1610,2000-06-21 08:36:16.280000+00:00,-13.344000000000001,97.63799999999999,10.0,4.9,mb,30.0,,,1.11,us,usp0009uxk,2014-11-07T01:10:23.962Z,South Indian Ocean,earthquake,,,,13.0,reviewed,us,us
1727,2000-06-20 12:19:32.190000+00:00,-13.495,97.611,10.0,4.6,mb,9.0,,,0.91,us,usp0009uwa,2014-11-07T01:10:23.812Z,South Indian Ocean,earthquake,,,,1.0,reviewed,us,us
1731,2000-06-20 11:34:00.040000+00:00,-14.104000000000001,97.57700000000001,10.0,5.8,mwc,153.0,,,1.14,us,usp0009uw8,2016-11-09T22:48:01.351Z,South Indian Ocean,earthquake,,,,,reviewed,us,hrv
1763,2000-06-20 06:12:38.540000+00:00,-13.839,97.32,10.0,4.6,mb,30.0,,,1.0,us,usp0009uvt,2014-11-07T01:10:23.740Z,South Indian Ocean,earthquake,,,,7.0,reviewed,us,us
1893,2000-06-19 07:41:33.150000+00:00,-13.309000000000001,97.037,10.0,4.6,mb,20.0,,,1.14,us,usp0009uug,2014-11-07T01:10:23.564Z,South Indian Ocean,earthquake,,,,8.0,reviewed,us,us
1965,2000-06-18 20:48:10.810000+00:00,-14.27,97.31700000000001,10.0,4.5,mb,10.0,,,1.02,us,usp0009utm,2014-11-07T01:10:23.427Z,South Indian Ocean,earthquake,,,,3.0,reviewed,us,us
1983,2000-06-18 17:50:51.820000+00:00,-13.712,97.74700000000001,10.0,4.3,mb,12.0,,,0.57,us,usp0009utf,2014-11-07T01:10:23.405Z,South Indian Ocean,earthquake,,,,2.0,reviewed,us,us
1985,2000-06-18 17:29:56.140000+00:00,-13.82,97.07799999999999,10.0,4.3,mb,7.0,,,0.46,us,usp0009utd,2014-11-07T01:10:23.402Z,South Indian Ocean,earthquake,,,,1.0,reviewed,us,us
1986,2000-06-18 17:27:41.630000+00:00,-13.982999999999999,97.346,10.0,4.3,mb,10.0,,,0.7,us,usp0009utc,2014-11-07T01:10:23.400Z,South Indian Ocean,earthquake,,,,1.0,reviewed,us,us
1995,2000-06-18 16:01:50.130000+00:00,-13.974,97.30799999999999,10.0,4.9,mb,32.0,,,1.1,us,usp0009ut8,2014-11-07T01:10:23.392Z,South Indian Ocean,earthquake,,,,10.0,reviewed,us,us
1997,2000-06-18 15:50:33.040000+00:00,-13.662,97.26100000000001,10.0,4.4,mb,7.0,,,0.5,us,usp0009ut6,2014-11-07T01:10:23.389Z,South Indian Ocean,earthquake,,,,1.0,reviewed,us,us
2003,2000-06-18 15:05:31.960000+00:00,-13.645,97.20299999999999,10.0,5.4,mb,20.0,,,0.87,us,usp0009ut1,2014-11-07T01:10:23.377Z,South Indian Ocean,earthquake,,,,6.0,reviewed,us,us
2007,2000-06-18 14:44:13.310000+00:00,-13.802,97.45299999999999,10.0,7.9,mwc,405.0,,,1.16,us,usp0009ut0,2017-11-07T16:23:44.651Z,South Indian Ocean,earthquake,,,,,reviewed,us,hrv
