,time,latitude,longitude,depth,mag,magType,nst,gap,dmin,rms,net,id,updated,place,type,horizontalError,depthError,magError,magNst,status,locationSource,magSource
36,2002-02-28 17:36:38.810000+00:00,32.705,70.102,33.0,4.0,mb,16.0,,,1.01,us,usp000azc8,2014-11-07T01:14:58.910Z,Pakistan,earthquake,,,,2.0,reviewed,us,us
110,2002-02-28 06:49:27.110000+00:00,36.415,70.152,227.8,4.2,mb,27.0,,,1.1,us,usp000azbj,2014-11-07T01:14:58.539Z,"Hindu Kush region, Afghanistan",earthquake,,10.5,,10.0,reviewed,us,us
113,2002-02-28 06:39:58.160000+00:00,36.726,69.721,61.0,4.2,mb,20.0,,,1.27,us,usp000azbh,2014-11-07T01:14:58.536Z,"Hindu Kush region, Afghanistan",earthquake,,13.6,,6.0,reviewed,us,us
404,2002-02-26 14:05:03.740000+00:00,36.881,71.617,115.4,4.2,mb,20.0,,,0.91,us,usp000az7y,2014-11-07T01:14:58.186Z,Tajikistan,earthquake,,,,5.0,reviewed,us,us
577,2002-02-25 15:53:41.940000+00:00,35.496,68.85,33.0,4.4,mb,18.0,,,1.0,us,usp000az5v,2014-11-07T01:14:57.959Z,"Hindu Kush region, Afghanistan",earthquake,,,,5.0,reviewed,us,us
3222,2002-03-09 20:59:42.880000+00:00,36.583,70.953,228.7,4.0,mb,23.0,,,0.79,us,usp000b00m,2014-11-07T01:15:07.096Z,"Hindu Kush region, Afghanistan",earthquake,,8.5,,5.0,reviewed,us,us
3552,2002-03-07 17:00:29.410000+00:00,37.653,68.404,33.0,4.2,mb,26.0,,,1.17,us,usp000azw2,2014-11-07T01:15:05.718Z,Tajikistan,earthquake,,,,9.0,reviewed,us,us
3703,2002-03-06 19:56:53.470000+00:00,36.26,71.505,116.2,4.5,mb,45.0,,,0.89,us,usp000azu0,2014-11-07T01:15:05.495Z,Afghanistan-Tajikistan-Pakistan region,earthquake,,11.6,,25.0,reviewed,us,us
3766,2002-03-06 10:15:02.580000+00:00,36.358000000000004,71.029,169.9,4.3,mb,19.0,,,1.05,us,usp000azsv,2014-11-07T01:15:05.367Z,"Hindu Kush region, Afghanistan",earthquake,,13.0,,3.0,reviewed,us,us
3905,2002-03-05 19:09:03.840000+00:00,36.552,70.771,225.2,3.9,mb,6.0,,,0.45,us,usp000azqj,2014-11-07T01:15:05.091Z,"Hindu Kush region, Afghanistan",earthquake,,13.8,,1.0,reviewed,us,us
3935,2002-03-05 15:38:18.290000+00:00,36.57,70.488,216.5,3.8,mb,11.0,,,0.4,us,usp000azq8,2014-11-07T01:15:05.040Z,"Hindu Kush region, Afghanistan",earthquake,,9.7,,1.0,reviewed,us,us
3946,2002-03-05 14:38:50.420000+00:00,36.419000000000004,70.308,200.0,3.8,mb,7.0,,,1.3,us,usp000azq2,2014-11-07T01:15:05.027Z,"Hindu Kush region, Afghanistan",earthquake,,,,1.0,reviewed,us,us
3951,2002-03-05 14:15:44.700000+00:00,37.138000000000005,71.528,116.8,4.5,mb,20.0,,,0.99,us,usp000azq0,2014-11-07T01:15:05.021Z,Tajikistan,earthquake,,,,4.0,reviewed,us,us
4282,2002-03-03 21:39:02.220000+00:00,36.5,70.384,209.7,3.8,mb,21.0,,,1.04,us,usp000azjc,2014-11-07T01:15:03.049Z,"Hindu Kush region, Afghanistan",earthquake,,11.3,,8.0,reviewed,us,us
4305,2002-03-03 19:13:48.560000+00:00,36.5,70.391,209.8,3.8,mb,20.0,,,1.32,us,usp000azj4,2014-11-07T01:15:02.999Z,"Hindu Kush region, Afghanistan",earthquake,,12.8,,5.0,reviewed,us,us
4338,2002-03-03 13:49:03.700000+00:00,36.504,70.579,217.6,3.8,mb,16.0,,,1.29,us,usp000azhn,2014-11-07T01:15:02.828Z,"Hindu Kush region, Afghanistan",earthquake,,12.3,,2.0,reviewed,us,us
4341,2002-03-03 13:25:32.400000+00:00,36.425,70.568,215.9,3.8,mb,16.0,,,0.81,us,usp000azhk,2014-11-07T01:15:02.796Z,"Hindu Kush region, Afghanistan",earthquake,,10.0,,3.0,reviewed,us,us
4343,2002-03-03 13:15:31.880000+00:00,36.478,70.531,219.4,3.9,mb,21.0,,,1.17,us,usp000azhh,2014-11-07T01:15:02.787Z,"Hindu Kush region, Afghanistan",earthquake,,11.5,,8.0,reviewed,us,us
4344,2002-03-03 13:05:44.760000+00:00,36.467,70.484,212.7,4.2,mb,60.0,,,0.9,us,usp000azhg,2014-11-07T01:15:02.772Z,"Hindu Kush region, Afghanistan",earthquake,,,,37.0,reviewed,us,us
4353,2002-03-03 12:08:19.740000+00:00,36.501999999999995,70.482,225.6,7.4,mwc,138.0,,,1.06,us,usp000azhc,2017-11-07T18:27:33.187Z,"Hindu Kush region, Afghanistan",earthquake,,,,,reviewed,us,hrv
4354,2002-03-03 12:08:07.810000+00:00,36.429,70.438,209.0,6.3,mb,515.0,,,1.0,us,usp000azhb,2017-04-26T17:59:55.094Z,"Hindu Kush region, Afghanistan",earthquake,,4.4,,133.0,reviewed,us,us
4531,2002-03-02 08:16:17.230000+00:00,32.705,70.036,33.0,4.6,mb,38.0,,,1.06,us,usp000azes,2014-11-07T01:15:01.812Z,Pakistan,earthquake,,,,16.0,reviewed,us,us
4658,2002-03-01 07:28:17.870000+00:00,36.458,70.29,219.4,4.1,mb,16.0,,,1.07,us,usp000azd3,2014-11-07T01:15:00.949Z,"Hindu Kush region, Afghanistan",earthquake,,14.7,,2.0,reviewed,us,us
