,time,latitude,longitude,depth,mag,magType,nst,gap,dmin,rms,net,id,updated,place,type,horizontalError,depthError,magError,magNst,status,locationSource,magSource
840,2002-08-26 05:48:10.110000+00:00,-18.884,-177.875,600.0,4.8,mb,21.0,,,0.9,us,usp000ban6,2014-11-07T01:16:20.456Z,Fiji region,earthquake,,,,11.0,reviewed,us,us
881,2002-08-25 20:51:52.690000+00:00,-21.828000000000003,-179.465,600.0,4.7,mb,38.0,,,1.06,us,usp000bamj,2014-11-07T01:16:20.375Z,Fiji region,earthquake,,,,16.0,reviewed,us,us
919,2002-08-25 13:07:11.460000+00:00,-17.949,-178.551,600.0,4.4,mb,70.0,,,0.91,us,usp000baky,2014-11-07T01:16:20.297Z,Fiji region,earthquake,,,,14.0,reviewed,us,us
953,2002-08-25 05:52:12.280000+00:00,-20.285999999999998,-177.762,500.0,4.2,mb,18.0,,,0.98,us,usp000bakb,2014-11-07T01:16:20.220Z,Fiji region,earthquake,,,,8.0,reviewed,us,us
959,2002-08-25 04:42:11.560000+00:00,-20.543000000000003,-178.40900000000002,554.2,5.5,mwc,369.0,,,0.71,us,usp000bak6,2016-11-09T23:19:42.507Z,Fiji region,earthquake,,,,,reviewed,us,hrv
1031,2002-08-24 17:47:47.800000+00:00,-21.739,-179.549,640.9,4.6,mb,80.0,,,0.97,us,usp000baj5,2014-11-07T01:16:19.961Z,Fiji region,earthquake,,15.1,,25.0,reviewed,us,us
1050,2002-08-24 14:48:39.710000+00:00,-17.898,-178.643,571.9,4.6,mb,100.0,,,0.79,us,usp000bahy,2014-11-07T01:16:19.939Z,Fiji region,earthquake,,16.5,,30.0,reviewed,us,us
1170,2002-08-23 17:00:10.460000+00:00,-21.391,179.69799999999998,600.0,4.4,mb,42.0,,,0.89,us,usp000bag7,2014-11-07T01:16:19.543Z,south of the Fiji Islands,earthquake,,,,12.0,reviewed,us,us
1287,2002-08-23 01:26:08.980000+00:00,-17.891,-178.753,600.0,4.0,mb,13.0,,,0.68,us,usp000baez,2014-11-07T01:16:19.416Z,Fiji region,earthquake,,,,3.0,reviewed,us,us
1294,2002-08-23 00:03:17.050000+00:00,-21.031999999999996,-179.037,600.0,4.4,mb,22.0,,,1.05,us,usp000baew,2014-11-07T01:16:19.411Z,Fiji region,earthquake,,,,7.0,reviewed,us,us
1295,2002-08-22 23:58:09.500000+00:00,-21.104,-179.1,618.6,5.5,mwb,324.0,,,0.81,us,usp000baev,2016-11-09T23:18:13.838Z,Fiji region,earthquake,,5.1,,,reviewed,us,us
1375,2002-08-22 11:19:41.210000+00:00,-21.156,-178.268,500.0,4.6,mb,43.0,,,1.03,us,usp000badr,2014-11-07T01:16:18.523Z,Fiji region,earthquake,,,,22.0,reviewed,us,us
1403,2002-08-22 07:03:21.370000+00:00,-17.891,-178.882,600.0,4.4,mb,35.0,,,0.97,us,usp000bad8,2014-11-07T01:16:18.462Z,Fiji region,earthquake,,,,19.0,reviewed,us,us
1561,2002-08-21 06:13:20.790000+00:00,-18.155,-178.085,600.0,4.3,mb,28.0,,,1.11,us,usp000bab0,2014-11-07T01:16:18.183Z,Fiji region,earthquake,,,,10.0,reviewed,us,us
1574,2002-08-21 04:34:41.630000+00:00,-21.958000000000002,179.51,600.0,4.4,mb,25.0,,,0.84,us,usp000baax,2014-11-07T01:16:18.177Z,south of the Fiji Islands,earthquake,,,,11.0,reviewed,us,us
1577,2002-08-21 04:09:11.290000+00:00,-23.522,179.835,600.0,4.2,mb,24.0,,,0.58,us,usp000baav,2014-11-07T01:16:18.173Z,south of the Fiji Islands,earthquake,,,,12.0,reviewed,us,us
1607,2002-08-20 22:50:13.880000+00:00,-23.854,179.795,600.0,4.2,mb,13.0,,,1.28,us,usp000baac,2014-11-07T01:16:18.137Z,south of the Fiji Islands,earthquake,,,,8.0,reviewed,us,us
1658,2002-08-20 13:11:47.590000+00:00,-22.29,-179.89,600.0,4.7,mb,55.0,,,0.81,us,usp000ba9d,2014-11-07T01:16:18.076Z,south of the Fiji Islands,earthquake,,,,24.0,reviewed,us,us
1674,2002-08-20 11:24:45.320000+00:00,-21.673000000000002,-179.328,608.3,4.7,mb,90.0,,,0.89,us,usp000ba94,2014-11-07T01:16:18.050Z,Fiji region,earthquake,,12.0,,29.0,reviewed,us,us
1725,2002-08-20 02:42:41.420000+00:00,-21.616999999999997,-179.31799999999998,600.0,4.4,mb,24.0,,,0.87,us,usp000ba8j,2014-11-07T01:16:17.961Z,Fiji region,earthquake,,,,10.0,reviewed,us,us
1727,2002-08-20 01:44:56.440000+00:00,-21.892,-179.418,600.0,4.8,mb,113.0,,,0.75,us,usp000ba8h,2014-11-07T01:16:17.939Z,Fiji region,earthquake,,,,36.0,reviewed,us,us
1741,2002-08-20 00:20:07.040000+00:00,-24.576999999999998,179.418,650.0,4.1,mb,11.0,,,0.55,us,usp000ba8a,2014-11-07T01:16:17.917Z,south of the Fiji Islands,earthquake,,,,5.0,reviewed,us,us
1777,2002-08-19 19:14:32.670000+00:00,-23.901,178.343,650.0,4.5,mb,28.0,,,0.97,us,usp000ba7r,2014-11-07T01:16:17.877Z,south of the Fiji Islands,earthquake,,,,12.0,reviewed,us,us
1805,2002-08-19 15:09:11.920000+00:00,-24.131999999999998,178.817,600.0,4.3,mb,51.0,,,0.81,us,usp000ba7b,2014-11-07T01:16:17.842Z,south of the Fiji Islands,earthquake,,,,27.0,reviewed,us,us
1818,2002-08-19 14:18:42.670000+00:00,-21.927,-179.44299999999998,600.0,4.4,mb,15.0,,,1.03,us,usp000ba76,2014-11-07T01:16:17.835Z,Fiji region,earthquake,,,,7.0,reviewed,us,us
1819,2002-08-19 14:18:09.810000+00:00,-21.55,-179.24900000000002,600.0,4.5,mb,23.0,,,1.07,us,usp000ba75,2014-11-07T01:16:17.831Z,Fiji region,earthquake,,,,9.0,reviewed,us,us
1822,2002-08-19 13:19:59.740000+00:00,-21.851999999999997,-179.37599999999998,600.0,4.5,mb,51.0,,,0.93,us,usp000ba73,2014-11-07T01:16:17.819Z,Fiji region,earthquake,,,,23.0,reviewed,us,us
1830,2002-08-19 12:52:04.150000+00:00,-24.871,178.56599999999997,691.6,5.6,mb,215.0,,,0.76,us,usp000ba6z,2014-11-07T01:16:17.786Z,south of the Fiji Islands,earthquake,,,,21.0,reviewed,us,us
1835,2002-08-19 12:26:52.460000+00:00,-21.416999999999998,-179.447,600.0,4.5,mb,32.0,,,1.07,us,usp000ba6w,2014-11-07T01:16:17.780Z,Fiji region,earthquake,,,,10.0,reviewed,us,us
1836,2002-08-19 12:26:26.830000+00:00,-21.71,-179.248,600.0,4.9,mb,68.0,,,0.97,us,usp000ba6v,2014-11-07T01:16:17.772Z,Fiji region,earthquake,,,,24.0,reviewed,us,us
1839,2002-08-19 12:13:01.700000+00:00,-21.849,-179.437,588.0,4.4,mb,47.0,,,0.93,us,usp000ba6t,2014-11-07T01:16:17.762Z,Fiji region,earthquake,,16.1,,22.0,reviewed,us,us
1841,2002-08-19 11:45:29.410000+00:00,-21.893,-179.445,600.0,5.5,mb,90.0,,,0.82,us,usp000ba6r,2014-11-07T01:16:17.751Z,Fiji region,earthquake,,,,19.0,reviewed,us,us
1842,2002-08-19 11:38:04.830000+00:00,-23.154,178.665,650.0,5.1,mb,53.0,,,1.19,us,usp000ba6q,2014-11-07T01:16:17.746Z,south of the Fiji Islands,earthquake,,,,7.0,reviewed,us,us
1843,2002-08-19 11:34:00.500000+00:00,-21.59,-179.263,600.0,5.3,mb,16.0,,,0.89,us,usp000ba6p,2014-11-07T01:16:17.743Z,Fiji region,earthquake,,,,2.0,reviewed,us,us
1844,2002-08-19 11:23:06.200000+00:00,-23.899,178.375,677.4,6.1,mb,227.0,,,1.14,us,usp000ba6n,2015-07-13T17:02:24.000Z,south of the Fiji Islands,earthquake,,,,36.0,reviewed,us,us
1845,2002-08-19 11:08:24.310000+00:00,-23.884,178.495,675.4,7.7,mwc,302.0,,,1.08,us,usp000ba6m,2017-11-07T18:34:30.509Z,south of the Fiji Islands,earthquake,,,,,reviewed,us,hrv
1849,2002-08-19 11:03:13.230000+00:00,-23.566999999999997,178.542,650.0,5.9,mb,21.0,,,1.17,us,usp000ba6h,2014-11-07T01:16:17.677Z,south of the Fiji Islands,earthquake,,,,1.0,reviewed,us,us
1850,2002-08-19 11:01:01.190000+00:00,-21.695999999999998,-179.513,580.0,7.7,mwc,670.0,,,0.93,us,usp000ba6g,2017-11-07T18:33:30.582Z,Fiji region,earthquake,,,,,reviewed,us,hrv
1879,2002-08-19 04:00:07.780000+00:00,-20.994,-178.615,500.0,4.1,mb,24.0,,,0.95,us,usp000ba68,2014-11-07T01:16:17.590Z,Fiji region,earthquake,,,,12.0,reviewed,us,us
1941,2002-08-18 17:43:45.390000+00:00,-25.069000000000003,178.58599999999998,600.0,4.6,mb,22.0,,,0.84,us,usp000ba59,2014-11-07T01:16:17.504Z,south of the Fiji Islands,earthquake,,,,8.0,reviewed,us,us
1965,2002-08-18 14:28:50.640000+00:00,-17.766,-178.78799999999998,600.0,4.4,mb,16.0,,,0.54,us,usp000ba4w,2014-11-07T01:16:17.470Z,Fiji region,earthquake,,,,8.0,reviewed,us,us
2176,2002-08-17 00:37:56.340000+00:00,-20.671999999999997,-176.203,33.0,4.8,mb,14.0,,,1.35,us,usp000ba1s,2014-11-07T01:16:17.165Z,Fiji region,earthquake,,,,7.0,reviewed,us,us
2184,2002-08-16 22:32:31.950000+00:00,-18.65,-178.093,600.0,4.5,mb,76.0,,,0.9,us,usp000ba1k,2014-11-07T01:16:17.148Z,Fiji region,earthquake,,,,38.0,reviewed,us,us
2187,2002-08-16 21:54:37.490000+00:00,-19.891,-177.112,400.0,4.2,mb,20.0,,,0.95,us,usp000ba1j,2014-11-07T01:16:17.143Z,Fiji region,earthquake,,,,15.0,reviewed,us,us
2224,2002-08-16 16:25:05.330000+00:00,-22.379,-179.517,600.0,4.3,mb,17.0,,,1.09,us,usp000ba10,2014-11-07T01:16:16.667Z,south of the Fiji Islands,earthquake,,,,8.0,reviewed,us,us
2477,2002-08-15 01:25:40.180000+00:00,-19.96,-177.773,577.5,4.4,mb,93.0,,,0.89,us,usp000b9x4,2014-11-07T01:16:16.010Z,Fiji region,earthquake,,15.4,,30.0,reviewed,us,us
2605,2002-08-14 05:40:32.220000+00:00,-20.558000000000003,-178.06599999999997,600.0,4.4,mb,12.0,,,0.6,us,usp000b9va,2014-11-07T01:16:15.801Z,Fiji region,earthquake,,,,6.0,reviewed,us,us
