,time,latitude,longitude,depth,mag,magType,nst,gap,dmin,rms,net,id,updated,place,type,horizontalError,depthError,magError,magNst,status,locationSource,magSource
2381,2002-10-16 20:15:59.890000+00:00,-1.676,134.457,10.0,4.2,mb,9.0,,,0.71,us,usp000bept,2014-11-07T01:16:45.921Z,"near the north coast of Papua, Indonesia",earthquake,,,,1.0,reviewed,us,us
2424,2002-10-16 13:35:06.430000+00:00,-1.715,134.308,10.0,4.3,mb,8.0,,,0.67,us,usp000bep8,2014-11-07T01:16:45.849Z,"near the north coast of Papua, Indonesia",earthquake,,,,1.0,reviewed,us,us
2431,2002-10-16 11:57:59.970000+00:00,-1.7630000000000001,134.43200000000002,10.0,4.8,mb,34.0,,,0.92,us,usp000bep6,2014-11-07T01:16:45.844Z,"near the north coast of Papua, Indonesia",earthquake,,,,20.0,reviewed,us,us
2445,2002-10-16 08:46:08.850000+00:00,-3.486,134.749,10.0,4.6,mb,8.0,,,1.23,us,usp000beny,2014-11-07T01:16:45.762Z,"Papua, Indonesia",earthquake,,,,1.0,reviewed,us,us
2454,2002-10-16 07:23:41+00:00,-2.826,134.428,10.0,4.3,mb,19.0,,,1.21,us,usp000benv,2014-11-07T01:16:45.737Z,"near the north coast of Papua, Indonesia",earthquake,,,,8.0,reviewed,us,us
2544,2002-10-15 18:42:32.990000+00:00,-2.841,134.393,10.0,4.2,mb,10.0,,,0.71,us,usp000bemp,2014-11-07T01:16:45.614Z,"near the north coast of Papua, Indonesia",earthquake,,,,3.0,reviewed,us,us
2611,2002-10-15 07:10:13.270000+00:00,-1.505,134.134,10.0,4.3,mb,9.0,,,1.01,us,usp000bekj,2014-11-07T01:16:45.520Z,"near the north coast of Papua, Indonesia",earthquake,,,,1.0,reviewed,us,us
2622,2002-10-15 05:03:23.410000+00:00,-1.7690000000000001,134.019,10.0,4.5,mb,11.0,,,0.76,us,usp000bekb,2014-11-07T01:16:45.503Z,"near the north coast of Papua, Indonesia",earthquake,,,,2.0,reviewed,us,us
2629,2002-10-15 04:00:27.320000+00:00,-2.94,134.506,10.0,4.2,mb,9.0,,,1.32,us,usp000bek7,2014-11-07T01:16:45.496Z,"near the north coast of Papua, Indonesia",earthquake,,,,3.0,reviewed,us,us
2634,2002-10-15 03:34:12.720000+00:00,-3.947,135.183,10.0,4.3,mb,6.0,,,1.49,us,usp000bek3,2014-11-07T01:16:45.485Z,"Papua, Indonesia",earthquake,,,,1.0,reviewed,us,us
2671,2002-10-14 23:00:04.110000+00:00,-1.776,134.43200000000002,10.0,4.2,mb,6.0,,,0.77,us,usp000bejn,2014-11-07T01:16:45.444Z,"near the north coast of Papua, Indonesia",earthquake,,,,1.0,reviewed,us,us
2684,2002-10-14 21:26:34.320000+00:00,-2.949,134.609,10.0,4.1,mb,8.0,,,1.5,us,usp000bejg,2014-11-07T01:16:45.436Z,"near the north coast of Papua, Indonesia",earthquake,,,,1.0,reviewed,us,us
2688,2002-10-14 21:00:51.740000+00:00,-2.9019999999999997,134.458,10.0,4.6,mb,17.0,,,1.03,us,usp000beje,2014-11-07T01:16:45.431Z,"near the north coast of Papua, Indonesia",earthquake,,,,4.0,reviewed,us,us
2774,2002-10-14 08:26:35.780000+00:00,-1.5190000000000001,133.69299999999998,10.0,4.0,mb,7.0,,,1.04,us,usp000beh6,2014-11-07T01:16:45.272Z,"Papua, Indonesia",earthquake,,,,1.0,reviewed,us,us
2787,2002-10-14 06:45:32.790000+00:00,-1.624,134.224,10.0,4.6,mb,9.0,,,0.75,us,usp000begy,2014-11-07T01:16:45.258Z,"near the north coast of Papua, Indonesia",earthquake,,,,5.0,reviewed,us,us
2789,2002-10-14 06:31:11.690000+00:00,-1.597,134.08,10.0,4.6,mb,14.0,,,0.67,us,usp000begw,2014-11-07T01:16:45.254Z,"near the north coast of Papua, Indonesia",earthquake,,,,1.0,reviewed,us,us
2853,2002-10-13 20:01:47.050000+00:00,-3.7,134.631,10.0,4.1,mb,11.0,,,0.42,us,usp000befy,2014-11-07T01:16:45.146Z,"Papua, Indonesia",earthquake,,,,4.0,reviewed,us,us
2860,2002-10-13 19:18:44.700000+00:00,-1.275,133.904,10.0,4.1,mb,11.0,,,1.14,us,usp000beft,2014-11-07T01:16:45.139Z,"Papua, Indonesia",earthquake,,,,2.0,reviewed,us,us
2873,2002-10-13 17:26:11.270000+00:00,-2.218,134.192,10.0,4.5,mb,6.0,,,0.48,us,usp000befk,2014-11-07T01:16:45.125Z,"near the north coast of Papua, Indonesia",earthquake,,,,1.0,reviewed,us,us
2878,2002-10-13 16:45:17.010000+00:00,-1.649,134.298,10.0,4.3,mb,7.0,,,0.62,us,usp000befg,2014-11-07T01:16:45.117Z,"near the north coast of Papua, Indonesia",earthquake,,,,1.0,reviewed,us,us
2880,2002-10-13 16:27:26.040000+00:00,-1.5719999999999998,133.977,10.0,4.4,mb,9.0,,,1.13,us,usp000beff,2014-11-07T01:16:45.116Z,"Papua, Indonesia",earthquake,,,,4.0,reviewed,us,us
2888,2002-10-13 15:27:13.130000+00:00,-3.529,134.597,10.0,4.7,mb,32.0,,,0.98,us,usp000befb,2014-11-07T01:16:45.101Z,"Papua, Indonesia",earthquake,,,,17.0,reviewed,us,us
2905,2002-10-13 13:32:43.450000+00:00,-3.513,135.003,10.0,4.5,mb,22.0,,,1.05,us,usp000bef5,2014-11-07T01:16:45.084Z,"Papua, Indonesia",earthquake,,,,10.0,reviewed,us,us
2908,2002-10-13 12:49:14.470000+00:00,-3.7439999999999998,134.722,10.0,4.2,mb,6.0,,,0.89,us,usp000bef3,2014-11-07T01:16:45.081Z,"Papua, Indonesia",earthquake,,,,2.0,reviewed,us,us
2917,2002-10-13 11:06:54.730000+00:00,-3.715,134.716,10.0,4.2,mb,6.0,,,1.02,us,usp000bef0,2014-11-07T01:16:45.077Z,"Papua, Indonesia",earthquake,,,,1.0,reviewed,us,us
2923,2002-10-13 10:18:49.270000+00:00,-2.7539999999999996,133.98,10.0,4.0,mb,6.0,,,1.26,us,usp000beew,2014-11-07T01:16:45.071Z,"Papua, Indonesia",earthquake,,,,1.0,reviewed,us,us
2967,2002-10-13 05:18:53.350000+00:00,-2.806,134.39700000000002,10.0,4.7,mb,24.0,,,1.04,us,usp000beeb,2014-11-07T01:16:45.028Z,"near the north coast of Papua, Indonesia",earthquake,,,,12.0,reviewed,us,us
2976,2002-10-13 03:51:35.340000+00:00,-1.429,134.30700000000002,10.0,4.7,mb,14.0,,,0.9,us,usp000bee7,2014-11-07T01:16:45.020Z,"near the north coast of Papua, Indonesia",earthquake,,,,4.0,reviewed,us,us
2980,2002-10-13 03:24:51.930000+00:00,-1.865,134.317,10.0,4.1,mb,8.0,,,0.65,us,usp000bee4,2014-11-07T01:16:45.011Z,"near the north coast of Papua, Indonesia",earthquake,,,,2.0,reviewed,us,us
2998,2002-10-13 01:26:44.790000+00:00,-2.9989999999999997,134.651,10.0,3.8,mb,6.0,,,1.52,us,usp000bedw,2014-11-07T01:16:44.987Z,"near the north coast of Papua, Indonesia",earthquake,,,,1.0,reviewed,us,us
3009,2002-10-13 00:17:28.460000+00:00,-1.5819999999999999,133.785,10.0,4.3,mb,17.0,,,1.11,us,usp000bedq,2014-11-07T01:16:44.972Z,"Papua, Indonesia",earthquake,,,,7.0,reviewed,us,us
3014,2002-10-12 22:47:21.280000+00:00,-1.571,133.88299999999998,10.0,4.6,mb,14.0,,,1.32,us,usp000bedm,2014-11-07T01:16:44.937Z,"Papua, Indonesia",earthquake,,,,6.0,reviewed,us,us
3020,2002-10-12 21:49:39.330000+00:00,-1.6540000000000001,134.187,10.0,4.6,mb,17.0,,,1.12,us,usp000bedh,2014-11-07T01:16:44.923Z,"near the north coast of Papua, Indonesia",earthquake,,,,8.0,reviewed,us,us
3025,2002-10-12 21:26:29.970000+00:00,-3.139,134.405,10.0,4.5,mb,11.0,,,0.94,us,usp000bede,2014-11-07T01:16:44.919Z,"Papua, Indonesia",earthquake,,,,2.0,reviewed,us,us
3026,2002-10-12 21:18:33.620000+00:00,-1.5319999999999998,134.25799999999998,10.0,4.5,mb,6.0,,,0.32,us,usp000bedd,2014-11-07T01:16:44.917Z,"near the north coast of Papua, Indonesia",earthquake,,,,1.0,reviewed,us,us
3027,2002-10-12 21:11:40.560000+00:00,-1.71,134.043,10.0,4.8,mb,15.0,,,1.24,us,usp000bedc,2014-11-07T01:16:44.915Z,"near the north coast of Papua, Indonesia",earthquake,,,,3.0,reviewed,us,us
3040,2002-10-12 19:05:06.570000+00:00,-1.695,134.233,10.0,4.6,mb,19.0,,,1.49,us,usp000bed1,2014-11-07T01:16:44.759Z,"near the north coast of Papua, Indonesia",earthquake,,,,9.0,reviewed,us,us
3048,2002-10-12 17:08:55.320000+00:00,-1.973,134.015,10.0,4.5,mb,18.0,,,0.7,us,usp000becw,2014-11-07T01:16:44.745Z,"near the north coast of Papua, Indonesia",earthquake,,,,9.0,reviewed,us,us
3052,2002-10-12 16:39:40.710000+00:00,-3.7289999999999996,134.792,10.0,4.3,mb,18.0,,,1.1,us,usp000bect,2014-11-07T01:16:44.740Z,"Papua, Indonesia",earthquake,,,,8.0,reviewed,us,us
3064,2002-10-12 15:17:14.340000+00:00,-2.78,134.769,10.0,4.2,mb,7.0,,,1.12,us,usp000bech,2014-11-07T01:16:44.719Z,"near the north coast of Papua, Indonesia",earthquake,,,,1.0,reviewed,us,us
3081,2002-10-12 12:32:13.650000+00:00,-1.4969999999999999,134.023,10.0,4.6,mb,16.0,,,1.3,us,usp000becc,2014-11-07T01:16:44.708Z,"near the north coast of Papua, Indonesia",earthquake,,,,4.0,reviewed,us,us
3093,2002-10-12 11:12:10.310000+00:00,-3.386,134.656,10.0,4.2,mb,10.0,,,0.95,us,usp000bec3,2014-11-07T01:16:44.692Z,"Papua, Indonesia",earthquake,,,,2.0,reviewed,us,us
3095,2002-10-12 10:41:06.880000+00:00,-2.3369999999999997,134.248,10.0,4.3,mb,8.0,,,0.92,us,usp000bec1,2014-11-07T01:16:44.659Z,"near the north coast of Papua, Indonesia",earthquake,,,,3.0,reviewed,us,us
3131,2002-10-12 03:52:13.990000+00:00,-3.138,134.584,10.0,3.7,mb,7.0,,,1.36,us,usp000bebg,2014-11-07T01:16:44.563Z,"Papua, Indonesia",earthquake,,,,1.0,reviewed,us,us
3139,2002-10-12 03:04:05.150000+00:00,-1.4680000000000002,133.95,10.0,5.1,mb,52.0,,,0.97,us,usp000bebc,2014-11-07T01:16:44.546Z,"Papua, Indonesia",earthquake,,,,20.0,reviewed,us,us
3159,2002-10-12 00:54:18.480000+00:00,-3.694,134.787,10.0,4.5,mb,7.0,,,0.9,us,usp000beb3,2014-11-07T01:16:44.522Z,"Papua, Indonesia",earthquake,,,,1.0,reviewed,us,us
3162,2002-10-12 00:52:05.410000+00:00,-3.6189999999999998,135.148,10.0,4.3,mb,8.0,,,1.19,us,usp000beb0,2014-11-07T01:16:44.514Z,"Papua, Indonesia",earthquake,,,,2.0,reviewed,us,us
3187,2002-10-11 22:10:30.420000+00:00,-1.619,134.185,10.0,5.2,mb,53.0,,,0.98,us,usp000bear,2014-11-07T01:16:44.235Z,"near the north coast of Papua, Indonesia",earthquake,,,,25.0,reviewed,us,us
3211,2002-10-11 18:35:24.440000+00:00,-3.707,134.856,10.0,4.9,mb,45.0,,,1.19,us,usp000bea9,2014-11-07T01:16:44.177Z,"Papua, Indonesia",earthquake,,,,27.0,reviewed,us,us
3223,2002-10-11 17:10:58.180000+00:00,-1.679,134.07,10.0,4.5,mb,9.0,,,1.25,us,usp000bea3,2014-11-07T01:16:44.168Z,"near the north coast of Papua, Indonesia",earthquake,,,,2.0,reviewed,us,us
3224,2002-10-11 17:08:22.260000+00:00,-3.6719999999999997,135.02100000000002,10.0,4.5,mb,17.0,,,1.86,us,usp000bea2,2014-11-07T01:16:44.166Z,"Papua, Indonesia",earthquake,,,,8.0,reviewed,us,us
3225,2002-10-11 16:55:56.130000+00:00,-3.5610000000000004,134.876,10.0,5.2,mwc,83.0,,,1.17,us,usp000bea1,2016-11-09T23:41:49.000Z,"Papua, Indonesia",earthquake,,,,,reviewed,us,hrv
3231,2002-10-11 16:29:53.220000+00:00,-1.6880000000000002,133.534,10.0,4.3,mb,6.0,,,0.59,us,usp000be9y,2014-11-07T01:16:44.154Z,"Papua, Indonesia",earthquake,,,,2.0,reviewed,us,us
3260,2002-10-11 12:45:16+00:00,-1.989,134.467,10.0,4.7,mb,25.0,,,0.78,us,usp000be9c,2014-11-07T01:16:44.090Z,"near the north coast of Papua, Indonesia",earthquake,,,,7.0,reviewed,us,us
3261,2002-10-11 12:34:13.770000+00:00,-1.3519999999999999,134.75799999999998,10.0,4.6,mb,7.0,,,1.39,us,usp000be9b,2014-11-07T01:16:44.089Z,"near the north coast of Papua, Indonesia",earthquake,,,,1.0,reviewed,us,us
3275,2002-10-11 10:50:52.430000+00:00,-1.639,134.345,10.0,4.6,mb,17.0,,,1.32,us,usp000be92,2014-11-07T01:16:44.074Z,"near the north coast of Papua, Indonesia",earthquake,,,,6.0,reviewed,us,us
3276,2002-10-11 10:40:46.060000+00:00,-2.015,134.35,10.0,4.6,mb,15.0,,,1.2,us,usp000be91,2014-11-07T01:16:44.072Z,"near the north coast of Papua, Indonesia",earthquake,,,,5.0,reviewed,us,us
3281,2002-10-11 10:28:36.810000+00:00,-1.692,134.382,10.0,4.3,mb,10.0,,,0.96,us,usp000be8y,2014-11-07T01:16:44.065Z,"near the north coast of Papua, Indonesia",earthquake,,,,3.0,reviewed,us,us
3314,2002-10-11 05:07:20.090000+00:00,-1.55,134.3,10.0,4.6,mb,8.0,,,0.59,us,usp000be8f,2014-11-07T01:16:44.033Z,"near the north coast of Papua, Indonesia",earthquake,,,,1.0,reviewed,us,us
3315,2002-10-11 05:02:57.210000+00:00,-1.577,134.273,10.0,4.7,mb,10.0,,,1.27,us,usp000be8e,2014-11-07T01:16:44.031Z,"near the north coast of Papua, Indonesia",earthquake,,,,1.0,reviewed,us,us
3335,2002-10-11 01:46:46.910000+00:00,-2.322,134.506,10.0,4.9,mb,35.0,,,1.02,us,usp000be85,2014-11-07T01:16:44.014Z,"near the north coast of Papua, Indonesia",earthquake,,,,11.0,reviewed,us,us
3337,2002-10-11 01:37:05.850000+00:00,-3.5669999999999997,134.893,10.0,4.6,mb,5.0,,,1.19,us,usp000be83,2014-11-07T01:16:44.011Z,"Papua, Indonesia",earthquake,,,,1.0,reviewed,us,us
3342,2002-10-11 01:14:33.140000+00:00,-2.967,134.624,10.0,4.1,mb,7.0,,,0.55,us,usp000be80,2014-11-07T01:16:44.002Z,"near the north coast of Papua, Indonesia",earthquake,,,,1.0,reviewed,us,us
3346,2002-10-11 00:32:52.760000+00:00,-2.589,134.518,10.0,4.7,mb,21.0,,,1.45,us,usp000be7x,2014-11-07T01:16:43.979Z,"near the north coast of Papua, Indonesia",earthquake,,,,10.0,reviewed,us,us
3351,2002-10-11 00:00:38.170000+00:00,-1.598,134.094,10.0,5.2,mb,64.0,,,1.07,us,usp000be7t,2014-11-07T01:16:43.964Z,"near the north coast of Papua, Indonesia",earthquake,,,,26.0,reviewed,us,us
3353,2002-10-10 23:45:44.040000+00:00,-2.583,134.276,10.0,4.9,mb,10.0,,,0.94,us,usp000be7r,2014-11-07T01:16:43.962Z,"near the north coast of Papua, Indonesia",earthquake,,,,1.0,reviewed,us,us
3369,2002-10-10 22:03:54.770000+00:00,-2.469,134.45,10.0,4.7,mb,12.0,,,1.13,us,usp000be7h,2014-11-07T01:16:43.934Z,"near the north coast of Papua, Indonesia",earthquake,,,,3.0,reviewed,us,us
3372,2002-10-10 21:19:58.510000+00:00,-1.4780000000000002,134.111,10.0,6.0,mwc,198.0,,,0.9,us,usp000be7f,2017-04-26T18:00:45.005Z,"near the north coast of Papua, Indonesia",earthquake,,,,,reviewed,us,hrv
3381,2002-10-10 19:50:02.160000+00:00,-2.972,134.382,10.0,4.7,mb,10.0,,,0.95,us,usp000be7c,2014-11-07T01:16:43.901Z,"near the north coast of Papua, Indonesia",earthquake,,,,2.0,reviewed,us,us
3386,2002-10-10 19:35:42.890000+00:00,-1.724,134.09799999999998,10.0,5.0,mb,32.0,,,1.03,us,usp000be78,2014-11-07T01:16:43.894Z,"near the north coast of Papua, Indonesia",earthquake,,,,17.0,reviewed,us,us
3389,2002-10-10 19:07:14.670000+00:00,-1.61,133.987,10.0,4.9,mb,12.0,,,1.25,us,usp000be77,2014-11-07T01:16:43.892Z,"Papua, Indonesia",earthquake,,,,4.0,reviewed,us,us
3392,2002-10-10 18:52:26.770000+00:00,-3.7039999999999997,134.857,10.0,4.6,mb,8.0,,,1.6,us,usp000be74,2014-11-07T01:16:43.888Z,"Papua, Indonesia",earthquake,,,,2.0,reviewed,us,us
3393,2002-10-10 18:33:37.510000+00:00,-1.49,134.143,10.0,5.9,mwc,117.0,,,1.04,us,usp000be73,2017-04-26T18:00:44.397Z,"near the north coast of Papua, Indonesia",earthquake,,,,,reviewed,us,hrv
3412,2002-10-10 17:02:11.260000+00:00,-2.753,134.836,10.0,4.9,mb,9.0,,,1.07,us,usp000be6t,2014-11-07T01:16:43.835Z,"near the north coast of Papua, Indonesia",earthquake,,,,1.0,reviewed,us,us
3413,2002-10-10 17:01:11.080000+00:00,-1.556,133.977,10.0,4.6,mb,19.0,,,0.99,us,usp000be6s,2014-11-07T01:16:43.833Z,"Papua, Indonesia",earthquake,,,,13.0,reviewed,us,us
3415,2002-10-10 16:47:34.370000+00:00,-1.8969999999999998,133.915,10.0,4.9,mb,9.0,,,1.6,us,usp000be6r,2014-11-07T01:16:43.831Z,"Papua, Indonesia",earthquake,,,,3.0,reviewed,us,us
3420,2002-10-10 16:28:51.110000+00:00,-1.6130000000000002,134.292,10.0,4.9,mb,10.0,,,1.05,us,usp000be6n,2014-11-07T01:16:43.827Z,"near the north coast of Papua, Indonesia",earthquake,,,,3.0,reviewed,us,us
3424,2002-10-10 16:01:25.760000+00:00,-1.662,133.934,10.0,4.7,mb,8.0,,,1.65,us,usp000be6k,2014-11-07T01:16:43.825Z,"Papua, Indonesia",earthquake,,,,2.0,reviewed,us,us
3429,2002-10-10 15:07:42.200000+00:00,-1.385,133.80200000000002,10.0,4.6,mb,7.0,,,0.66,us,usp000be6e,2014-11-07T01:16:43.817Z,"Papua, Indonesia",earthquake,,,,1.0,reviewed,us,us
3431,2002-10-10 14:54:48.890000+00:00,-1.831,134.429,10.0,4.8,mb,7.0,,,0.83,us,usp000be6c,2014-11-07T01:16:43.815Z,"near the north coast of Papua, Indonesia",earthquake,,,,1.0,reviewed,us,us
3434,2002-10-10 14:29:21.760000+00:00,-1.53,134.453,10.0,4.7,mb,10.0,,,0.97,us,usp000be6b,2014-11-07T01:16:43.813Z,"near the north coast of Papua, Indonesia",earthquake,,,,3.0,reviewed,us,us
3437,2002-10-10 14:01:29.950000+00:00,-3.7039999999999997,134.773,10.0,4.4,mb,6.0,,,1.09,us,usp000be69,2014-11-07T01:16:43.807Z,"Papua, Indonesia",earthquake,,,,1.0,reviewed,us,us
3438,2002-10-10 13:53:06.770000+00:00,-1.469,134.105,10.0,5.0,mb,17.0,,,0.92,us,usp000be68,2014-11-07T01:16:43.805Z,"near the north coast of Papua, Indonesia",earthquake,,,,15.0,reviewed,us,us
3441,2002-10-10 13:46:08.790000+00:00,-1.555,133.847,10.0,5.0,mb,27.0,,,1.36,us,usp000be66,2014-11-07T01:16:43.795Z,"Papua, Indonesia",earthquake,,,,15.0,reviewed,us,us
3442,2002-10-10 13:44:37.530000+00:00,-1.525,134.124,10.0,5.0,mb,33.0,,,1.04,us,usp000be65,2014-11-07T01:16:43.792Z,"near the north coast of Papua, Indonesia",earthquake,,,,21.0,reviewed,us,us
3445,2002-10-10 13:25:27.990000+00:00,-1.7169999999999999,133.886,10.0,4.5,mb,8.0,,,1.64,us,usp000be64,2014-11-07T01:16:43.791Z,"Papua, Indonesia",earthquake,,,,2.0,reviewed,us,us
3446,2002-10-10 13:01:03.310000+00:00,-1.416,134.241,10.0,4.8,mb,23.0,,,0.87,us,usp000be63,2014-11-07T01:16:43.788Z,"near the north coast of Papua, Indonesia",earthquake,,,,17.0,reviewed,us,us
3447,2002-10-10 12:57:47.770000+00:00,-1.252,134.563,10.0,4.5,mb,9.0,,,1.8,us,usp000be62,2014-11-07T01:16:43.787Z,"near the north coast of Papua, Indonesia",earthquake,,,,1.0,reviewed,us,us
3451,2002-10-10 12:42:24.570000+00:00,-3.739,134.86700000000002,10.0,5.0,mb,24.0,,,1.3,us,usp000be5z,2014-11-07T01:16:43.782Z,"Papua, Indonesia",earthquake,,,,10.0,reviewed,us,us
3452,2002-10-10 12:29:35.180000+00:00,-1.401,133.934,10.0,6.0,mb,149.0,,,1.13,us,usp000be5y,2017-04-26T18:00:43.779Z,"Papua, Indonesia",earthquake,,,,50.0,reviewed,us,us
3453,2002-10-10 12:28:25.800000+00:00,-1.511,133.97299999999998,10.0,6.7,ms,250.0,,,1.05,us,usp000be5x,2017-04-26T18:00:43.186Z,"Papua, Indonesia",earthquake,,,,108.0,reviewed,us,us
3454,2002-10-10 12:27:52.140000+00:00,-1.501,134.2,10.0,5.5,mb,74.0,,,1.2,us,usp000be5w,2017-04-26T18:00:42.580Z,"near the north coast of Papua, Indonesia",earthquake,,,,37.0,reviewed,us,us
3457,2002-10-10 12:16:52.740000+00:00,-1.422,134.181,10.0,4.9,mb,25.0,,,0.93,us,usp000be5u,2014-11-07T01:16:43.731Z,"near the north coast of Papua, Indonesia",earthquake,,,,15.0,reviewed,us,us
3458,2002-10-10 12:14:15.320000+00:00,-1.754,134.484,10.0,4.6,mb,10.0,,,1.12,us,usp000be5t,2014-11-07T01:16:43.730Z,"near the north coast of Papua, Indonesia",earthquake,,,,2.0,reviewed,us,us
3460,2002-10-10 12:09:08.300000+00:00,-2.6839999999999997,134.481,10.0,4.8,mb,30.0,,,0.95,us,usp000be5r,2014-11-07T01:16:43.723Z,"near the north coast of Papua, Indonesia",earthquake,,,,20.0,reviewed,us,us
3461,2002-10-10 12:07:43.100000+00:00,-2.9760000000000004,134.761,10.0,4.6,mb,25.0,,,1.04,us,usp000be5q,2014-11-07T01:16:43.720Z,"near the north coast of Papua, Indonesia",earthquake,,,,10.0,reviewed,us,us
3462,2002-10-10 11:57:18.040000+00:00,-2.166,134.678,10.0,4.5,mb,21.0,,,0.67,us,usp000be5p,2014-11-07T01:16:43.718Z,"near the north coast of Papua, Indonesia",earthquake,,,,7.0,reviewed,us,us
3471,2002-10-10 11:29:07.470000+00:00,-1.4280000000000002,134.145,10.0,5.1,mb,30.0,,,1.18,us,usp000be5f,2014-11-07T01:16:43.708Z,"near the north coast of Papua, Indonesia",earthquake,,,,15.0,reviewed,us,us
3475,2002-10-10 11:15:36.280000+00:00,-1.485,134.13299999999998,10.0,5.3,mb,45.0,,,0.88,us,usp000be5b,2014-11-07T01:16:43.701Z,"near the north coast of Papua, Indonesia",earthquake,,,,20.0,reviewed,us,us
3478,2002-10-10 11:07:29.630000+00:00,-1.459,134.192,10.0,5.4,mb,27.0,,,1.05,us,usp000be58,2014-11-07T01:16:43.696Z,"near the north coast of Papua, Indonesia",earthquake,,,,12.0,reviewed,us,us
3479,2002-10-10 11:05:15.660000+00:00,-1.725,134.24,10.0,5.5,mb,35.0,,,1.1,us,usp000be57,2017-04-13T22:15:51.032Z,"near the north coast of Papua, Indonesia",earthquake,,,,17.0,reviewed,us,us
3482,2002-10-10 10:50:20.570000+00:00,-1.757,134.297,10.0,7.6,mwc,375.0,,,1.15,us,usp000be54,2017-11-07T18:35:53.098Z,"near the north coast of Papua, Indonesia",earthquake,,,,,reviewed,us,hrv
4093,2002-10-06 09:16:07.980000+00:00,-1.979,133.246,10.0,4.2,mb,8.0,,,1.15,us,usp000bdxk,2014-11-07T01:16:42.733Z,"Papua, Indonesia",earthquake,,,,2.0,reviewed,us,us
4398,2002-10-04 17:49:39.640000+00:00,-4.395,133.947,33.0,4.7,mb,23.0,,,1.21,us,usp000bdt6,2014-11-07T01:16:41.946Z,"near the south coast of Papua, Indonesia",earthquake,,,,13.0,reviewed,us,us
