,time,latitude,longitude,depth,mag,magType,nst,gap,dmin,rms,net,id,updated,place,type,horizontalError,depthError,magError,magNst,status,locationSource,magSource
1673,2002-11-21 08:56:21.560000+00:00,45.93600000000001,148.936,131.8,4.8,mb,151.0,,,0.88,us,usp000bj3y,2014-11-07T01:17:09.928Z,Kuril Islands,earthquake,,,,70.0,reviewed,us,us
2312,2002-11-17 04:53:53.540000+00:00,47.824,146.209,459.1,7.3,mwc,326.0,,,1.02,us,usp000bhv1,2017-11-07T18:39:09.074Z,northwest of the Kuril Islands,earthquake,,,,,reviewed,us,hrv
2313,2002-11-17 04:53:48.460000+00:00,47.946000000000005,146.41899999999998,470.2,5.8,mb,516.0,,,0.95,us,usp000bhv0,2015-07-13T17:02:24.000Z,northwest of the Kuril Islands,earthquake,,3.9,,171.0,reviewed,us,us
2829,2002-11-13 23:01:48.560000+00:00,46.628,150.421,265.1,3.9,mb,15.0,,,0.73,us,usp000bhmx,2014-11-07T01:17:07.786Z,Kuril Islands,earthquake,,24.7,,4.0,reviewed,us,us
