,time,latitude,longitude,depth,mag,magType,nst,gap,dmin,rms,net,id,updated,place,type,horizontalError,depthError,magError,magNst,status,locationSource,magSource
1141,2003-01-25 05:45:41.400000+00:00,-8.302,158.878,500.0,4.5,mb,14.0,,,1.2,us,usp000bp4z,2014-11-07T01:17:38.076Z,Solomon Islands,earthquake,,,,5.0,reviewed,us,us
1554,2003-01-21 17:58:21.350000+00:00,-8.883,160.77,33.0,4.7,mb,33.0,,,0.84,us,usp000bny6,2014-11-07T01:17:37.002Z,Solomon Islands,earthquake,,,,23.0,reviewed,us,us
1733,2003-01-20 08:43:06.070000+00:00,-10.491,160.77,33.0,7.3,mwc,457.0,,,0.84,us,usp000bnvq,2017-11-07T18:39:54.152Z,Solomon Islands,earthquake,,,,,reviewed,us,hrv
