,time,latitude,longitude,depth,mag,magType,nst,gap,dmin,rms,net,id,updated,place,type,horizontalError,depthError,magError,magNst,status,locationSource,magSource
3979,2003-08-09 12:34:29.210000+00:00,-60.4,-42.532,10.0,4.1,mb,10.0,121.5,,0.91,us,usp000c4ge,2014-11-07T01:19:29.554Z,Scotia Sea,earthquake,,,,5.0,reviewed,us,us
4271,2003-08-07 11:36:29.900000+00:00,-60.318999999999996,-44.851000000000006,10.0,4.3,mb,16.0,116.0,,0.94,us,usp000c4bn,2014-11-07T01:19:28.531Z,Scotia Sea,earthquake,,,,4.0,reviewed,us,us
4282,2003-08-07 10:37:56.270000+00:00,-60.23,-44.071999999999996,10.0,3.6,mb,9.0,121.9,,1.4,us,usp000c4bf,2014-11-07T01:19:28.510Z,Scotia Sea,earthquake,,,,3.0,reviewed,us,us
4329,2003-08-07 03:37:42.460000+00:00,-60.365,-44.424,10.0,4.4,mb,16.0,121.7,,1.29,us,usp000c4ak,2014-11-07T01:19:28.393Z,Scotia Sea,earthquake,,,,7.0,reviewed,us,us
4332,2003-08-07 03:21:23.780000+00:00,-60.527,-43.574,10.0,4.3,mb,20.0,95.5,,1.02,us,usp000c4ah,2014-11-07T01:19:28.388Z,Scotia Sea,earthquake,,,,8.0,reviewed,us,us
4394,2003-08-06 17:01:54.430000+00:00,-60.336999999999996,-45.033,10.0,5.2,mwc,46.0,68.9,,0.97,us,usp000c49f,2016-11-09T23:10:18.707Z,Scotia Sea,earthquake,,,,,reviewed,us,hrv
4465,2003-08-06 03:19:57.190000+00:00,-60.449,-44.038000000000004,10.0,4.7,mb,34.0,118.3,,0.95,us,usp000c48f,2014-11-07T01:19:28.093Z,Scotia Sea,earthquake,,,,7.0,reviewed,us,us
4517,2003-08-05 20:18:35.510000+00:00,-60.59,-42.949,10.0,4.7,mb,28.0,59.8,,1.03,us,usp000c47g,2014-11-07T01:19:27.996Z,Scotia Sea,earthquake,,,,9.0,reviewed,us,us
4579,2003-08-05 11:52:05.920000+00:00,-59.522,-40.454,10.0,4.7,mb,11.0,129.2,,0.81,us,usp000c46a,2014-11-07T01:19:27.888Z,Scotia Sea,earthquake,,,,1.0,reviewed,us,us
4615,2003-08-05 05:57:15.090000+00:00,-60.443000000000005,-44.294,10.0,4.3,mb,8.0,131.3,,0.45,us,usp000c45q,2014-11-07T01:19:27.816Z,Scotia Sea,earthquake,,,,1.0,reviewed,us,us
4624,2003-08-05 04:47:01.530000+00:00,-60.653999999999996,-42.567,10.0,4.5,mb,7.0,146.1,,0.99,us,usp000c45j,2014-11-07T01:19:27.808Z,Scotia Sea,earthquake,,,,1.0,reviewed,us,us
4657,2003-08-05 00:25:47.780000+00:00,-60.376000000000005,-43.973,10.0,4.5,mb,22.0,121.7,,0.91,us,usp000c456,2014-11-07T01:19:27.744Z,Scotia Sea,earthquake,,,,8.0,reviewed,us,us
4666,2003-08-04 23:31:49.300000+00:00,-60.506,-44.32,10.0,4.5,mb,6.0,131.2,,0.96,us,usp000c450,2014-11-07T01:19:27.728Z,Scotia Sea,earthquake,,,,1.0,reviewed,us,us
4669,2003-08-04 23:31:09.500000+00:00,-60.20399999999999,-43.711999999999996,10.0,4.1,mb,9.0,131.3,,0.81,us,usp000c44y,2014-11-07T01:19:27.724Z,Scotia Sea,earthquake,,,,1.0,reviewed,us,us
4674,2003-08-04 23:12:38.440000+00:00,-60.745,-45.21,10.0,3.6,mb,5.0,131.3,,0.63,us,usp000c44v,2014-11-07T01:19:27.711Z,Scotia Sea,earthquake,,,,2.0,reviewed,us,us
4675,2003-08-04 23:10:18.920000+00:00,-60.526,-43.902,10.0,3.9,mb,6.0,131.0,,0.55,us,usp000c44u,2014-11-07T01:19:27.710Z,Scotia Sea,earthquake,,,,1.0,reviewed,us,us
4677,2003-08-04 22:39:41.290000+00:00,-60.41,-44.423,10.0,4.5,mb,8.0,131.3,,0.99,us,usp000c44s,2014-11-07T01:19:27.705Z,Scotia Sea,earthquake,,,,1.0,reviewed,us,us
4694,2003-08-04 20:15:05.830000+00:00,-59.95,-41.794,10.0,4.2,mb,7.0,134.9,,0.7,us,usp000c44h,2014-11-07T01:19:27.663Z,Scotia Sea,earthquake,,,,1.0,reviewed,us,us
4706,2003-08-04 18:18:29.650000+00:00,-60.586000000000006,-43.042,10.0,5.3,mwc,80.0,41.6,,1.0,us,usp000c44b,2016-11-09T23:09:03.331Z,Scotia Sea,earthquake,,,,,reviewed,us,hrv
4730,2003-08-04 16:01:10.240000+00:00,-60.464,-45.202,10.0,4.2,mb,12.0,131.6,,0.91,us,usp000c440,2014-11-07T01:19:27.604Z,Scotia Sea,earthquake,,,,3.0,reviewed,us,us
4731,2003-08-04 15:55:22.080000+00:00,-60.516999999999996,-43.048,10.0,4.5,mb,19.0,104.1,,1.01,us,usp000c43z,2014-11-07T01:19:27.601Z,Scotia Sea,earthquake,,,,3.0,reviewed,us,us
4734,2003-08-04 15:31:20.890000+00:00,-60.558,-43.363,10.0,4.3,mb,11.0,130.8,,1.19,us,usp000c43y,2014-11-07T01:19:27.600Z,Scotia Sea,earthquake,,,,1.0,reviewed,us,us
4735,2003-08-04 15:11:33.420000+00:00,-60.458,-43.475,10.0,4.3,mb,10.0,130.9,,1.18,us,usp000c43x,2014-11-07T01:19:27.598Z,Scotia Sea,earthquake,,,,1.0,reviewed,us,us
4742,2003-08-04 13:41:35.100000+00:00,-60.657,-42.496,10.0,4.3,mb,7.0,130.3,,1.35,us,usp000c43t,2014-11-07T01:19:27.589Z,Scotia Sea,earthquake,,,,1.0,reviewed,us,us
4746,2003-08-04 13:18:05.990000+00:00,-60.424,-43.651,10.0,4.2,mb,5.0,137.4,,1.72,us,usp000c43r,2014-11-07T01:19:27.586Z,Scotia Sea,earthquake,,,,1.0,reviewed,us,us
4748,2003-08-04 13:07:19.870000+00:00,-60.31100000000001,-43.818999999999996,10.0,4.8,mb,21.0,100.5,,1.14,us,usp000c43p,2014-11-07T01:19:27.581Z,Scotia Sea,earthquake,,,,7.0,reviewed,us,us
4751,2003-08-04 13:02:44.310000+00:00,-60.591,-43.165,10.0,4.7,mb,37.0,60.0,,0.98,us,usp000c43k,2014-11-07T01:19:27.571Z,Scotia Sea,earthquake,,,,7.0,reviewed,us,us
4752,2003-08-04 12:53:51+00:00,-60.516999999999996,-42.701,10.0,5.6,mb,101.0,41.5,,0.98,us,usp000c43j,2014-11-07T01:19:27.551Z,Scotia Sea,earthquake,,,,23.0,reviewed,us,us
4756,2003-08-04 12:34:25.710000+00:00,-60.251999999999995,-44.226000000000006,10.0,3.8,mb,6.0,131.4,,0.7,us,usp000c43f,2014-11-07T01:19:27.540Z,Scotia Sea,earthquake,,,,1.0,reviewed,us,us
4762,2003-08-04 12:18:31.440000+00:00,-60.593999999999994,-42.317,10.0,3.6,mb,6.0,137.8,,0.84,us,usp000c43c,2014-11-07T01:19:27.531Z,Scotia Sea,earthquake,,,,1.0,reviewed,us,us
4770,2003-08-04 11:33:51.900000+00:00,-60.361000000000004,-44.097,10.0,4.5,mb,23.0,70.4,,1.18,us,usp000c439,2014-11-07T01:19:27.513Z,Scotia Sea,earthquake,,,,9.0,reviewed,us,us
4774,2003-08-04 11:21:07.960000+00:00,-60.522,-43.417,10.0,5.3,mb,25.0,60.7,,1.05,us,usp000c436,2014-11-07T01:19:27.487Z,Scotia Sea,earthquake,,,,5.0,reviewed,us,us
4775,2003-08-04 11:20:02.150000+00:00,-60.369,-44.992,10.0,4.4,mb,12.0,121.7,,1.3,us,usp000c435,2014-11-07T01:19:27.484Z,Scotia Sea,earthquake,,,,3.0,reviewed,us,us
4778,2003-08-04 11:03:48.080000+00:00,-60.596000000000004,-44.099,10.0,4.4,mb,6.0,131.0,,1.29,us,usp000c434,2014-11-07T01:19:27.482Z,Scotia Sea,earthquake,,,,1.0,reviewed,us,us
4779,2003-08-04 11:02:05.710000+00:00,-60.318999999999996,-44.62,10.0,4.2,mb,5.0,131.5,,0.12,us,usp000c433,2014-11-07T01:19:27.480Z,Scotia Sea,earthquake,,,,1.0,reviewed,us,us
4788,2003-08-04 10:05:25.100000+00:00,-60.571999999999996,-43.56399999999999,10.0,4.6,mb,8.0,130.8,,1.15,us,usp000c42y,2014-11-07T01:19:27.456Z,Scotia Sea,earthquake,,,,1.0,reviewed,us,us
4795,2003-08-04 09:22:36.100000+00:00,-60.455,-44.818999999999996,10.0,4.1,mb,5.0,131.4,,0.75,us,usp000c42t,2014-11-07T01:19:27.442Z,Scotia Sea,earthquake,,,,1.0,reviewed,us,us
4797,2003-08-04 09:10:43.510000+00:00,-60.369,-43.989,10.0,4.0,mb,6.0,131.2,,0.72,us,usp000c42s,2014-11-07T01:19:27.440Z,Scotia Sea,earthquake,,,,1.0,reviewed,us,us
4798,2003-08-04 09:06:02.180000+00:00,-60.507,-43.632,10.0,3.9,mb,5.0,130.9,,1.37,us,usp000c42r,2014-11-07T01:19:27.438Z,Scotia Sea,earthquake,,,,1.0,reviewed,us,us
4801,2003-08-04 08:28:21.460000+00:00,-60.626000000000005,-43.806000000000004,10.0,4.5,mb,8.0,130.9,,0.98,us,usp000c42p,2014-11-07T01:19:27.433Z,Scotia Sea,earthquake,,,,1.0,reviewed,us,us
4802,2003-08-04 08:23:18.820000+00:00,-60.187,-43.784,10.0,3.7,mb,6.0,131.3,,1.05,us,usp000c42n,2014-11-07T01:19:27.431Z,Scotia Sea,earthquake,,,,1.0,reviewed,us,us
4805,2003-08-04 07:43:52.530000+00:00,-60.452,-43.763000000000005,10.0,4.0,mb,4.0,131.0,,0.15,us,usp000c42k,2014-11-07T01:19:27.419Z,Scotia Sea,earthquake,,,,1.0,reviewed,us,us
4807,2003-08-04 07:38:03.730000+00:00,-60.706,-42.661,10.0,4.3,mb,4.0,130.3,,1.18,us,usp000c42j,2014-11-07T01:19:27.417Z,Scotia Sea,earthquake,,,,1.0,reviewed,us,us
4809,2003-08-04 07:27:41.570000+00:00,-60.294,-44.126000000000005,10.0,4.6,mb,12.0,123.2,,0.93,us,usp000c42g,2014-11-07T01:19:27.411Z,Scotia Sea,earthquake,,,,2.0,reviewed,us,us
4813,2003-08-04 07:09:06.370000+00:00,-60.485,-43.711000000000006,10.0,4.9,mb,24.0,71.0,,1.01,us,usp000c42d,2014-11-07T01:19:27.400Z,Scotia Sea,earthquake,,,,9.0,reviewed,us,us
4816,2003-08-04 06:58:56.870000+00:00,-60.422,-44.041000000000004,10.0,4.6,mb,5.0,131.2,,0.98,us,usp000c42b,2014-11-07T01:19:27.396Z,Scotia Sea,earthquake,,,,1.0,reviewed,us,us
4819,2003-08-04 06:53:24.200000+00:00,-60.613,-43.903,10.0,4.5,mb,19.0,68.0,,1.12,us,usp000c428,2014-11-07T01:19:27.382Z,Scotia Sea,earthquake,,,,4.0,reviewed,us,us
4822,2003-08-04 06:48:04.430000+00:00,-60.4,-43.601000000000006,10.0,4.6,mb,24.0,113.3,,1.07,us,usp000c425,2014-11-07T01:19:27.369Z,Scotia Sea,earthquake,,,,7.0,reviewed,us,us
4824,2003-08-04 06:43:48.260000+00:00,-60.363,-44.371,10.0,4.3,mb,5.0,131.4,,1.17,us,usp000c423,2014-11-07T01:19:27.365Z,Scotia Sea,earthquake,,,,1.0,reviewed,us,us
4826,2003-08-04 06:38:21.780000+00:00,-60.643,-43.026,10.0,5.0,mb,34.0,59.5,,1.07,us,usp000c421,2014-11-07T01:19:27.354Z,Scotia Sea,earthquake,,,,6.0,reviewed,us,us
4827,2003-08-04 06:38:05.070000+00:00,-60.426,-44.215,10.0,4.8,mb,14.0,80.2,,0.86,us,usp000c420,2014-11-07T01:19:27.350Z,Scotia Sea,earthquake,,,,3.0,reviewed,us,us
4828,2003-08-04 06:34:11.270000+00:00,-60.544,-44.43899999999999,10.0,5.4,mb,75.0,42.0,,1.06,us,usp000c41z,2014-11-07T01:19:27.332Z,Scotia Sea,earthquake,,,,13.0,reviewed,us,us
4831,2003-08-04 06:14:07.170000+00:00,-60.446999999999996,-43.321999999999996,10.0,4.5,mb,18.0,123.2,,1.02,us,usp000c41x,2014-11-07T01:19:27.326Z,Scotia Sea,earthquake,,,,2.0,reviewed,us,us
4832,2003-08-04 06:03:35.500000+00:00,-60.51,-42.998000000000005,10.0,4.4,mb,6.0,146.6,,1.25,us,usp000c41w,2014-11-07T01:19:27.325Z,Scotia Sea,earthquake,,,,1.0,reviewed,us,us
4833,2003-08-04 05:55:35.140000+00:00,-60.464,-43.934,10.0,4.6,mb,5.0,131.1,,0.89,us,usp000c41v,2014-11-07T01:19:27.323Z,Scotia Sea,earthquake,,,,1.0,reviewed,us,us
4834,2003-08-04 05:42:13.330000+00:00,-60.37,-42.975,10.0,4.6,mb,9.0,95.2,,1.39,us,usp000c41u,2014-11-07T01:19:27.320Z,Scotia Sea,earthquake,,,,2.0,reviewed,us,us
4836,2003-08-04 05:36:48.530000+00:00,-60.571000000000005,-42.842,10.0,5.2,mb,40.0,41.5,,0.97,us,usp000c41t,2014-11-07T01:19:27.311Z,Scotia Sea,earthquake,,,,7.0,reviewed,us,us
4838,2003-08-04 05:26:17.580000+00:00,-60.618,-42.257,10.0,4.7,mb,9.0,130.3,,0.98,us,usp000c41r,2014-11-07T01:19:27.306Z,Scotia Sea,earthquake,,,,1.0,reviewed,us,us
4840,2003-08-04 05:18:33.620000+00:00,-60.211000000000006,-43.519,10.0,4.6,mb,18.0,118.1,,0.96,us,usp000c41q,2014-11-07T01:19:27.301Z,Scotia Sea,earthquake,,,,1.0,reviewed,us,us
4841,2003-08-04 05:16:10.700000+00:00,-60.496,-42.943000000000005,10.0,4.9,mb,29.0,60.3,,1.1,us,usp000c41p,2014-11-07T01:19:27.294Z,Scotia Sea,earthquake,,,,9.0,reviewed,us,us
4849,2003-08-04 04:37:20.130000+00:00,-60.532,-43.411,10.0,7.6,mwc,315.0,25.2,,1.09,us,usp000c41f,2017-11-08T17:48:47.786Z,Scotia Sea,earthquake,,,,,reviewed,us,hrv
