,time,latitude,longitude,depth,mag,magType,nst,gap,dmin,rms,net,id,updated,place,type,horizontalError,depthError,magError,magNst,status,locationSource,magSource
123,1972-12-08 20:43:15+00:00,5.664,127.292,35.0,5.9,mw,,,,,iscgem,iscgem765878,2015-05-13T18:53:07.000Z,Philippine Islands region,earthquake,,,,,automatic,iscgem,iscgem
124,1972-12-08 20:17:12+00:00,5.606,127.18799999999999,35.0,5.5,mw,,,,,iscgemsup,iscgemsup765877,2015-07-13T17:02:24.000Z,Philippine Islands region,earthquake,,,,,automatic,iscgem,iscgem
126,1972-12-08 10:18:15+00:00,5.671,127.134,55.0,5.6,mw,,,,,iscgem,iscgem765851,2015-05-13T18:53:07.000Z,Philippine Islands region,earthquake,,,,,automatic,iscgem,iscgem
133,1972-12-07 14:50:15+00:00,3.6289999999999996,128.51,45.0,5.6,mw,,,,,iscgem,iscgem765813,2015-05-13T18:53:07.000Z,"north of Halmahera, Indonesia",earthquake,,,,,automatic,iscgem,iscgem
160,1972-12-03 19:25:35+00:00,5.726,127.10600000000001,60.0,5.9,mw,,,,,iscgem,iscgem765596,2015-05-13T18:53:07.000Z,Philippine Islands region,earthquake,,,,,automatic,iscgem,iscgem
168,1972-12-02 10:36:09+00:00,6.069,126.96700000000001,60.0,5.6,mw,,,,,iscgem,iscgem765534,2015-05-13T18:53:07.000Z,"Mindanao, Philippines",earthquake,,,,,automatic,iscgem,iscgem
169,1972-12-02 05:48:25+00:00,5.609,127.20200000000001,60.0,6.1,mw,,,,,iscgem,iscgem765522,2015-05-13T18:53:07.000Z,Philippine Islands region,earthquake,,,,,automatic,iscgem,iscgem
172,1972-12-02 03:56:58+00:00,6.148,127.492,60.0,6.0,mw,,,,,iscgem,iscgem765515,2015-05-13T18:53:07.000Z,Philippine Islands region,earthquake,,,,,automatic,iscgem,iscgem
174,1972-12-02 01:40:50+00:00,6.343,126.626,62.2,5.7,mw,,,,,iscgem,iscgem765504,2015-05-13T18:53:07.000Z,"Mindanao, Philippines",earthquake,,,,,automatic,iscgem,iscgem
175,1972-12-02 00:19:52+00:00,6.405,126.64,60.0,8.0,mw,,,,,iscgem,iscgem765501,2017-04-26T17:26:24.614Z,"Mindanao, Philippines",earthquake,,,,,automatic,iscgem,iscgem
