,time,latitude,longitude,depth,mag,magType,nst,gap,dmin,rms,net,id,updated,place,type,horizontalError,depthError,magError,magNst,status,locationSource,magSource
2957,2005-09-16 05:18:49.140000+00:00,-5.869,154.928,110.3,4.3,mb,8.0,156.9,,1.44,us,usp000dzhf,2014-11-07T01:27:04.579Z,"Bougainville region, Papua New Guinea",earthquake,,33.0,,2.0,reviewed,us,us
2960,2005-09-16 05:04:06.510000+00:00,-6.15,150.406,44.1,4.5,mb,14.0,78.0,,1.27,us,usp000dzhe,2014-11-07T01:27:04.576Z,"New Britain region, Papua New Guinea",earthquake,,18.7,,3.0,reviewed,us,us
2993,2005-09-16 00:54:31.780000+00:00,-4.998,153.879,150.0,4.5,mb,10.0,215.1,,0.46,us,usp000dzh4,2014-11-07T01:27:04.484Z,"New Ireland region, Papua New Guinea",earthquake,,,,1.0,reviewed,us,us
2997,2005-09-16 00:31:42.390000+00:00,-5.622000000000001,153.592,10.7,5.7,mwc,221.0,17.6,,0.79,us,usp000dzh3,2016-11-09T05:55:17.955Z,"New Ireland region, Papua New Guinea",earthquake,,10.7,,,reviewed,us,hrv
3017,2005-09-15 22:58:05.370000+00:00,-4.677,153.457,143.0,4.6,mb,9.0,237.8,,0.51,us,usp000dzgy,2014-11-07T01:27:04.440Z,"New Ireland region, Papua New Guinea",earthquake,,27.2,,3.0,reviewed,us,us
3141,2005-09-15 11:21:27.950000+00:00,-4.584,153.711,122.7,4.4,mb,10.0,238.2,,1.16,us,usp000dzg9,2014-11-07T01:27:04.387Z,"New Ireland region, Papua New Guinea",earthquake,,33.1,,1.0,reviewed,us,us
3147,2005-09-15 11:03:16.960000+00:00,-5.2829999999999995,154.137,78.0,4.7,mb,16.0,104.2,,1.31,us,usp000dzg8,2014-11-07T01:27:04.385Z,"Bougainville region, Papua New Guinea",earthquake,,,,5.0,reviewed,us,us
3225,2005-09-15 01:31:11.810000+00:00,-4.591,153.453,150.9,4.2,mb,9.0,242.1,,0.63,us,usp000dzfp,2014-11-07T01:27:04.327Z,"New Ireland region, Papua New Guinea",earthquake,,28.4,,4.0,reviewed,us,us
3248,2005-09-14 22:42:23.380000+00:00,-6.612,152.653,66.0,4.3,mb,14.0,97.8,,1.0,us,usp000dzfh,2014-11-07T01:27:04.314Z,"New Britain region, Papua New Guinea",earthquake,,21.8,,2.0,reviewed,us,us
3257,2005-09-14 22:07:59.930000+00:00,-5.327000000000001,154.171,142.0,4.5,mb,10.0,138.7,,0.46,us,usp000dzfe,2014-11-07T01:27:04.307Z,"Bougainville region, Papua New Guinea",earthquake,,18.8,,2.0,reviewed,us,us
3271,2005-09-14 21:05:29.790000+00:00,-5.247999999999999,154.058,146.9,4.7,mb,19.0,123.7,,0.48,us,usp000dzfb,2014-11-07T01:27:04.302Z,"Bougainville region, Papua New Guinea",earthquake,,15.6,,5.0,reviewed,us,us
3300,2005-09-14 17:58:38.230000+00:00,-5.415,153.954,70.4,4.3,mb,8.0,138.7,,0.39,us,usp000dzf3,2014-11-07T01:27:04.272Z,"New Ireland region, Papua New Guinea",earthquake,,20.7,,1.0,reviewed,us,us
3325,2005-09-14 14:17:37.170000+00:00,-4.445,153.72,56.1,4.4,mb,13.0,107.1,,0.63,us,usp000dzet,2014-11-07T01:27:04.246Z,"New Ireland region, Papua New Guinea",earthquake,,23.7,,3.0,reviewed,us,us
3389,2005-09-14 04:56:15+00:00,-4.48,153.717,96.3,4.8,mb,33.0,95.6,,1.02,us,usp000dze0,2014-11-07T01:27:04.009Z,"New Ireland region, Papua New Guinea",earthquake,,,,12.0,reviewed,us,us
3591,2005-09-13 02:24:34.900000+00:00,-6.869,154.869,45.3,5.0,mwc,31.0,69.3,,1.04,us,usp000dzbv,2016-11-10T01:11:30.657Z,"Bougainville region, Papua New Guinea",earthquake,,13.3,,,reviewed,us,hrv
3596,2005-09-13 01:32:02.180000+00:00,-5.341,153.862,45.3,5.0,mb,38.0,97.9,,0.8,us,usp000dzbt,2014-11-07T01:27:03.799Z,"New Ireland region, Papua New Guinea",earthquake,,14.3,,17.0,reviewed,us,us
3708,2005-09-12 15:31:06.560000+00:00,-5.202000000000001,152.42700000000002,35.0,4.8,mb,24.0,131.1,,1.71,us,usp000dzas,2014-11-07T01:27:03.660Z,"New Britain region, Papua New Guinea",earthquake,,,,15.0,reviewed,us,us
3719,2005-09-12 14:12:27.870000+00:00,-4.103,153.407,35.0,4.5,mb,7.0,107.5,,1.02,us,usp000dzaq,2014-11-07T01:27:03.654Z,"New Ireland region, Papua New Guinea",earthquake,,,,2.0,reviewed,us,us
3812,2005-09-12 07:09:08.600000+00:00,-6.16,151.628,35.0,4.9,mb,22.0,89.8,,0.9,us,usp000dz9u,2014-11-07T01:27:03.499Z,"New Britain region, Papua New Guinea",earthquake,,,,7.0,reviewed,us,us
3851,2005-09-12 02:17:30.700000+00:00,-4.505,154.741,30.0,4.6,mb,7.0,213.2,,1.38,us,usp000dz9m,2014-11-07T01:27:03.486Z,"Bougainville region, Papua New Guinea",earthquake,,,,2.0,reviewed,us,us
3867,2005-09-12 00:59:26.480000+00:00,-5.571000000000001,151.498,35.0,4.9,mwc,178.0,36.6,,0.88,us,usp000dz9g,2016-11-10T01:11:27.638Z,"New Britain region, Papua New Guinea",earthquake,,,,,reviewed,us,hrv
3962,2005-09-11 15:35:10.290000+00:00,-5.587999999999999,154.411,150.0,3.9,mb,13.0,124.1,,0.87,us,usp000dz8p,2014-11-07T01:27:03.395Z,"Bougainville region, Papua New Guinea",earthquake,,,,2.0,reviewed,us,us
4084,2005-09-11 03:35:44.560000+00:00,-6.638,155.10399999999998,29.0,5.0,mwc,83.0,36.3,,0.85,us,usp000dz7q,2016-11-10T01:11:26.122Z,"Bougainville region, Papua New Guinea",earthquake,,,,,reviewed,us,hrv
4090,2005-09-11 03:15:49.740000+00:00,-4.871,153.819,140.2,4.6,mb,10.0,198.4,,1.14,us,usp000dz7n,2014-11-07T01:27:03.289Z,"New Ireland region, Papua New Guinea",earthquake,,29.3,,1.0,reviewed,us,us
4161,2005-09-10 19:31:36.620000+00:00,-5.468,154.241,150.7,4.6,mb,35.0,103.4,,1.04,us,usp000dz71,2014-11-07T01:27:03.238Z,"Bougainville region, Papua New Guinea",earthquake,,12.7,,14.0,reviewed,us,us
4163,2005-09-10 19:19:17.700000+00:00,-3.963,153.576,100.0,4.3,mb,7.0,297.5,,0.99,us,usp000dz6z,2014-11-07T01:27:03.235Z,"New Ireland region, Papua New Guinea",earthquake,,,,2.0,reviewed,us,us
4168,2005-09-10 18:55:04.490000+00:00,-4.465,153.58100000000002,117.4,4.4,mb,13.0,209.1,,0.34,us,usp000dz6w,2014-11-07T01:27:03.230Z,"New Ireland region, Papua New Guinea",earthquake,,19.4,,2.0,reviewed,us,us
4175,2005-09-10 17:54:25.960000+00:00,-4.758,153.795,142.6,4.6,mb,8.0,234.2,,0.65,us,usp000dz6t,2014-11-07T01:27:03.224Z,"New Ireland region, Papua New Guinea",earthquake,,33.0,,1.0,reviewed,us,us
4197,2005-09-10 16:08:50.130000+00:00,-4.438,153.534,128.4,4.7,mb,34.0,106.3,,0.76,us,usp000dz6k,2014-11-07T01:27:03.150Z,"New Ireland region, Papua New Guinea",earthquake,,11.0,,15.0,reviewed,us,us
4222,2005-09-10 13:14:55.020000+00:00,-5.183,152.125,84.2,4.6,mb,9.0,228.7,,0.92,us,usp000dz6a,2014-11-07T01:27:02.941Z,"New Britain region, Papua New Guinea",earthquake,,32.8,,2.0,reviewed,us,us
4232,2005-09-10 12:20:54.980000+00:00,-4.909,153.808,146.1,4.7,mb,23.0,156.3,,0.55,us,usp000dz67,2014-11-07T01:27:02.927Z,"New Ireland region, Papua New Guinea",earthquake,,16.6,,12.0,reviewed,us,us
4241,2005-09-10 10:35:28.600000+00:00,-4.41,153.596,104.8,5.2,mwc,34.0,106.8,,0.92,us,usp000dz65,2016-11-10T01:11:25.074Z,"New Ireland region, Papua New Guinea",earthquake,,11.9,,,reviewed,us,hrv
4253,2005-09-10 09:38:42.540000+00:00,-5.037,153.832,149.4,4.8,mb,10.0,219.4,,0.55,us,usp000dz61,2014-11-07T01:27:02.911Z,"New Ireland region, Papua New Guinea",earthquake,,27.3,,2.0,reviewed,us,us
4266,2005-09-10 07:38:20.330000+00:00,-4.456,153.657,126.4,4.2,mb,11.0,156.2,,0.86,us,usp000dz5u,2014-11-07T01:27:02.901Z,"New Ireland region, Papua New Guinea",earthquake,,25.7,,1.0,reviewed,us,us
4277,2005-09-10 06:44:11.260000+00:00,-4.504,153.371,147.2,4.3,mb,8.0,233.2,,0.5,us,usp000dz5p,2014-11-07T01:27:02.884Z,"New Ireland region, Papua New Guinea",earthquake,,28.9,,1.0,reviewed,us,us
4295,2005-09-10 04:24:58.260000+00:00,-4.513999999999999,153.45600000000002,138.7,4.4,mb,7.0,219.3,,0.34,us,usp000dz5d,2014-11-07T01:27:02.856Z,"New Ireland region, Papua New Guinea",earthquake,,31.7,,1.0,reviewed,us,us
4302,2005-09-10 03:28:57.240000+00:00,-5.5489999999999995,153.567,88.0,4.5,mb,21.0,99.9,,0.84,us,usp000dz58,2014-11-07T01:27:02.829Z,"New Ireland region, Papua New Guinea",earthquake,,11.4,,7.0,reviewed,us,us
4312,2005-09-10 02:38:56.450000+00:00,-4.566,153.347,153.4,4.5,mb,10.0,233.2,,0.45,us,usp000dz55,2014-11-07T01:27:02.820Z,"New Ireland region, Papua New Guinea",earthquake,,25.1,,2.0,reviewed,us,us
4321,2005-09-10 01:24:32.010000+00:00,-5.15,154.076,96.2,5.6,mwb,117.0,35.3,,0.88,us,usp000dz51,2016-11-10T01:11:24.064Z,"Bougainville region, Papua New Guinea",earthquake,,,,,reviewed,us,us
4322,2005-09-10 01:20:14.900000+00:00,-5.547000000000001,154.372,142.3,4.3,mb,13.0,124.0,,0.89,us,usp000dz50,2014-11-07T01:27:02.800Z,"Bougainville region, Papua New Guinea",earthquake,,21.5,,1.0,reviewed,us,us
4336,2005-09-10 00:33:52.640000+00:00,-4.588,153.637,131.3,4.9,mb,20.0,106.0,,0.72,us,usp000dz4v,2014-11-07T01:27:02.792Z,"New Ireland region, Papua New Guinea",earthquake,,12.1,,6.0,reviewed,us,us
4340,2005-09-10 00:21:15.550000+00:00,-5.19,153.77100000000002,59.4,4.0,mb,8.0,177.6,,0.32,us,usp000dz4u,2014-11-07T01:27:02.791Z,"New Ireland region, Papua New Guinea",earthquake,,21.6,,1.0,reviewed,us,us
4370,2005-09-09 22:21:25.130000+00:00,-4.402,153.615,100.0,4.3,mb,17.0,156.2,,0.74,us,usp000dz4n,2014-11-07T01:27:02.775Z,"New Ireland region, Papua New Guinea",earthquake,,,,7.0,reviewed,us,us
4378,2005-09-09 21:34:57.230000+00:00,-4.996,153.957,136.6,4.0,mb,15.0,212.1,,0.74,us,usp000dz4h,2014-11-07T01:27:02.759Z,"New Ireland region, Papua New Guinea",earthquake,,58.0,,5.0,reviewed,us,us
4385,2005-09-09 21:08:44.310000+00:00,-4.383,153.636,100.0,4.3,mb,17.0,150.4,,0.64,us,usp000dz4e,2014-11-07T01:27:02.746Z,"New Ireland region, Papua New Guinea",earthquake,,60.8,,6.0,reviewed,us,us
4396,2005-09-09 19:47:12.300000+00:00,-4.699,153.756,100.0,4.3,mb,17.0,105.9,,0.67,us,usp000dz49,2014-11-07T01:27:02.719Z,"New Ireland region, Papua New Guinea",earthquake,,,,8.0,reviewed,us,us
4422,2005-09-09 17:57:35.050000+00:00,-4.724,154.005,100.0,4.1,mb,8.0,235.3,,0.94,us,usp000dz44,2014-11-07T01:27:02.711Z,"Bougainville region, Papua New Guinea",earthquake,,,,1.0,reviewed,us,us
4426,2005-09-09 17:37:37.990000+00:00,-4.375,153.52200000000002,100.0,4.2,mb,9.0,219.4,,0.61,us,usp000dz42,2014-11-07T01:27:02.707Z,"New Ireland region, Papua New Guinea",earthquake,,,,5.0,reviewed,us,us
4448,2005-09-09 16:12:51.870000+00:00,-5.082,154.029,100.0,4.4,mb,15.0,210.9,,0.71,us,usp000dz3t,2014-11-07T01:27:02.690Z,"Bougainville region, Papua New Guinea",earthquake,,,,6.0,reviewed,us,us
4449,2005-09-09 16:08:55.680000+00:00,-5.013999999999999,153.953,100.0,4.3,mb,11.0,234.6,,0.61,us,usp000dz3s,2014-11-07T01:27:02.688Z,"New Ireland region, Papua New Guinea",earthquake,,,,2.0,reviewed,us,us
4468,2005-09-09 13:52:10.360000+00:00,-4.513999999999999,153.656,100.0,4.2,mb,10.0,235.2,,0.68,us,usp000dz3m,2014-11-07T01:27:02.671Z,"New Ireland region, Papua New Guinea",earthquake,,,,4.0,reviewed,us,us
4476,2005-09-09 13:09:36.390000+00:00,-5.103,154.072,100.0,4.1,mb,10.0,210.9,,0.63,us,usp000dz3g,2014-11-07T01:27:02.662Z,"Bougainville region, Papua New Guinea",earthquake,,,,2.0,reviewed,us,us
4478,2005-09-09 12:51:19.180000+00:00,-5.115,154.11700000000002,100.0,3.9,mb,5.0,180.8,,0.39,us,usp000dz3f,2014-11-07T01:27:02.660Z,"Bougainville region, Papua New Guinea",earthquake,,,,1.0,reviewed,us,us
4483,2005-09-09 12:31:03.860000+00:00,-4.798,153.77100000000002,98.4,4.4,mb,15.0,123.7,,0.96,us,usp000dz3c,2014-11-07T01:27:02.648Z,"New Ireland region, Papua New Guinea",earthquake,,,,6.0,reviewed,us,us
4489,2005-09-09 12:01:08.970000+00:00,-5.143,154.083,100.0,4.2,mb,14.0,123.9,,0.9,us,usp000dz3b,2014-11-07T01:27:02.646Z,"Bougainville region, Papua New Guinea",earthquake,,,,2.0,reviewed,us,us
4491,2005-09-09 11:44:17.350000+00:00,-4.874,153.967,100.0,4.1,mb,7.0,238.8,,0.66,us,usp000dz39,2014-11-07T01:27:02.643Z,"New Ireland region, Papua New Guinea",earthquake,,,,1.0,reviewed,us,us
4503,2005-09-09 11:05:54.240000+00:00,-5.51,154.278,155.4,4.1,mb,12.0,123.9,,0.64,us,usp000dz36,2014-11-07T01:27:02.582Z,"Bougainville region, Papua New Guinea",earthquake,,41.7,,2.0,reviewed,us,us
4507,2005-09-09 10:38:32.150000+00:00,-5.55,154.502,100.0,4.3,mb,18.0,123.9,,1.24,us,usp000dz34,2014-11-07T01:27:02.579Z,"Bougainville region, Papua New Guinea",earthquake,,,,10.0,reviewed,us,us
4509,2005-09-09 10:34:11.400000+00:00,-4.846,154.049,100.0,3.9,mb,7.0,180.2,,0.18,us,usp000dz33,2014-11-07T01:27:02.577Z,"Bougainville region, Papua New Guinea",earthquake,,,,1.0,reviewed,us,us
4517,2005-09-09 09:44:57.450000+00:00,-6.319,155.084,95.5,4.5,mb,20.0,101.5,,0.66,us,usp000dz30,2014-11-07T01:27:02.571Z,"Bougainville region, Papua New Guinea",earthquake,,14.8,,9.0,reviewed,us,us
4518,2005-09-09 09:31:46.630000+00:00,-5.159,154.05100000000002,100.0,4.7,mb,34.0,93.2,,0.92,us,usp000dz2z,2014-11-07T01:27:02.568Z,"Bougainville region, Papua New Guinea",earthquake,,,,16.0,reviewed,us,us
4525,2005-09-09 08:55:51.630000+00:00,-4.801,153.839,112.8,5.1,mb,72.0,45.1,,0.94,us,usp000dz2w,2014-11-07T01:27:02.555Z,"New Ireland region, Papua New Guinea",earthquake,,11.1,,26.0,reviewed,us,us
4527,2005-09-09 08:51:17.100000+00:00,-4.587,153.707,100.0,4.4,mb,10.0,165.1,,0.33,us,usp000dz2v,2014-11-07T01:27:02.554Z,"New Ireland region, Papua New Guinea",earthquake,,,,4.0,reviewed,us,us
4528,2005-09-09 08:49:38.030000+00:00,-4.832,153.864,77.8,4.7,mb,29.0,95.4,,0.76,us,usp000dz2u,2014-11-07T01:27:02.550Z,"New Ireland region, Papua New Guinea",earthquake,,,,14.0,reviewed,us,us
4529,2005-09-09 08:49:21.960000+00:00,-4.394,153.726,100.0,4.0,mb,7.0,219.5,,0.69,us,usp000dz2t,2014-11-07T01:27:02.549Z,"New Ireland region, Papua New Guinea",earthquake,,,,1.0,reviewed,us,us
4533,2005-09-09 08:37:21.410000+00:00,-5.008,154.061,100.0,4.0,mb,8.0,210.9,,0.7,us,usp000dz2s,2014-11-07T01:27:02.548Z,"Bougainville region, Papua New Guinea",earthquake,,,,2.0,reviewed,us,us
4534,2005-09-09 08:34:43.610000+00:00,-4.823,153.775,95.2,4.6,mb,27.0,95.4,,0.75,us,usp000dz2r,2014-11-07T01:27:02.545Z,"New Ireland region, Papua New Guinea",earthquake,,15.4,,16.0,reviewed,us,us
4536,2005-09-09 08:33:16.550000+00:00,-4.486000000000001,153.589,100.0,4.0,mb,9.0,233.7,,0.66,us,usp000dz2q,2014-11-07T01:27:02.544Z,"New Ireland region, Papua New Guinea",earthquake,,,,2.0,reviewed,us,us
4538,2005-09-09 08:25:10.340000+00:00,-4.459,153.54399999999998,100.0,4.0,mb,6.0,179.0,,1.31,us,usp000dz2p,2014-11-07T01:27:02.542Z,"New Ireland region, Papua New Guinea",earthquake,,,,1.0,reviewed,us,us
4542,2005-09-09 07:52:36.010000+00:00,-5.391,154.296,100.0,4.0,mb,9.0,124.1,,0.89,us,usp000dz2m,2014-11-07T01:27:02.534Z,"Bougainville region, Papua New Guinea",earthquake,,,,2.0,reviewed,us,us
4543,2005-09-09 07:39:58.470000+00:00,-4.841,153.764,99.2,4.4,mb,14.0,178.1,,0.7,us,usp000dz2k,2014-11-07T01:27:02.531Z,"New Ireland region, Papua New Guinea",earthquake,,44.7,,3.0,reviewed,us,us
4544,2005-09-09 07:26:43.730000+00:00,-4.539,153.474,90.0,7.6,mwc,502.0,20.0,,1.04,us,usp000dz2j,2017-11-08T18:32:09.215Z,"New Ireland region, Papua New Guinea",earthquake,,,,,reviewed,us,hrv
5288,2005-09-05 20:51:13.650000+00:00,-1.736,151.65,30.0,4.6,mb,17.0,126.0,,1.21,us,usp000dyuh,2014-11-07T01:27:00.831Z,"New Ireland region, Papua New Guinea",earthquake,,,,3.0,reviewed,us,us
5357,2005-09-05 11:15:47.260000+00:00,-4.555,152.325,30.0,4.4,mb,11.0,118.8,,0.69,us,usp000dytm,2014-11-07T01:27:00.697Z,"New Britain region, Papua New Guinea",earthquake,,,,2.0,reviewed,us,us
5399,2005-09-05 05:58:25.680000+00:00,-7.11,155.631,30.0,4.2,mb,6.0,171.2,,0.61,us,usp000dyt3,2014-11-07T01:27:00.601Z,Solomon Islands,earthquake,,,,1.0,reviewed,us,us
