,time,latitude,longitude,depth,mag,magType,nst,gap,dmin,rms,net,id,updated,place,type,horizontalError,depthError,magError,magNst,status,locationSource,magSource
4307,2006-01-03 10:59:03.420000+00:00,-59.426,-25.94,70.8,4.3,mb,21.0,80.2,,0.79,us,usp000e7gp,2014-11-07T01:28:03.203Z,South Sandwich Islands region,earthquake,,20.8,,6.0,reviewed,us,us
4365,2006-01-03 01:30:06.840000+00:00,-60.82899999999999,-19.157,10.0,4.6,mb,9.0,133.7,,1.14,us,usp000e7fp,2014-11-07T01:28:02.904Z,east of the South Sandwich Islands,earthquake,,0.0,,2.0,reviewed,us,us
4438,2006-01-02 14:45:26.860000+00:00,-59.221000000000004,-25.871,10.0,4.6,mb,36.0,79.7,,1.1,us,usp000e7e5,2014-11-07T01:28:02.222Z,South Sandwich Islands region,earthquake,,,,11.0,reviewed,us,us
4459,2006-01-02 11:42:18.500000+00:00,-60.99100000000001,-23.18,10.0,4.8,mb,25.0,82.5,,0.89,us,usp000e7dr,2014-11-07T01:28:02.111Z,South Sandwich Islands region,earthquake,,,,8.0,reviewed,us,us
4460,2006-01-02 11:35:18.010000+00:00,-58.88,-24.894000000000002,10.0,4.7,mb,14.0,78.6,,0.91,us,usp000e7dq,2014-11-07T01:28:02.107Z,South Sandwich Islands region,earthquake,,,,1.0,reviewed,us,us
4486,2006-01-02 06:10:49.760000+00:00,-60.957,-21.605999999999998,13.0,7.4,mwc,271.0,18.8,,1.28,us,usp000e7dd,2017-11-08T18:36:42.893Z,east of the South Sandwich Islands,earthquake,,,,,reviewed,us,hrv
