,time,latitude,longitude,depth,mag,magType,nst,gap,dmin,rms,net,id,updated,place,type,horizontalError,depthError,magError,magNst,status,locationSource,magSource
628,2007-01-28 05:06:56.620000+00:00,1.218,126.50200000000001,10.0,5.6,mwc,123.0,54.5,,1.04,us,usp000f3t6,2016-11-10T01:34:40.667Z,Molucca Sea,earthquake,,,,,reviewed,us,gcmt
631,2007-01-28 04:59:16.320000+00:00,1.0290000000000001,126.384,10.0,4.2,mb,12.0,141.6,,0.7,us,usp000f3t4,2014-11-07T01:31:28.382Z,Molucca Sea,earthquake,,,,1.0,reviewed,us,us
671,2007-01-27 22:57:59.050000+00:00,1.185,125.976,10.0,4.7,mb,47.0,68.6,,1.22,us,usp000f3se,2014-11-07T01:31:28.320Z,Molucca Sea,earthquake,,,,17.0,reviewed,us,us
683,2007-01-27 20:47:27.950000+00:00,1.379,126.243,10.0,4.6,mb,36.0,73.7,,0.93,us,usp000f3s8,2014-11-07T01:31:28.296Z,Molucca Sea,earthquake,,,,14.0,reviewed,us,us
732,2007-01-27 12:53:13.760000+00:00,0.551,125.493,10.0,4.4,mb,14.0,152.9,,0.77,us,usp000f3rp,2014-11-07T01:31:28.242Z,Molucca Sea,earthquake,,,,2.0,reviewed,us,us
733,2007-01-27 12:25:12.180000+00:00,1.2570000000000001,126.14299999999999,10.0,4.6,mb,17.0,139.6,,0.97,us,usp000f3rn,2014-11-07T01:31:28.090Z,Molucca Sea,earthquake,,,,6.0,reviewed,us,us
734,2007-01-27 12:17:13.780000+00:00,1.179,126.11200000000001,10.0,4.4,mb,13.0,153.8,,0.88,us,usp000f3rm,2014-11-07T01:31:28.088Z,Molucca Sea,earthquake,,,,3.0,reviewed,us,us
738,2007-01-27 11:37:48.510000+00:00,1.215,126.302,10.0,4.2,mb,7.0,186.0,,0.29,us,usp000f3rj,2014-11-07T01:31:28.086Z,Molucca Sea,earthquake,,,,1.0,reviewed,us,us
742,2007-01-27 11:04:16.850000+00:00,1.217,126.20299999999999,10.0,5.0,mb,50.0,73.7,,0.9,us,usp000f3re,2014-11-07T01:31:28.076Z,Molucca Sea,earthquake,,,,16.0,reviewed,us,us
744,2007-01-27 10:54:33.570000+00:00,1.1340000000000001,126.22,10.0,3.9,mb,10.0,174.8,,0.95,us,usp000f3rc,2014-11-07T01:31:28.073Z,Molucca Sea,earthquake,,,,1.0,reviewed,us,us
746,2007-01-27 10:40:56.830000+00:00,1.212,126.23100000000001,10.0,4.6,mb,20.0,141.3,,1.14,us,usp000f3rb,2014-11-07T01:31:28.071Z,Molucca Sea,earthquake,,,,5.0,reviewed,us,us
747,2007-01-27 10:28:38.940000+00:00,0.7040000000000001,125.154,10.0,4.5,mb,7.0,165.8,,1.17,us,usp000f3ra,2014-11-07T01:31:28.070Z,Molucca Sea,earthquake,,,,1.0,reviewed,us,us
750,2007-01-27 10:23:30.030000+00:00,1.113,126.184,10.0,4.7,mb,9.0,153.8,,0.8,us,usp000f3r7,2014-11-07T01:31:28.065Z,Molucca Sea,earthquake,,,,2.0,reviewed,us,us
751,2007-01-27 10:21:46.760000+00:00,1.2819999999999998,126.20200000000001,10.0,5.6,mwc,134.0,49.4,,0.84,us,usp000f3r6,2016-11-10T01:34:38.165Z,Molucca Sea,earthquake,,,,,reviewed,us,gcmt
753,2007-01-27 10:18:47.260000+00:00,1.2590000000000001,126.294,10.0,4.8,mb,19.0,106.9,,0.96,us,usp000f3r4,2014-11-07T01:31:28.014Z,Molucca Sea,earthquake,,,,2.0,reviewed,us,us
754,2007-01-27 10:16:34.980000+00:00,0.9009999999999999,125.296,10.0,4.3,mb,9.0,173.9,,1.38,us,usp000f3r3,2014-11-07T01:31:28.012Z,Molucca Sea,earthquake,,,,1.0,reviewed,us,us
755,2007-01-27 10:14:14.550000+00:00,1.034,125.90899999999999,10.0,3.8,mb,7.0,163.6,,0.61,us,usp000f3r2,2014-11-07T01:31:28.011Z,Molucca Sea,earthquake,,,,1.0,reviewed,us,us
772,2007-01-27 07:00:37.130000+00:00,1.278,126.56299999999999,10.0,5.5,mwc,92.0,54.5,,0.87,us,usp000f3qr,2016-11-10T01:34:37.357Z,Molucca Sea,earthquake,,,,,reviewed,us,gcmt
780,2007-01-27 05:43:54.580000+00:00,1.337,126.31299999999999,10.0,4.3,mb,20.0,104.6,,1.03,us,usp000f3qm,2014-11-07T01:31:27.834Z,Molucca Sea,earthquake,,,,6.0,reviewed,us,us
781,2007-01-27 05:43:31.220000+00:00,1.248,126.225,10.0,4.4,mb,9.0,189.1,,0.89,us,usp000f3qk,2014-11-07T01:31:27.832Z,Molucca Sea,earthquake,,,,2.0,reviewed,us,us
783,2007-01-27 05:39:16.220000+00:00,1.058,126.412,10.0,4.6,mb,35.0,84.9,,0.73,us,usp000f3qh,2014-11-07T01:31:27.827Z,Molucca Sea,earthquake,,,,16.0,reviewed,us,us
786,2007-01-27 04:46:42.610000+00:00,1.399,126.80799999999999,10.0,4.4,mb,17.0,142.8,,1.23,us,usp000f3qe,2014-11-07T01:31:27.821Z,Molucca Sea,earthquake,,,,7.0,reviewed,us,us
791,2007-01-27 04:11:27.910000+00:00,1.151,126.17399999999999,10.0,4.4,mb,14.0,174.8,,0.73,us,usp000f3qb,2014-11-07T01:31:27.816Z,Molucca Sea,earthquake,,,,4.0,reviewed,us,us
793,2007-01-27 04:07:54.390000+00:00,1.2770000000000001,126.46700000000001,10.0,4.3,mb,9.0,178.0,,0.53,us,usp000f3qa,2014-11-07T01:31:27.814Z,Molucca Sea,earthquake,,,,2.0,reviewed,us,us
803,2007-01-27 02:42:52.970000+00:00,1.256,126.569,10.0,4.4,mb,25.0,103.9,,0.56,us,usp000f3q4,2014-11-07T01:31:27.804Z,Molucca Sea,earthquake,,,,14.0,reviewed,us,us
805,2007-01-27 02:23:34.840000+00:00,0.6459999999999999,125.11200000000001,10.0,4.4,mb,13.0,138.3,,1.43,us,usp000f3q2,2014-11-07T01:31:27.800Z,Molucca Sea,earthquake,,,,5.0,reviewed,us,us
807,2007-01-27 01:53:12.070000+00:00,1.27,126.682,10.0,4.8,mb,22.0,103.6,,1.35,us,usp000f3q0,2014-11-07T01:31:27.795Z,Molucca Sea,earthquake,,,,4.0,reviewed,us,us
810,2007-01-27 01:27:22.490000+00:00,1.347,126.792,10.0,4.8,mb,31.0,72.9,,1.26,us,usp000f3pz,2014-11-07T01:31:27.792Z,Molucca Sea,earthquake,,,,13.0,reviewed,us,us
813,2007-01-27 01:19:24.460000+00:00,1.307,126.531,10.0,5.0,mwc,34.0,73.3,,0.84,us,usp000f3pw,2016-11-09T06:39:32.471Z,Molucca Sea,earthquake,,,,,reviewed,us,gcmt
891,2007-01-26 17:46:13.850000+00:00,0.997,126.119,10.0,4.4,mb,22.0,140.9,,0.86,us,usp000f3p2,2014-11-07T01:31:27.718Z,Molucca Sea,earthquake,,,,13.0,reviewed,us,us
913,2007-01-26 16:20:17.950000+00:00,0.419,126.4,10.0,4.8,mb,18.0,123.7,,1.41,us,usp000f3nx,2014-11-07T01:31:27.708Z,Molucca Sea,earthquake,,,,4.0,reviewed,us,us
914,2007-01-26 16:20:07.500000+00:00,0.24100000000000002,126.021,10.0,4.6,mb,9.0,173.7,,0.95,us,usp000f3nw,2014-11-07T01:31:27.706Z,Molucca Sea,earthquake,,,,2.0,reviewed,us,us
915,2007-01-26 16:04:24.620000+00:00,0.932,126.34100000000001,10.0,4.4,mb,15.0,143.6,,0.96,us,usp000f3nv,2014-11-07T01:31:27.705Z,Molucca Sea,earthquake,,,,5.0,reviewed,us,us
951,2007-01-26 12:15:50.730000+00:00,1.206,126.59299999999999,10.0,4.7,mb,27.0,85.3,,1.05,us,usp000f3nr,2014-11-07T01:31:27.695Z,Molucca Sea,earthquake,,,,9.0,reviewed,us,us
953,2007-01-26 11:44:29+00:00,1.136,126.12799999999999,10.0,5.3,mb,93.0,68.6,,1.01,us,usp000f3nq,2014-11-07T01:31:27.687Z,Molucca Sea,earthquake,,0.0,,27.0,reviewed,us,us
973,2007-01-26 09:30:06.090000+00:00,1.244,126.615,10.0,4.6,mb,10.0,192.4,,0.41,us,usp000f3nd,2014-11-07T01:31:27.666Z,Molucca Sea,earthquake,,,,1.0,reviewed,us,us
979,2007-01-26 08:55:51.910000+00:00,1.065,126.229,10.0,4.3,mb,7.0,189.2,,0.22,us,usp000f3n9,2014-11-07T01:31:27.657Z,Molucca Sea,earthquake,,,,1.0,reviewed,us,us
983,2007-01-26 08:25:06.790000+00:00,1.185,126.542,10.0,4.7,mb,27.0,117.1,,0.68,us,usp000f3n7,2014-11-07T01:31:27.652Z,Molucca Sea,earthquake,,,,9.0,reviewed,us,us
984,2007-01-26 08:23:29.550000+00:00,1.212,126.564,10.0,4.1,mb,14.0,101.9,,0.44,us,usp000f3n6,2014-11-07T01:31:27.651Z,Molucca Sea,earthquake,,0.0,,1.0,reviewed,us,us
985,2007-01-26 08:20:37.280000+00:00,1.214,126.316,10.0,4.3,mb,9.0,141.5,,0.43,us,usp000f3n5,2014-11-07T01:31:27.649Z,Molucca Sea,earthquake,,0.0,,1.0,reviewed,us,us
993,2007-01-26 07:23:35.710000+00:00,1.344,126.46799999999999,10.0,4.6,mb,28.0,141.9,,0.76,us,usp000f3n0,2014-11-07T01:31:27.567Z,Molucca Sea,earthquake,,,,6.0,reviewed,us,us
1032,2007-01-26 03:11:09.980000+00:00,1.607,127.421,35.0,4.3,mb,11.0,177.7,,0.77,us,usp000f3me,2014-11-07T01:31:27.527Z,"Halmahera, Indonesia",earthquake,,,,1.0,reviewed,us,us
1033,2007-01-26 03:09:43.590000+00:00,1.192,126.416,10.0,4.3,mb,20.0,141.7,,0.68,us,usp000f3md,2014-11-07T01:31:27.525Z,Molucca Sea,earthquake,,,,7.0,reviewed,us,us
1065,2007-01-25 23:53:07.900000+00:00,0.414,125.76299999999999,10.0,4.5,mb,19.0,100.0,,0.8,us,usp000f3kx,2014-11-07T01:31:27.449Z,Molucca Sea,earthquake,,,,2.0,reviewed,us,us
1068,2007-01-25 22:43:48.140000+00:00,2.86,126.566,10.0,4.0,mb,10.0,176.9,,0.65,us,usp000f3kv,2014-11-07T01:31:27.446Z,Molucca Sea,earthquake,,,,1.0,reviewed,us,us
1069,2007-01-25 22:36:45.680000+00:00,1.4469999999999998,126.28200000000001,10.0,4.6,mb,20.0,101.6,,0.83,us,usp000f3ku,2014-11-07T01:31:27.443Z,Molucca Sea,earthquake,,,,3.0,reviewed,us,us
1222,2007-01-25 03:34:25.350000+00:00,1.45,126.415,10.0,4.4,mb,17.0,101.9,,0.85,us,usp000f3hh,2014-11-07T01:31:27.174Z,Molucca Sea,earthquake,,,,8.0,reviewed,us,us
1236,2007-01-25 00:36:00.220000+00:00,1.083,126.094,10.0,5.0,mb,65.0,73.8,,0.91,us,usp000f3ha,2014-11-07T01:31:27.154Z,Molucca Sea,earthquake,,,,22.0,reviewed,us,us
1263,2007-01-24 20:29:52.360000+00:00,0.956,126.079,10.0,4.0,mb,9.0,133.9,,1.02,us,usp000f3gx,2014-11-07T01:31:27.099Z,Molucca Sea,earthquake,,,,1.0,reviewed,us,us
1269,2007-01-24 19:43:54.200000+00:00,1.135,126.70700000000001,10.0,4.1,mb,14.0,175.9,,0.82,us,usp000f3gu,2014-11-07T01:31:27.091Z,Molucca Sea,earthquake,,,,4.0,reviewed,us,us
1291,2007-01-24 17:01:08.870000+00:00,2.343,126.80799999999999,10.0,4.0,mb,12.0,176.5,,1.05,us,usp000f3gk,2014-11-07T01:31:27.067Z,Molucca Sea,earthquake,,,,6.0,reviewed,us,us
1303,2007-01-24 15:15:22.770000+00:00,1.265,126.486,10.0,3.6,mb,8.0,175.5,,0.69,us,usp000f3gf,2014-11-07T01:31:27.059Z,Molucca Sea,earthquake,,,,1.0,reviewed,us,us
1311,2007-01-24 14:11:34.700000+00:00,1.095,126.556,10.0,4.3,mb,15.0,141.4,,1.16,us,usp000f3gc,2014-11-07T01:31:27.053Z,Molucca Sea,earthquake,,,,5.0,reviewed,us,us
1326,2007-01-24 11:27:45.760000+00:00,1.105,126.329,10.0,5.0,mb,44.0,73.5,,1.26,us,usp000f3g0,2014-11-07T01:31:27.014Z,Molucca Sea,earthquake,,,,19.0,reviewed,us,us
1330,2007-01-24 10:57:23.420000+00:00,1.018,126.34,10.0,4.6,mb,10.0,175.0,,0.8,us,usp000f3fx,2014-11-07T01:31:27.009Z,Molucca Sea,earthquake,,,,1.0,reviewed,us,us
1338,2007-01-24 09:34:31.830000+00:00,1.1159999999999999,126.11,19.8,5.4,mwc,116.0,54.6,,0.9,us,usp000f3fr,2016-11-10T01:34:25.579Z,Molucca Sea,earthquake,,,,,reviewed,us,gcmt
1352,2007-01-24 08:40:27.860000+00:00,1.0190000000000001,125.971,10.0,5.6,mwc,114.0,54.6,,1.03,us,usp000f3fh,2016-11-10T01:34:24.809Z,Molucca Sea,earthquake,,,,,reviewed,us,gcmt
1360,2007-01-24 07:04:15.580000+00:00,1.006,126.243,10.0,3.7,mb,9.0,174.8,,0.6,us,usp000f3ff,2014-11-07T01:31:26.962Z,Molucca Sea,earthquake,,,,1.0,reviewed,us,us
1361,2007-01-24 06:59:05.510000+00:00,1.209,126.165,10.0,4.5,mb,17.0,125.0,,0.67,us,usp000f3fe,2014-11-07T01:31:26.959Z,Molucca Sea,earthquake,,,,6.0,reviewed,us,us
1384,2007-01-24 01:53:30.790000+00:00,-2.3680000000000003,128.056,35.0,5.0,mwc,37.0,71.5,,1.05,us,usp000f3f7,2016-11-10T01:34:24.045Z,"Ceram Sea, Indonesia",earthquake,,,,,reviewed,us,gcmt
1408,2007-01-23 22:35:49.940000+00:00,1.042,126.066,10.0,4.4,mb,20.0,102.1,,1.16,us,usp000f3ew,2014-11-07T01:31:26.898Z,Molucca Sea,earthquake,,,,7.0,reviewed,us,us
1410,2007-01-23 22:15:16.940000+00:00,0.9740000000000001,126.406,10.0,4.0,mb,10.0,113.7,,0.42,us,usp000f3eu,2014-11-07T01:31:26.894Z,Molucca Sea,earthquake,,,,1.0,reviewed,us,us
1424,2007-01-23 19:59:58.070000+00:00,1.858,127.029,35.0,4.0,mb,10.0,145.2,,1.33,us,usp000f3ep,2014-11-07T01:31:26.869Z,"Halmahera, Indonesia",earthquake,,,,3.0,reviewed,us,us
1434,2007-01-23 17:57:32.300000+00:00,1.225,125.994,10.0,4.1,mb,12.0,140.7,,0.62,us,usp000f3em,2014-11-07T01:31:26.866Z,Molucca Sea,earthquake,,,,3.0,reviewed,us,us
1439,2007-01-23 17:30:02.890000+00:00,1.319,126.152,10.0,4.5,mb,15.0,140.8,,0.5,us,usp000f3eh,2014-11-07T01:31:26.851Z,Molucca Sea,earthquake,,,,5.0,reviewed,us,us
1442,2007-01-23 17:00:39.900000+00:00,1.2930000000000001,126.12899999999999,10.0,4.4,mb,17.0,141.0,,0.82,us,usp000f3ef,2014-11-07T01:31:26.806Z,Molucca Sea,earthquake,,,,6.0,reviewed,us,us
1463,2007-01-23 14:40:47.740000+00:00,0.6679999999999999,125.59299999999999,10.0,3.7,mb,9.0,173.2,,0.56,us,usp000f3e0,2014-11-07T01:31:26.784Z,Molucca Sea,earthquake,,,,1.0,reviewed,us,us
1466,2007-01-23 14:27:24.770000+00:00,0.836,125.99700000000001,10.0,4.2,mb,18.0,81.3,,1.17,us,usp000f3dy,2014-11-07T01:31:26.781Z,Molucca Sea,earthquake,,,,6.0,reviewed,us,us
1484,2007-01-23 12:44:26.300000+00:00,1.224,126.01100000000001,10.0,4.0,mb,8.0,174.5,,1.08,us,usp000f3dn,2014-11-07T01:31:26.766Z,Molucca Sea,earthquake,,,,2.0,reviewed,us,us
1490,2007-01-23 12:02:58.960000+00:00,1.331,126.238,10.0,4.8,mb,43.0,68.6,,1.16,us,usp000f3df,2014-11-07T01:31:26.749Z,Molucca Sea,earthquake,,,,8.0,reviewed,us,us
1495,2007-01-23 11:44:41.060000+00:00,1.216,126.06299999999999,10.0,5.5,mwc,115.0,68.6,,1.21,us,usp000f3dd,2016-11-10T01:34:19.431Z,Molucca Sea,earthquake,,,,,reviewed,us,gcmt
1499,2007-01-23 11:33:09.700000+00:00,0.41700000000000004,126.279,10.0,4.7,mb,11.0,190.5,,0.82,us,usp000f3d9,2014-11-07T01:31:26.697Z,Molucca Sea,earthquake,,,,4.0,reviewed,us,us
1547,2007-01-23 05:02:43.100000+00:00,0.935,126.15100000000001,10.0,3.7,mb,10.0,174.5,,0.95,us,usp000f3ce,2014-11-07T01:31:26.635Z,Molucca Sea,earthquake,,,,1.0,reviewed,us,us
1568,2007-01-23 02:58:23.510000+00:00,1.055,125.964,10.0,3.7,mb,7.0,176.2,,1.0,us,usp000f3c0,2014-11-07T01:31:26.535Z,Molucca Sea,earthquake,,,,1.0,reviewed,us,us
1573,2007-01-23 01:38:37.860000+00:00,0.914,125.99,10.0,4.4,mb,15.0,140.6,,1.09,us,usp000f3bz,2014-11-07T01:31:26.533Z,Molucca Sea,earthquake,,,,3.0,reviewed,us,us
1574,2007-01-23 01:34:55.930000+00:00,1.128,126.086,10.0,3.7,mb,11.0,174.6,,1.09,us,usp000f3by,2014-11-07T01:31:26.532Z,Molucca Sea,earthquake,,,,1.0,reviewed,us,us
1578,2007-01-23 00:57:25.670000+00:00,1.337,126.389,10.0,4.0,mb,8.0,190.1,,0.19,us,usp000f3bw,2014-11-07T01:31:26.529Z,Molucca Sea,earthquake,,,,2.0,reviewed,us,us
1598,2007-01-22 22:17:53.470000+00:00,1.187,126.26299999999999,10.0,4.7,mb,36.0,109.6,,1.0,us,usp000f3bp,2014-11-07T01:31:26.514Z,Molucca Sea,earthquake,,,,13.0,reviewed,us,us
1601,2007-01-22 21:50:43.940000+00:00,1.043,126.07700000000001,10.0,4.1,mb,10.0,174.5,,0.18,us,usp000f3bn,2014-11-07T01:31:26.512Z,Molucca Sea,earthquake,,,,2.0,reviewed,us,us
1607,2007-01-22 20:28:38.130000+00:00,0.9490000000000001,125.889,10.0,4.5,mb,10.0,174.0,,0.5,us,usp000f3bg,2014-11-07T01:31:26.506Z,Molucca Sea,earthquake,,,,1.0,reviewed,us,us
1628,2007-01-22 18:14:44.320000+00:00,1.128,126.368,10.0,5.2,mwc,75.0,75.4,,0.91,us,usp000f3b8,2016-11-10T01:34:14.595Z,Molucca Sea,earthquake,,,,,reviewed,us,gcmt
1636,2007-01-22 17:31:47.700000+00:00,1.13,126.586,10.0,4.0,mb,10.0,157.7,,0.93,us,usp000f3b2,2014-11-07T01:31:26.447Z,Molucca Sea,earthquake,,,,1.0,reviewed,us,us
1642,2007-01-22 16:44:50.780000+00:00,0.402,126.235,10.0,5.3,mwc,70.0,53.3,,0.95,us,usp000f3aw,2016-11-10T01:34:13.841Z,Molucca Sea,earthquake,,,,,reviewed,us,gcmt
1648,2007-01-22 16:19:12.660000+00:00,1.237,126.771,10.0,4.4,mb,14.0,157.5,,1.38,us,usp000f3as,2014-11-07T01:31:26.414Z,Molucca Sea,earthquake,,,,3.0,reviewed,us,us
1652,2007-01-22 15:50:53+00:00,0.831,126.544,10.0,4.1,mb,16.0,142.0,,0.72,us,usp000f3aq,2014-11-07T01:31:26.411Z,Molucca Sea,earthquake,,,,4.0,reviewed,us,us
1655,2007-01-22 15:35:06.280000+00:00,1.016,126.039,10.0,4.7,mb,34.0,100.3,,1.0,us,usp000f3am,2014-11-07T01:31:26.405Z,Molucca Sea,earthquake,,,,12.0,reviewed,us,us
1663,2007-01-22 14:48:07.510000+00:00,1.8319999999999999,126.839,10.0,3.9,mb,7.0,160.6,,1.09,us,usp000f3af,2014-11-07T01:31:26.399Z,Molucca Sea,earthquake,,,,1.0,reviewed,us,us
1665,2007-01-22 14:36:40.980000+00:00,1.189,126.31200000000001,10.0,4.3,mb,14.0,141.5,,0.63,us,usp000f3ad,2014-11-07T01:31:26.393Z,Molucca Sea,earthquake,,,,2.0,reviewed,us,us
1674,2007-01-22 12:35:21.280000+00:00,0.9359999999999999,126.016,10.0,5.0,mb,61.0,68.6,,0.97,us,usp000f3a6,2014-11-07T01:31:26.372Z,Molucca Sea,earthquake,,,,29.0,reviewed,us,us
1705,2007-01-22 08:42:06.090000+00:00,1.092,126.18299999999999,10.0,4.8,mb,21.0,93.3,,1.14,us,usp000f39p,2014-11-07T01:31:26.316Z,Molucca Sea,earthquake,,,,8.0,reviewed,us,us
1707,2007-01-22 08:27:47.010000+00:00,0.9420000000000001,126.069,10.0,4.7,mb,10.0,140.8,,1.01,us,usp000f39n,2014-11-07T01:31:26.303Z,Molucca Sea,earthquake,,,,1.0,reviewed,us,us
1711,2007-01-22 08:04:25.800000+00:00,0.996,126.413,10.0,4.7,mb,17.0,141.7,,0.86,us,usp000f39j,2014-11-07T01:31:26.296Z,Molucca Sea,earthquake,,,,5.0,reviewed,us,us
1720,2007-01-22 07:04:58.920000+00:00,1.002,126.398,10.0,4.6,mb,31.0,133.0,,0.99,us,usp000f39e,2014-11-07T01:31:26.287Z,Molucca Sea,earthquake,,,,10.0,reviewed,us,us
1727,2007-01-22 06:10:19.790000+00:00,0.9590000000000001,125.977,10.0,4.5,mb,19.0,93.0,,0.77,us,usp000f39a,2014-11-07T01:31:26.269Z,Molucca Sea,earthquake,,,,3.0,reviewed,us,us
1739,2007-01-22 05:19:15.500000+00:00,1.192,126.098,10.0,4.9,mb,41.0,137.9,,1.18,us,usp000f393,2014-11-07T01:31:26.253Z,Molucca Sea,earthquake,,,,17.0,reviewed,us,us
1754,2007-01-22 03:25:47.710000+00:00,1.265,126.486,10.0,4.9,mb,40.0,117.1,,1.18,us,usp000f38w,2014-11-07T01:31:26.218Z,Molucca Sea,earthquake,,,,18.0,reviewed,us,us
1759,2007-01-22 02:53:11.580000+00:00,1.304,126.524,10.0,4.7,mb,21.0,156.5,,1.34,us,usp000f38t,2014-11-07T01:31:26.214Z,Molucca Sea,earthquake,,,,5.0,reviewed,us,us
1765,2007-01-22 02:04:25.880000+00:00,1.2690000000000001,126.23899999999999,10.0,4.6,mb,15.0,104.3,,0.69,us,usp000f38n,2014-11-07T01:31:26.205Z,Molucca Sea,earthquake,,,,3.0,reviewed,us,us
1766,2007-01-22 02:01:55.190000+00:00,0.897,126.073,10.0,3.9,mb,11.0,174.4,,1.03,us,usp000f38m,2014-11-07T01:31:26.203Z,Molucca Sea,earthquake,,,,1.0,reviewed,us,us
1768,2007-01-22 01:48:20.890000+00:00,0.9329999999999999,126.04,10.0,4.2,mb,10.0,140.7,,0.6,us,usp000f38j,2014-11-07T01:31:26.200Z,Molucca Sea,earthquake,,,,1.0,reviewed,us,us
1772,2007-01-22 01:40:16.590000+00:00,0.826,125.855,10.0,4.3,mb,14.0,140.2,,1.03,us,usp000f38g,2014-11-07T01:31:26.193Z,Molucca Sea,earthquake,,,,1.0,reviewed,us,us
1775,2007-01-22 01:28:39.350000+00:00,1.067,126.249,10.0,4.6,mb,18.0,104.6,,1.1,us,usp000f38f,2014-11-07T01:31:26.191Z,Molucca Sea,earthquake,,,,4.0,reviewed,us,us
1781,2007-01-22 01:06:40.690000+00:00,0.9790000000000001,126.26299999999999,10.0,5.2,mwc,66.0,59.5,,0.95,us,usp000f38b,2016-11-10T01:34:09.599Z,Molucca Sea,earthquake,,,,,reviewed,us,gcmt
1783,2007-01-22 00:33:19.810000+00:00,0.95,126.065,10.0,5.0,mb,60.0,50.8,,0.84,us,usp000f389,2014-11-07T01:31:26.165Z,Molucca Sea,earthquake,,,,14.0,reviewed,us,us
1784,2007-01-22 00:32:40.970000+00:00,1.168,126.693,10.0,4.5,mb,12.0,174.3,,1.12,us,usp000f388,2014-11-07T01:31:26.164Z,Molucca Sea,earthquake,,,,1.0,reviewed,us,us
1787,2007-01-22 00:22:51.700000+00:00,0.9440000000000001,126.09100000000001,10.0,5.4,mwc,125.0,54.5,,0.94,us,usp000f385,2016-11-10T01:34:08.717Z,Molucca Sea,earthquake,,,,,reviewed,us,gcmt
1789,2007-01-22 00:19:30.390000+00:00,0.9259999999999999,126.07,10.0,4.3,mb,15.0,110.9,,0.42,us,usp000f384,2014-11-07T01:31:26.140Z,Molucca Sea,earthquake,,,,1.0,reviewed,us,us
1790,2007-01-21 23:54:29.910000+00:00,1.071,126.296,10.0,4.7,mb,20.0,141.4,,0.61,us,usp000f383,2014-11-07T01:31:26.138Z,Molucca Sea,earthquake,,,,3.0,reviewed,us,us
1791,2007-01-21 23:45:09.230000+00:00,1.024,126.265,10.0,5.5,mwc,160.0,32.9,,1.03,us,usp000f382,2016-11-10T01:34:07.891Z,Molucca Sea,earthquake,,,,,reviewed,us,gcmt
1796,2007-01-21 23:21:37.480000+00:00,1.166,126.113,10.0,4.3,mb,21.0,141.0,,0.73,us,usp000f37z,2014-11-07T01:31:26.114Z,Molucca Sea,earthquake,,,,2.0,reviewed,us,us
1797,2007-01-21 23:13:15.640000+00:00,0.965,126.02600000000001,10.0,4.9,mb,33.0,101.8,,0.97,us,usp000f37y,2014-11-07T01:31:26.108Z,Molucca Sea,earthquake,,,,15.0,reviewed,us,us
1804,2007-01-21 22:46:38.640000+00:00,1.0090000000000001,125.934,10.0,4.7,mb,22.0,156.0,,1.36,us,usp000f37t,2014-11-07T01:31:25.961Z,Molucca Sea,earthquake,,,,4.0,reviewed,us,us
1805,2007-01-21 22:44:10.830000+00:00,0.9670000000000001,126.11,10.0,4.9,mb,43.0,73.7,,0.83,us,usp000f37s,2014-11-07T01:31:25.957Z,Molucca Sea,earthquake,,,,17.0,reviewed,us,us
1806,2007-01-21 22:35:13.930000+00:00,0.91,125.67299999999999,10.0,4.6,mb,11.0,161.8,,0.85,us,usp000f37r,2014-11-07T01:31:25.942Z,Molucca Sea,earthquake,,,,1.0,reviewed,us,us
1808,2007-01-21 22:21:15.270000+00:00,0.985,126.28399999999999,10.0,5.1,mwc,38.0,87.0,,1.12,us,usp000f37p,2016-11-10T01:34:07.073Z,Molucca Sea,earthquake,,,,,reviewed,us,gcmt
1813,2007-01-21 22:02:00.120000+00:00,1.003,126.38,10.0,4.3,mb,20.0,104.2,,0.75,us,usp000f37j,2014-11-07T01:31:25.931Z,Molucca Sea,earthquake,,,,5.0,reviewed,us,us
1814,2007-01-21 21:53:54.700000+00:00,1.197,126.48,10.0,4.5,mb,30.0,104.4,,0.69,us,usp000f37h,2014-11-07T01:31:25.928Z,Molucca Sea,earthquake,,,,7.0,reviewed,us,us
1819,2007-01-21 21:21:42.730000+00:00,1.013,125.975,10.0,5.0,mb,48.0,75.9,,0.88,us,usp000f37g,2014-11-07T01:31:25.923Z,Molucca Sea,earthquake,,,,20.0,reviewed,us,us
1820,2007-01-21 21:07:38.190000+00:00,1.163,126.367,10.0,4.5,mb,36.0,80.1,,0.75,us,usp000f37f,2014-11-07T01:31:25.920Z,Molucca Sea,earthquake,,,,8.0,reviewed,us,us
1821,2007-01-21 21:03:01.080000+00:00,1.08,125.87899999999999,10.0,5.3,mwc,127.0,41.1,,1.08,us,usp000f37e,2016-11-10T01:34:06.210Z,Molucca Sea,earthquake,,,,,reviewed,us,gcmt
1822,2007-01-21 20:59:51.950000+00:00,0.95,126.074,10.0,4.4,mb,32.0,113.6,,0.79,us,usp000f37d,2014-11-07T01:31:25.906Z,Molucca Sea,earthquake,,,,9.0,reviewed,us,us
1824,2007-01-21 20:52:39.180000+00:00,1.107,126.334,10.0,5.0,mb,66.0,55.7,,0.71,us,usp000f37c,2014-11-07T01:31:25.899Z,Molucca Sea,earthquake,,,,22.0,reviewed,us,us
1828,2007-01-21 20:35:28.820000+00:00,1.056,126.42399999999999,10.0,4.1,mb,26.0,132.2,,0.68,us,usp000f37a,2014-11-07T01:31:25.896Z,Molucca Sea,earthquake,,,,5.0,reviewed,us,us
1830,2007-01-21 20:27:20.300000+00:00,1.3359999999999999,127.20700000000001,10.0,5.0,mb,37.0,80.4,,1.22,us,usp000f378,2014-11-07T01:31:25.888Z,"Halmahera, Indonesia",earthquake,,,,23.0,reviewed,us,us
1831,2007-01-21 20:26:42.880000+00:00,1.155,126.46600000000001,10.0,4.6,mb,41.0,80.0,,0.81,us,usp000f377,2014-11-07T01:31:25.884Z,Molucca Sea,earthquake,,,,22.0,reviewed,us,us
1833,2007-01-21 19:59:50.290000+00:00,1.013,126.314,10.0,5.2,mb,83.0,68.6,,0.92,us,usp000f375,2014-11-07T01:31:25.873Z,Molucca Sea,earthquake,,,,27.0,reviewed,us,us
1835,2007-01-21 19:50:50.260000+00:00,1.041,125.84899999999999,10.0,5.5,mb,173.0,41.1,,0.97,us,usp000f374,2014-11-07T01:31:25.859Z,Molucca Sea,earthquake,,,,53.0,reviewed,us,us
1836,2007-01-21 19:47:14.600000+00:00,1.071,126.432,10.0,4.4,mb,21.0,135.2,,0.81,us,usp000f373,2014-11-07T01:31:25.857Z,Molucca Sea,earthquake,,,,6.0,reviewed,us,us
1838,2007-01-21 19:41:05.090000+00:00,1.28,126.87299999999999,10.0,3.8,mb,11.0,176.3,,0.77,us,usp000f372,2014-11-07T01:31:25.856Z,Molucca Sea,earthquake,,,,1.0,reviewed,us,us
1842,2007-01-21 19:29:07.810000+00:00,1.094,126.454,10.0,4.4,mb,27.0,103.4,,0.58,us,usp000f36z,2014-11-07T01:31:25.851Z,Molucca Sea,earthquake,,,,7.0,reviewed,us,us
1843,2007-01-21 19:17:03.420000+00:00,1.075,126.435,10.0,4.1,mb,10.0,156.8,,0.33,us,usp000f36y,2014-11-07T01:31:25.849Z,Molucca Sea,earthquake,,,,1.0,reviewed,us,us
1844,2007-01-21 19:16:12.180000+00:00,0.955,126.206,10.0,4.4,mb,13.0,144.8,,0.46,us,usp000f36x,2014-11-07T01:31:25.848Z,Molucca Sea,earthquake,,,,1.0,reviewed,us,us
1846,2007-01-21 19:10:31.830000+00:00,1.014,125.679,10.0,4.3,mb,16.0,139.8,,1.01,us,usp000f36v,2014-11-07T01:31:25.844Z,Molucca Sea,earthquake,,,,1.0,reviewed,us,us
1849,2007-01-21 19:00:17.770000+00:00,0.929,126.40700000000001,10.0,4.8,mb,36.0,78.5,,1.12,us,usp000f36s,2014-11-07T01:31:25.827Z,Molucca Sea,earthquake,,,,12.0,reviewed,us,us
1852,2007-01-21 18:51:50.310000+00:00,1.032,126.35700000000001,10.0,4.2,mb,15.0,141.6,,0.84,us,usp000f36p,2014-11-07T01:31:25.822Z,Molucca Sea,earthquake,,,,3.0,reviewed,us,us
1853,2007-01-21 18:42:12.220000+00:00,1.053,125.902,10.0,4.7,mb,43.0,76.2,,1.08,us,usp000f36n,2014-11-07T01:31:25.819Z,Molucca Sea,earthquake,,,,15.0,reviewed,us,us
1855,2007-01-21 18:34:08.730000+00:00,1.078,125.991,10.0,4.7,mb,32.0,100.3,,1.16,us,usp000f36k,2014-11-07T01:31:25.814Z,Molucca Sea,earthquake,,,,12.0,reviewed,us,us
1856,2007-01-21 18:27:42.090000+00:00,1.002,126.37700000000001,10.0,4.6,mb,20.0,97.8,,0.85,us,usp000f36j,2014-11-07T01:31:25.812Z,Molucca Sea,earthquake,,,,5.0,reviewed,us,us
1858,2007-01-21 18:07:32.280000+00:00,1.005,126.34200000000001,10.0,4.2,mb,15.0,174.0,,0.77,us,usp000f36h,2014-11-07T01:31:25.810Z,Molucca Sea,earthquake,,,,3.0,reviewed,us,us
1859,2007-01-21 18:03:42.350000+00:00,0.988,126.294,10.0,4.9,mb,33.0,91.0,,0.82,us,usp000f36g,2014-11-07T01:31:25.806Z,Molucca Sea,earthquake,,,,10.0,reviewed,us,us
1860,2007-01-21 18:03:34.230000+00:00,1.102,126.45,10.0,4.5,mb,13.0,141.8,,1.32,us,usp000f36f,2014-11-07T01:31:25.804Z,Molucca Sea,earthquake,,,,2.0,reviewed,us,us
1862,2007-01-21 17:51:50.600000+00:00,0.975,126.06200000000001,10.0,4.4,mb,15.0,105.1,,1.14,us,usp000f36d,2014-11-07T01:31:25.795Z,Molucca Sea,earthquake,,,,1.0,reviewed,us,us
1864,2007-01-21 17:46:50.950000+00:00,1.0959999999999999,126.264,10.0,4.8,mb,41.0,78.4,,1.12,us,usp000f36c,2014-11-07T01:31:25.791Z,Molucca Sea,earthquake,,,,11.0,reviewed,us,us
1866,2007-01-21 17:37:11.750000+00:00,1.043,126.404,10.0,5.2,mb,23.0,111.3,,0.94,us,usp000f36a,2014-11-07T01:31:25.787Z,Molucca Sea,earthquake,,,,5.0,reviewed,us,us
1867,2007-01-21 17:36:13.780000+00:00,1.087,126.37100000000001,10.0,4.9,mb,48.0,97.3,,0.84,us,usp000f369,2014-11-07T01:31:25.783Z,Molucca Sea,earthquake,,,,3.0,reviewed,us,us
1869,2007-01-21 17:32:55.520000+00:00,1.06,126.345,23.0,6.2,mwc,225.0,41.0,,0.86,us,usp000f368,2016-11-10T01:34:05.271Z,Molucca Sea,earthquake,,,,,reviewed,us,gcmt
1874,2007-01-21 16:59:25.080000+00:00,1.033,125.98200000000001,10.0,4.8,mb,37.0,87.9,,1.05,us,usp000f364,2014-11-07T01:31:25.744Z,Molucca Sea,earthquake,,,,14.0,reviewed,us,us
1877,2007-01-21 16:32:55.760000+00:00,0.9229999999999999,126.022,10.0,4.8,mb,50.0,79.1,,0.86,us,usp000f362,2014-11-07T01:31:25.738Z,Molucca Sea,earthquake,,,,23.0,reviewed,us,us
1878,2007-01-21 16:23:22.610000+00:00,1.08,126.09,10.0,4.7,mb,31.0,103.9,,0.86,us,usp000f361,2014-11-07T01:31:25.734Z,Molucca Sea,earthquake,,,,18.0,reviewed,us,us
1881,2007-01-21 16:20:27.640000+00:00,0.868,126.046,10.0,4.0,mb,15.0,113.6,,1.26,us,usp000f360,2014-11-07T01:31:25.732Z,Molucca Sea,earthquake,,,,4.0,reviewed,us,us
1884,2007-01-21 15:49:19.960000+00:00,1.0590000000000002,125.74,10.0,4.3,mb,21.0,88.6,,1.06,us,usp000f35y,2014-11-07T01:31:25.717Z,Molucca Sea,earthquake,,,,2.0,reviewed,us,us
1889,2007-01-21 15:39:21.780000+00:00,1.171,126.035,10.0,4.2,mb,13.0,140.8,,0.74,us,usp000f35t,2014-11-07T01:31:25.707Z,Molucca Sea,earthquake,,,,3.0,reviewed,us,us
1890,2007-01-21 15:33:19.970000+00:00,1.113,126.50200000000001,10.0,4.6,mb,22.0,103.4,,0.6,us,usp000f35s,2014-11-07T01:31:25.704Z,Molucca Sea,earthquake,,,,2.0,reviewed,us,us
1891,2007-01-21 15:30:45.600000+00:00,1.379,126.601,10.0,4.4,mb,15.0,175.8,,1.25,us,usp000f35r,2014-11-07T01:31:25.702Z,Molucca Sea,earthquake,,,,2.0,reviewed,us,us
1892,2007-01-21 15:29:17.230000+00:00,1.081,126.17200000000001,10.0,5.1,mb,71.0,73.7,,1.07,us,usp000f35q,2014-11-07T01:31:25.657Z,Molucca Sea,earthquake,,,,27.0,reviewed,us,us
1894,2007-01-21 15:12:36.390000+00:00,1.012,126.044,10.0,5.1,mb,83.0,54.6,,1.03,us,usp000f35p,2014-11-07T01:31:25.650Z,Molucca Sea,earthquake,,,,31.0,reviewed,us,us
1897,2007-01-21 15:08:03.650000+00:00,1.022,125.9,10.0,4.3,mb,13.0,113.7,,1.17,us,usp000f35m,2014-11-07T01:31:25.647Z,Molucca Sea,earthquake,,,,2.0,reviewed,us,us
1898,2007-01-21 15:04:11.350000+00:00,0.995,125.932,10.0,5.3,mb,82.0,54.6,,1.02,us,usp000f35k,2014-11-07T01:31:25.641Z,Molucca Sea,earthquake,,,,31.0,reviewed,us,us
1900,2007-01-21 15:02:54.560000+00:00,1.109,126.488,10.0,4.3,mb,20.0,101.5,,1.27,us,usp000f35h,2014-11-07T01:31:25.628Z,Molucca Sea,earthquake,,,,4.0,reviewed,us,us
1904,2007-01-21 14:39:18.150000+00:00,1.042,125.969,10.0,5.5,mb,106.0,50.8,,0.98,us,usp000f35e,2014-11-07T01:31:25.616Z,Molucca Sea,earthquake,,,,47.0,reviewed,us,us
1905,2007-01-21 14:35:54.890000+00:00,1.198,125.98700000000001,10.0,5.0,mb,31.0,98.5,,1.12,us,usp000f35d,2014-11-07T01:31:25.611Z,Molucca Sea,earthquake,,,,13.0,reviewed,us,us
1906,2007-01-21 14:27:49.420000+00:00,0.905,125.99700000000001,10.0,5.4,mb,84.0,54.5,,0.91,us,usp000f35c,2014-11-07T01:31:25.364Z,Molucca Sea,earthquake,,,,40.0,reviewed,us,us
1907,2007-01-21 14:22:40.290000+00:00,0.9670000000000001,126.01299999999999,10.0,4.5,mb,15.0,100.2,,0.76,us,usp000f35b,2014-11-07T01:31:25.363Z,Molucca Sea,earthquake,,,,1.0,reviewed,us,us
1909,2007-01-21 14:14:07.140000+00:00,1.058,126.054,10.0,4.9,mb,26.0,132.7,,0.62,us,usp000f359,2014-11-07T01:31:25.359Z,Molucca Sea,earthquake,,,,5.0,reviewed,us,us
1911,2007-01-21 14:11:40.090000+00:00,1.266,126.29299999999999,10.0,5.1,mb,76.0,68.6,,0.72,us,usp000f357,2014-11-07T01:31:25.351Z,Molucca Sea,earthquake,,,,29.0,reviewed,us,us
1912,2007-01-21 14:10:34.650000+00:00,1.153,126.133,10.0,4.9,mb,49.0,78.5,,0.83,us,usp000f356,2014-11-07T01:31:25.347Z,Molucca Sea,earthquake,,,,21.0,reviewed,us,us
1914,2007-01-21 14:01:26.470000+00:00,1.213,126.069,10.0,4.4,mb,25.0,73.3,,0.86,us,usp000f354,2014-11-07T01:31:25.343Z,Molucca Sea,earthquake,,,,1.0,reviewed,us,us
1915,2007-01-21 13:55:16.590000+00:00,1.1079999999999999,126.40299999999999,10.0,5.4,mb,115.0,49.3,,0.93,us,usp000f353,2015-05-13T18:53:51.000Z,Molucca Sea,earthquake,,,,46.0,reviewed,us,us
1919,2007-01-21 13:43:52.790000+00:00,0.9590000000000001,126.208,10.0,5.1,mb,58.0,68.6,,1.13,us,usp000f350,2014-11-07T01:31:25.317Z,Molucca Sea,earthquake,,,,29.0,reviewed,us,us
1924,2007-01-21 13:21:56.660000+00:00,1.111,126.448,10.0,5.0,mb,68.0,73.3,,0.96,us,usp000f34x,2014-11-07T01:31:25.304Z,Molucca Sea,earthquake,,,,29.0,reviewed,us,us
1925,2007-01-21 13:18:10.950000+00:00,1.002,126.03,10.0,4.7,mb,44.0,73.9,,1.08,us,usp000f34w,2014-11-07T01:31:25.300Z,Molucca Sea,earthquake,,,,15.0,reviewed,us,us
1926,2007-01-21 13:15:07.850000+00:00,0.9990000000000001,126.006,10.0,5.1,mb,51.0,73.9,,0.86,us,usp000f34v,2014-11-07T01:31:25.296Z,Molucca Sea,earthquake,,,,20.0,reviewed,us,us
1927,2007-01-21 13:12:26.440000+00:00,1.165,126.167,10.0,4.8,mb,46.0,86.6,,1.01,us,usp000f34u,2014-11-07T01:31:25.292Z,Molucca Sea,earthquake,,,,18.0,reviewed,us,us
1928,2007-01-21 13:08:32.330000+00:00,0.882,126.115,10.0,5.0,mb,63.0,68.6,,0.94,us,usp000f34t,2014-11-07T01:31:25.286Z,Molucca Sea,earthquake,,,,23.0,reviewed,us,us
1931,2007-01-21 12:56:05.730000+00:00,1.109,126.084,10.0,4.9,mb,43.0,73.8,,1.16,us,usp000f34s,2014-11-07T01:31:25.282Z,Molucca Sea,earthquake,,,,17.0,reviewed,us,us
1932,2007-01-21 12:50:12.150000+00:00,1.1,126.34200000000001,10.0,4.7,mb,35.0,73.5,,1.34,us,usp000f34r,2014-11-07T01:31:25.279Z,Molucca Sea,earthquake,,,,18.0,reviewed,us,us
1934,2007-01-21 12:32:35.170000+00:00,1.0959999999999999,126.02600000000001,10.0,5.5,mb,117.0,54.6,,1.04,us,usp000f34q,2015-05-13T18:53:51.000Z,Molucca Sea,earthquake,,,,52.0,reviewed,us,us
1935,2007-01-21 12:21:11.750000+00:00,0.9209999999999999,126.61200000000001,10.0,4.5,mb,14.0,142.2,,0.99,us,usp000f34p,2014-11-07T01:31:25.267Z,Molucca Sea,earthquake,,,,1.0,reviewed,us,us
1936,2007-01-21 12:18:07.940000+00:00,0.951,126.12,10.0,5.1,mb,36.0,55.9,,1.13,us,usp000f34n,2014-11-07T01:31:25.264Z,Molucca Sea,earthquake,,,,9.0,reviewed,us,us
1937,2007-01-21 12:17:19.270000+00:00,1.065,125.941,10.0,4.9,mb,46.0,63.5,,0.93,us,usp000f34m,2014-11-07T01:31:25.261Z,Molucca Sea,earthquake,,,,16.0,reviewed,us,us
1938,2007-01-21 12:16:02.090000+00:00,1.121,125.977,10.0,4.8,mb,28.0,98.9,,0.81,us,usp000f34k,2014-11-07T01:31:25.258Z,Molucca Sea,earthquake,,,,5.0,reviewed,us,us
1939,2007-01-21 12:10:45.730000+00:00,1.0090000000000001,126.06,10.0,5.2,mb,61.0,54.6,,0.83,us,usp000f34j,2014-11-07T01:31:25.253Z,Molucca Sea,earthquake,,,,24.0,reviewed,us,us
1940,2007-01-21 12:08:24+00:00,1.1179999999999999,126.124,10.0,4.9,mb,29.0,78.6,,0.72,us,usp000f34h,2014-11-07T01:31:25.250Z,Molucca Sea,earthquake,,,,9.0,reviewed,us,us
1941,2007-01-21 12:02:08.080000+00:00,1.137,126.117,10.0,5.2,mb,76.0,68.6,,0.94,us,usp000f34g,2014-11-07T01:31:25.244Z,Molucca Sea,earthquake,,,,21.0,reviewed,us,us
1943,2007-01-21 11:54:11.210000+00:00,0.955,125.88799999999999,10.0,5.6,mb,117.0,50.8,,0.98,us,usp000f34f,2015-05-13T18:53:51.000Z,Molucca Sea,earthquake,,,,46.0,reviewed,us,us
1944,2007-01-21 11:47:33.040000+00:00,1.139,126.26299999999999,10.0,5.3,mb,47.0,75.7,,0.93,us,usp000f34e,2014-11-07T01:31:25.229Z,Molucca Sea,earthquake,,,,15.0,reviewed,us,us
1945,2007-01-21 11:45:59.830000+00:00,0.998,125.897,10.0,5.4,mb,56.0,50.8,,1.02,us,usp000f34d,2014-11-07T01:31:25.224Z,Molucca Sea,earthquake,,,,15.0,reviewed,us,us
1947,2007-01-21 11:27:45.060000+00:00,1.065,126.28200000000001,22.0,7.5,mwc,570.0,21.6,,1.22,us,usp000f34b,2017-11-13T17:25:16.939Z,Molucca Sea,earthquake,,,,,reviewed,us,gcmt
2401,2007-01-18 17:31:57.490000+00:00,0.654,123.62,297.9,4.5,mb,53.0,61.3,,0.87,us,usp000f2xt,2014-11-07T01:31:24.301Z,"Minahasa, Sulawesi, Indonesia",earthquake,,,,25.0,reviewed,us,us
2786,2007-01-16 18:06:18.140000+00:00,2.61,126.238,64.3,5.6,mwc,151.0,53.0,,1.16,us,usp000f2t3,2016-11-10T01:33:45.179Z,Molucca Sea,earthquake,,10.9,,,reviewed,us,gcmt
2895,2007-01-16 02:13:03.710000+00:00,3.175,128.429,35.0,4.3,mb,13.0,136.4,,0.63,us,usp000f2r5,2014-11-07T01:31:23.456Z,"north of Halmahera, Indonesia",earthquake,,,,1.0,reviewed,us,us
3181,2007-01-14 15:39:45.480000+00:00,2.299,126.791,10.0,4.7,mb,33.0,130.0,,1.2,us,usp000f2jk,2014-11-07T01:31:22.692Z,Molucca Sea,earthquake,,,,9.0,reviewed,us,us
