,time,latitude,longitude,depth,mag,magType,nst,gap,dmin,rms,net,id,updated,place,type,horizontalError,depthError,magError,magNst,status,locationSource,magSource
11323,2008-04-17 19:09:00.770000+00:00,-55.407,158.719,10.0,5.1,mwc,79.0,57.2,,0.96,us,usp000g467,2016-11-10T01:54:49.866Z,Macquarie Island region,earthquake,,,,,reviewed,us,gcmt
11378,2008-04-17 14:13:04.180000+00:00,-55.733000000000004,158.537,10.0,4.8,mb,31.0,89.7,,0.94,us,usp000g45q,2014-11-07T01:35:39.362Z,Macquarie Island region,earthquake,,,,7.0,reviewed,us,us
11988,2008-04-15 18:49:48.060000+00:00,-55.486999999999995,158.536,10.0,4.7,mb,48.0,57.0,,1.17,us,usp000g40c,2014-11-07T01:35:37.669Z,Macquarie Island region,earthquake,,,,10.0,reviewed,us,us
12083,2008-04-15 14:43:16.140000+00:00,-55.413999999999994,158.627,10.0,4.1,mb,16.0,178.4,,0.99,us,usp000g3zs,2014-11-07T01:35:37.569Z,Macquarie Island region,earthquake,,0.0,,1.0,reviewed,us,us
12613,2008-04-13 15:53:18.950000+00:00,-55.269,158.284,10.0,4.6,mb,12.0,132.7,,0.91,us,usp000g3uk,2014-11-07T01:35:36.689Z,Macquarie Island region,earthquake,,,,3.0,reviewed,us,us
12830,2008-04-13 02:06:15.450000+00:00,-55.581,158.827,10.0,4.5,mb,61.0,58.1,,0.72,us,usp000g3tb,2014-11-07T01:35:36.494Z,Macquarie Island region,earthquake,,,,7.0,reviewed,us,us
12919,2008-04-12 18:02:04.770000+00:00,-55.282,158.72799999999998,10.0,4.9,mb,37.0,63.1,,1.03,us,usp000g3sk,2014-11-07T01:35:36.419Z,Macquarie Island region,earthquake,,,,9.0,reviewed,us,us
12921,2008-04-12 17:55:12.600000+00:00,-55.391000000000005,158.60299999999998,10.0,4.3,mb,13.0,141.7,,0.95,us,usp000g3sj,2014-11-07T01:35:36.417Z,Macquarie Island region,earthquake,,,,1.0,reviewed,us,us
12959,2008-04-12 15:25:40.200000+00:00,-55.331,158.579,10.0,4.5,mb,19.0,178.0,,0.64,us,usp000g3s6,2014-11-07T01:35:36.378Z,Macquarie Island region,earthquake,,,,3.0,reviewed,us,us
13001,2008-04-12 11:56:05.310000+00:00,-55.317,158.64,10.0,5.1,mwc,61.0,50.0,,0.8,us,usp000g3rt,2016-11-10T01:54:31.294Z,Macquarie Island region,earthquake,,,,,reviewed,us,gcmt
13068,2008-04-12 07:03:51.820000+00:00,-55.493,158.515,10.0,5.1,mb,93.0,59.8,,1.01,us,usp000g3r6,2014-11-07T01:35:36.203Z,Macquarie Island region,earthquake,,,,17.0,reviewed,us,us
13083,2008-04-12 06:09:45.980000+00:00,-55.633,158.457,10.0,4.5,mb,16.0,168.2,,1.17,us,usp000g3r4,2014-11-07T01:35:36.200Z,Macquarie Island region,earthquake,,,,2.0,reviewed,us,us
13123,2008-04-12 03:00:31.320000+00:00,-55.69,158.399,10.0,4.8,mb,38.0,95.8,,0.81,us,usp000g3qq,2014-11-07T01:35:36.161Z,Macquarie Island region,earthquake,,,,7.0,reviewed,us,us
13127,2008-04-12 02:42:31.510000+00:00,-55.37,157.846,10.0,4.3,mb,14.0,104.0,,1.14,us,usp000g3qp,2014-11-07T01:35:36.159Z,Macquarie Island region,earthquake,,,,2.0,reviewed,us,us
13144,2008-04-12 01:32:52.720000+00:00,-55.465,158.507,10.0,4.1,mb,12.0,192.3,,0.83,us,usp000g3qf,2014-11-07T01:35:36.141Z,Macquarie Island region,earthquake,,,,1.0,reviewed,us,us
13149,2008-04-12 01:00:59.370000+00:00,-55.525,158.189,10.0,4.6,mb,28.0,128.4,,0.69,us,usp000g3qc,2014-11-07T01:35:36.135Z,Macquarie Island region,earthquake,,,,4.0,reviewed,us,us
13154,2008-04-12 00:30:12.600000+00:00,-55.663999999999994,158.453,16.0,7.1,mwc,541.0,34.9,,0.99,us,usp000g3q9,2017-11-13T17:55:46.510Z,Macquarie Island region,earthquake,,,,,reviewed,us,us
