,time,latitude,longitude,depth,mag,magType,nst,gap,dmin,rms,net,id,updated,place,type,horizontalError,depthError,magError,magNst,status,locationSource,magSource
21,1973-06-29 16:39:00.100000+00:00,43.258,146.796,33.0,4.6,mb,,,,,us,usp00002fk,2014-11-06T23:21:14.012Z,Kuril Islands,earthquake,,,,,reviewed,us,us
31,1973-06-29 03:26:53.200000+00:00,43.402,145.80100000000002,50.0,5.9,mb,,,,,us,usp00002fb,2017-04-13T21:47:31.535Z,"Hokkaido, Japan region",earthquake,,,,,reviewed,us,us
33,1973-06-29 01:27:53.800000+00:00,43.592,145.991,58.0,4.9,mb,,,,,us,usp00002f9,2014-11-06T23:21:13.998Z,"Hokkaido, Japan region",earthquake,,,,,reviewed,us,us
64,1973-06-27 20:22:27.200000+00:00,42.669,145.418,33.0,4.7,mb,,,,,us,usp00002eh,2014-11-06T23:21:13.968Z,"Hokkaido, Japan region",earthquake,,,,,reviewed,us,us
75,1973-06-27 03:42:38+00:00,42.552,145.783,38.0,5.2,mb,,,,,us,usp00002e8,2014-11-06T23:21:13.958Z,"Hokkaido, Japan region",earthquake,,,,,reviewed,us,us
77,1973-06-27 03:15:20.400000+00:00,43.132,146.791,45.0,5.0,mb,,,,,us,usp00002e6,2014-11-06T23:21:13.957Z,Kuril Islands,earthquake,,,,,reviewed,us,us
78,1973-06-27 01:41:16.100000+00:00,43.099,146.503,46.0,5.4,mb,,,,,us,usp00002e5,2015-05-13T18:53:08.000Z,Kuril Islands,earthquake,,,,,reviewed,us,us
80,1973-06-27 01:02:59.200000+00:00,42.76,146.615,41.0,5.1,mb,,,,,us,usp00002e3,2014-11-06T23:21:13.954Z,"off the coast of Hokkaido, Japan",earthquake,,,,,reviewed,us,us
81,1973-06-26 23:51:16.800000+00:00,43.302,146.469,26.0,4.1,mb,,,,,us,usp00002e2,2014-11-06T23:21:13.953Z,Kuril Islands,earthquake,,,,,reviewed,us,us
83,1973-06-26 22:57:13+00:00,42.801,146.641,44.0,5.3,mb,,,,,us,usp00002e0,2014-11-06T23:21:13.951Z,"off the coast of Hokkaido, Japan",earthquake,,,,,reviewed,us,us
84,1973-06-26 22:45:32.500000+00:00,43.001999999999995,146.651,44.0,5.4,mb,,,,,us,usp00002dz,2015-05-13T18:53:08.000Z,Kuril Islands,earthquake,,,,,reviewed,us,us
85,1973-06-26 22:41:34.600000+00:00,42.847,146.739,41.0,5.5,mb,,,,,us,usp00002dy,2015-05-13T18:53:08.000Z,"off the coast of Hokkaido, Japan",earthquake,,,,,reviewed,us,us
86,1973-06-26 22:32:00.200000+00:00,43.175,146.56,50.0,6.6,ms,,,,,us,usp00002dx,2017-04-26T17:26:48.313Z,Kuril Islands,earthquake,,,,,reviewed,us,us
89,1973-06-26 18:16:33.100000+00:00,43.768,145.707,43.0,4.4,mb,,,,,us,usp00002du,2014-11-06T23:21:13.946Z,"Hokkaido, Japan region",earthquake,,,,,reviewed,us,us
90,1973-06-26 18:02:24.100000+00:00,43.018,147.11,39.0,5.8,ms,,,,,us,usp00002dt,2015-05-13T18:53:08.000Z,Kuril Islands,earthquake,,,,,reviewed,us,us
93,1973-06-26 12:18:08.900000+00:00,43.102,146.014,46.0,5.3,mb,,,,,us,usp00002dr,2014-11-06T23:21:13.943Z,Kuril Islands,earthquake,,,,,reviewed,us,us
94,1973-06-26 11:39:23.900000+00:00,43.06100000000001,146.609,57.0,5.3,mb,,,,,us,usp00002dq,2014-11-06T23:21:13.942Z,Kuril Islands,earthquake,,,,,reviewed,us,us
104,1973-06-25 22:13:50.200000+00:00,43.02,146.215,49.0,4.2,mb,,,,,us,usp00002dg,2014-11-06T23:21:13.934Z,Kuril Islands,earthquake,,,,,reviewed,us,us
106,1973-06-25 21:16:30+00:00,42.696999999999996,145.829,67.0,4.0,mb,,,,,us,usp00002df,2014-11-06T23:21:13.918Z,"Hokkaido, Japan region",earthquake,,,,,reviewed,us,us
109,1973-06-25 19:06:03.400000+00:00,43.208999999999996,146.409,33.0,4.5,mb,,,,,us,usp00002dc,2014-11-06T23:21:13.916Z,Kuril Islands,earthquake,,,,,reviewed,us,us
110,1973-06-25 18:59:09.600000+00:00,43.722,144.20600000000002,33.0,4.1,mb,,,,,us,usp00002db,2014-11-06T23:21:13.915Z,"Hokkaido, Japan region",earthquake,,,,,reviewed,us,us
113,1973-06-25 16:12:33.400000+00:00,43.266000000000005,146.874,40.0,4.3,mb,,,,,us,usp00002d9,2014-11-06T23:21:13.913Z,Kuril Islands,earthquake,,,,,reviewed,us,us
120,1973-06-25 10:32:25.900000+00:00,43.012,146.879,64.0,4.2,mb,,,,,us,usp00002d2,2014-11-06T23:21:13.906Z,Kuril Islands,earthquake,,,,,reviewed,us,us
122,1973-06-25 08:19:33.800000+00:00,43.108999999999995,146.39700000000002,39.0,4.6,mb,,,,,us,usp00002d0,2014-11-06T23:21:13.904Z,Kuril Islands,earthquake,,,,,reviewed,us,us
132,1973-06-25 00:37:37.600000+00:00,43.04600000000001,146.39700000000002,65.0,4.3,mb,,,,,us,usp00002cr,2014-11-06T23:21:13.895Z,Kuril Islands,earthquake,,,,,reviewed,us,us
133,1973-06-25 00:23:48.700000+00:00,43.049,147.05,67.0,4.3,mb,,,,,us,usp00002cq,2014-11-06T23:21:13.894Z,Kuril Islands,earthquake,,,,,reviewed,us,us
136,1973-06-24 20:00:16.100000+00:00,43.297,146.8,51.0,5.1,mb,,,,,us,usp00002cm,2014-11-06T23:21:13.891Z,Kuril Islands,earthquake,,,,,reviewed,us,us
137,1973-06-24 18:41:49.300000+00:00,43.062,146.946,36.0,5.2,mb,,,,,us,usp00002ck,2014-11-06T23:21:13.890Z,Kuril Islands,earthquake,,,,,reviewed,us,us
139,1973-06-24 17:49:25.400000+00:00,43.183,146.404,40.0,4.9,mb,,,,,us,usp00002ch,2014-11-06T23:21:13.791Z,Kuril Islands,earthquake,,,,,reviewed,us,us
146,1973-06-24 10:53:54.100000+00:00,43.062,146.47799999999998,60.0,5.4,mb,,,,,us,usp00002ca,2015-05-13T18:53:08.000Z,Kuril Islands,earthquake,,,,,reviewed,us,us
147,1973-06-24 10:40:46.800000+00:00,43.299,146.736,33.0,4.3,mb,,,,,us,usp00002c9,2014-11-06T23:21:13.784Z,Kuril Islands,earthquake,,,,,reviewed,us,us
149,1973-06-24 10:28:45.300000+00:00,43.211000000000006,146.72,59.0,4.3,mb,,,,,us,usp00002c8,2014-11-06T23:21:13.783Z,Kuril Islands,earthquake,,,,,reviewed,us,us
150,1973-06-24 09:49:21.600000+00:00,42.938,146.52,54.0,4.4,mb,,,,,us,usp00002c7,2014-11-06T23:21:13.782Z,"off the coast of Hokkaido, Japan",earthquake,,,,,reviewed,us,us
153,1973-06-24 09:12:11.300000+00:00,43.263000000000005,146.283,33.0,4.1,mb,,,,,us,usp00002c4,2014-11-06T23:21:13.780Z,Kuril Islands,earthquake,,,,,reviewed,us,us
154,1973-06-24 07:08:52.100000+00:00,43.141000000000005,146.692,42.0,4.8,mb,,,,,us,usp00002c3,2014-11-06T23:21:13.779Z,Kuril Islands,earthquake,,,,,reviewed,us,us
155,1973-06-24 05:07:46.800000+00:00,43.125,146.57399999999998,44.0,5.8,mb,,,,,us,usp00002c2,2015-05-13T18:53:08.000Z,Kuril Islands,earthquake,,,,,reviewed,us,us
156,1973-06-24 04:43:25.700000+00:00,43.107,146.747,62.0,5.0,mb,,,,,us,usp00002c1,2014-11-06T23:21:13.596Z,Kuril Islands,earthquake,,,,,reviewed,us,us
157,1973-06-24 03:54:06.200000+00:00,43.108000000000004,146.585,65.0,4.2,mb,,,,,us,usp00002c0,2014-11-06T23:21:13.595Z,Kuril Islands,earthquake,,,,,reviewed,us,us
158,1973-06-24 03:47:45.800000+00:00,42.972,146.635,37.0,5.0,mb,,,,,us,usp00002bz,2014-11-06T23:21:13.594Z,"off the coast of Hokkaido, Japan",earthquake,,,,,reviewed,us,us
159,1973-06-24 03:40:35+00:00,43.236999999999995,146.744,33.0,5.1,mb,,,,,us,usp00002by,2014-11-06T23:21:13.592Z,Kuril Islands,earthquake,,,,,reviewed,us,us
160,1973-06-24 03:28:38.500000+00:00,43.302,146.815,47.0,5.5,mb,,,,,us,usp00002bx,2015-05-13T18:53:08.000Z,Kuril Islands,earthquake,,,,,reviewed,us,us
161,1973-06-24 03:04:18.600000+00:00,43.2,146.79,55.0,5.8,mb,,,,,us,usp00002bw,2015-05-13T18:53:08.000Z,Kuril Islands,earthquake,,,,,reviewed,us,us
162,1973-06-24 02:43:25.500000+00:00,43.318000000000005,146.442,50.0,7.1,ms,,,,,us,usp00002bv,2017-04-26T17:26:47.576Z,Kuril Islands,earthquake,,,,,reviewed,us,us
173,1973-06-23 12:04:18.200000+00:00,42.87,146.124,60.0,4.0,mb,,,,,us,usp00002bn,2014-11-06T23:21:13.581Z,"off the coast of Hokkaido, Japan",earthquake,,,,,reviewed,us,us
176,1973-06-23 08:16:55.500000+00:00,43.082,147.33100000000002,66.0,4.0,mb,,,,,us,usp00002bj,2014-11-06T23:21:13.577Z,Kuril Islands,earthquake,,,,,reviewed,us,us
177,1973-06-23 08:00:08.900000+00:00,43.012,146.17700000000002,31.0,4.6,mb,,,,,us,usp00002bh,2014-11-06T23:21:13.576Z,Kuril Islands,earthquake,,,,,reviewed,us,us
185,1973-06-23 04:30:55.700000+00:00,42.852,145.779,38.0,4.7,mb,,,,,us,usp00002bc,2014-11-06T23:21:13.571Z,"Hokkaido, Japan region",earthquake,,,,,reviewed,us,us
186,1973-06-23 02:09:40.100000+00:00,43.181999999999995,147.33,41.0,5.5,mb,,,,,us,usp00002bb,2015-05-13T18:53:08.000Z,Kuril Islands,earthquake,,,,,reviewed,us,us
198,1973-06-22 11:36:14.400000+00:00,42.701,145.05700000000002,69.0,4.6,mb,,,,,us,usp00002b1,2014-11-06T23:21:13.556Z,"Hokkaido, Japan region",earthquake,,,,,reviewed,us,us
203,1973-06-22 06:07:37.900000+00:00,42.941,146.339,53.0,5.5,mb,,,,,us,usp00002az,2015-05-13T18:53:08.000Z,"off the coast of Hokkaido, Japan",earthquake,,,,,reviewed,us,us
215,1973-06-22 01:44:06.400000+00:00,42.217,145.35,69.0,4.1,mb,,,,,us,usp00002at,2014-11-06T23:21:13.545Z,"Hokkaido, Japan region",earthquake,,,,,reviewed,us,us
231,1973-06-21 16:18:05.200000+00:00,43.519,145.903,26.0,4.1,mb,,,,,us,usp00002an,2014-11-06T23:21:13.539Z,"Hokkaido, Japan region",earthquake,,,,,reviewed,us,us
259,1973-06-21 12:52:15.400000+00:00,42.676,146.22799999999998,39.0,4.3,mb,,,,,us,usp00002ab,2014-11-06T23:21:13.500Z,"off the coast of Hokkaido, Japan",earthquake,,,,,reviewed,us,us
267,1973-06-21 05:58:33.600000+00:00,42.55,145.53,66.0,4.2,mb,,,,,us,usp00002a7,2014-11-06T23:21:13.495Z,"Hokkaido, Japan region",earthquake,,,,,reviewed,us,us
268,1973-06-21 05:21:23.300000+00:00,42.973,146.144,61.0,4.4,mb,,,,,us,usp00002a6,2014-11-06T23:21:13.493Z,"off the coast of Hokkaido, Japan",earthquake,,,,,reviewed,us,us
282,1973-06-20 14:30:40.900000+00:00,40.035,145.671,35.0,4.7,mb,,,,,us,usp00002a2,2014-11-06T23:21:13.472Z,"off the east coast of Honshu, Japan",earthquake,,,,,reviewed,us,us
285,1973-06-20 10:12:00.500000+00:00,42.833,145.76,33.0,4.0,mb,,,,,us,usp000029z,2014-11-06T23:21:13.468Z,"Hokkaido, Japan region",earthquake,,,,,reviewed,us,us
287,1973-06-20 09:20:34.300000+00:00,43.126999999999995,146.004,36.0,5.0,mb,,,,,us,usp000029x,2014-11-06T23:21:13.466Z,Kuril Islands,earthquake,,,,,reviewed,us,us
288,1973-06-20 06:51:36.700000+00:00,43.3,145.95600000000002,33.0,4.0,mb,,,,,us,usp000029w,2014-11-06T23:21:13.465Z,"Hokkaido, Japan region",earthquake,,,,,reviewed,us,us
290,1973-06-20 06:11:35+00:00,42.747,146.224,41.0,4.3,mb,,,,,us,usp000029v,2014-11-06T23:21:13.463Z,"off the coast of Hokkaido, Japan",earthquake,,,,,reviewed,us,us
293,1973-06-20 04:53:31.900000+00:00,42.748999999999995,145.734,33.0,4.5,mb,,,,,us,usp000029u,2014-11-06T23:21:13.462Z,"Hokkaido, Japan region",earthquake,,,,,reviewed,us,us
298,1973-06-19 20:05:52.700000+00:00,42.781000000000006,146.332,45.0,5.3,mb,,,,,us,usp000029r,2014-11-06T23:21:13.459Z,"off the coast of Hokkaido, Japan",earthquake,,,,,reviewed,us,us
299,1973-06-19 17:10:14.900000+00:00,42.56,145.858,41.0,5.3,mb,,,,,us,usp000029q,2014-11-06T23:21:13.457Z,"Hokkaido, Japan region",earthquake,,,,,reviewed,us,us
304,1973-06-19 12:36:52.100000+00:00,43.284,145.969,33.0,4.6,mb,,,,,us,usp000029k,2014-11-06T23:21:13.453Z,"Hokkaido, Japan region",earthquake,,,,,reviewed,us,us
305,1973-06-19 11:40:58.200000+00:00,42.793,146.265,33.0,4.9,mb,,,,,us,usp000029j,2014-11-06T23:21:13.452Z,"off the coast of Hokkaido, Japan",earthquake,,,,,reviewed,us,us
306,1973-06-19 10:58:49.200000+00:00,42.93,146.463,37.0,5.0,mb,,,,,us,usp000029h,2014-11-06T23:21:13.451Z,"off the coast of Hokkaido, Japan",earthquake,,,,,reviewed,us,us
310,1973-06-19 09:37:19.300000+00:00,42.911,146.45600000000002,42.0,5.1,mb,,,,,us,usp000029d,2014-11-06T23:21:13.447Z,"off the coast of Hokkaido, Japan",earthquake,,,,,reviewed,us,us
312,1973-06-19 08:36:18.900000+00:00,42.916000000000004,146.48,36.0,5.3,mb,,,,,us,usp000029c,2014-11-06T23:21:13.446Z,"off the coast of Hokkaido, Japan",earthquake,,,,,reviewed,us,us
313,1973-06-19 07:35:48.500000+00:00,42.715,146.19799999999998,33.0,4.8,mb,,,,,us,usp000029b,2014-11-06T23:21:13.445Z,"off the coast of Hokkaido, Japan",earthquake,,,,,reviewed,us,us
315,1973-06-19 06:37:54.400000+00:00,42.855,146.496,42.0,5.3,mb,,,,,us,usp0000299,2015-05-13T18:53:08.000Z,"off the coast of Hokkaido, Japan",earthquake,,,,,reviewed,us,us
316,1973-06-19 06:26:12.800000+00:00,42.733000000000004,145.618,33.0,4.6,mb,,,,,us,usp0000298,2014-11-06T23:21:13.442Z,"Hokkaido, Japan region",earthquake,,,,,reviewed,us,us
317,1973-06-19 05:14:18.900000+00:00,42.674,146.174,34.0,4.7,mb,,,,,us,usp0000297,2014-11-06T23:21:13.441Z,"off the coast of Hokkaido, Japan",earthquake,,,,,reviewed,us,us
319,1973-06-19 04:29:27.800000+00:00,42.375,145.80100000000002,52.0,4.9,mb,,,,,us,usp0000295,2014-11-06T23:21:13.439Z,"Hokkaido, Japan region",earthquake,,,,,reviewed,us,us
321,1973-06-19 02:54:09.800000+00:00,42.715,146.035,43.0,5.6,mb,,,,,us,usp0000293,2015-05-13T18:53:08.000Z,"off the coast of Hokkaido, Japan",earthquake,,,,,reviewed,us,us
322,1973-06-19 02:22:05.600000+00:00,42.906000000000006,146.724,49.0,5.2,mb,,,,,us,usp0000292,2014-11-06T23:21:13.436Z,"off the coast of Hokkaido, Japan",earthquake,,,,,reviewed,us,us
324,1973-06-19 02:00:17.900000+00:00,42.738,145.947,36.0,4.6,mb,,,,,us,usp0000290,2014-11-06T23:21:13.433Z,"Hokkaido, Japan region",earthquake,,,,,reviewed,us,us
325,1973-06-18 23:55:38.600000+00:00,42.931999999999995,145.34799999999998,33.0,4.3,mb,,,,,us,usp000028z,2014-11-06T23:21:13.433Z,"Hokkaido, Japan region",earthquake,,,,,reviewed,us,us
327,1973-06-18 20:31:37.400000+00:00,42.705,146.291,34.0,5.1,mb,,,,,us,usp000028x,2014-11-06T23:21:13.430Z,"off the coast of Hokkaido, Japan",earthquake,,,,,reviewed,us,us
328,1973-06-18 18:24:19.600000+00:00,42.308,145.411,29.0,5.3,mb,,,,,us,usp000028w,2014-11-06T23:21:13.430Z,"Hokkaido, Japan region",earthquake,,,,,reviewed,us,us
329,1973-06-18 17:45:43.700000+00:00,42.498000000000005,145.969,29.0,5.8,mb,,,,,us,usp000028v,2015-05-13T18:53:08.000Z,"Hokkaido, Japan region",earthquake,,,,,reviewed,us,us
332,1973-06-18 14:31:39.800000+00:00,43.419,147.126,36.0,4.7,mb,,,,,us,usp000028t,2014-11-06T23:21:13.425Z,Kuril Islands,earthquake,,,,,reviewed,us,us
333,1973-06-18 14:29:39.200000+00:00,43.543,146.952,33.0,4.5,mb,,,,,us,usp000028s,2014-11-06T23:21:13.424Z,Kuril Islands,earthquake,,,,,reviewed,us,us
334,1973-06-18 13:13:51+00:00,42.628,145.825,35.0,4.8,mb,,,,,us,usp000028r,2014-11-06T23:21:13.423Z,"Hokkaido, Japan region",earthquake,,,,,reviewed,us,us
335,1973-06-18 11:36:38.600000+00:00,42.891999999999996,145.825,33.0,4.3,mb,,,,,us,usp000028q,2014-11-06T23:21:13.422Z,"Hokkaido, Japan region",earthquake,,,,,reviewed,us,us
337,1973-06-18 09:54:14.200000+00:00,43.027,145.316,55.0,4.1,mb,,,,,us,usp000028n,2014-11-06T23:21:13.419Z,"Hokkaido, Japan region",earthquake,,,,,reviewed,us,us
339,1973-06-18 05:37:37.700000+00:00,42.601000000000006,146.38299999999998,38.0,5.7,ms,,,,,us,usp000028k,2015-05-13T18:53:08.000Z,"off the coast of Hokkaido, Japan",earthquake,,,,,reviewed,us,us
340,1973-06-18 04:55:17.100000+00:00,42.963,146.156,37.0,4.6,mb,,,,,us,usp000028j,2014-11-06T23:21:13.416Z,"off the coast of Hokkaido, Japan",earthquake,,,,,reviewed,us,us
341,1973-06-18 04:32:35.300000+00:00,42.92,146.282,33.0,4.5,mb,,,,,us,usp000028h,2014-11-06T23:21:13.415Z,"off the coast of Hokkaido, Japan",earthquake,,,,,reviewed,us,us
342,1973-06-18 04:23:00.400000+00:00,43.015,146.418,37.0,4.7,mb,,,,,us,usp000028g,2014-11-06T23:21:13.414Z,Kuril Islands,earthquake,,,,,reviewed,us,us
345,1973-06-18 02:19:30+00:00,42.6,146.246,30.0,5.2,mb,,,,,us,usp000028e,2014-11-06T23:21:13.412Z,"off the coast of Hokkaido, Japan",earthquake,,,,,reviewed,us,us
346,1973-06-18 02:12:06.900000+00:00,42.75899999999999,146.78,36.0,4.9,mb,,,,,us,usp000028d,2014-11-06T23:21:13.410Z,"off the coast of Hokkaido, Japan",earthquake,,,,,reviewed,us,us
347,1973-06-18 01:56:30.900000+00:00,41.068000000000005,143.714,34.0,4.5,mb,,,,,us,usp000028c,2014-11-06T23:21:13.409Z,"Hokkaido, Japan region",earthquake,,,,,reviewed,us,us
350,1973-06-18 01:09:00+00:00,43.165,146.326,33.0,4.5,mb,,,,,us,usp0000289,2014-11-06T23:21:13.405Z,Kuril Islands,earthquake,,,,,reviewed,us,us
351,1973-06-17 22:15:33.200000+00:00,42.968,145.496,50.0,4.9,mb,,,,,us,usp0000288,2014-11-06T23:21:13.404Z,"Hokkaido, Japan region",earthquake,,,,,reviewed,us,us
352,1973-06-17 21:26:14.200000+00:00,43.0,145.344,50.0,5.2,mb,,,,,us,usp0000287,2014-11-06T23:21:13.399Z,"Hokkaido, Japan region",earthquake,,,,,reviewed,us,us
353,1973-06-17 21:23:42.600000+00:00,42.961000000000006,145.94899999999998,33.0,4.8,mb,,,,,us,usp0000286,2014-11-06T23:21:13.398Z,"Hokkaido, Japan region",earthquake,,,,,reviewed,us,us
354,1973-06-17 21:03:35.700000+00:00,42.84,145.952,47.0,5.0,mb,,,,,us,usp0000285,2014-11-06T23:21:13.397Z,"Hokkaido, Japan region",earthquake,,,,,reviewed,us,us
355,1973-06-17 20:37:57.300000+00:00,42.706,146.041,50.0,6.0,ms,,,,,us,usp0000284,2015-05-13T18:53:08.000Z,"off the coast of Hokkaido, Japan",earthquake,,,,,reviewed,us,us
356,1973-06-17 19:03:35.100000+00:00,42.683,146.33700000000002,32.0,5.6,mb,,,,,us,usp0000283,2015-05-13T18:53:08.000Z,"off the coast of Hokkaido, Japan",earthquake,,,,,reviewed,us,us
357,1973-06-17 18:55:39.600000+00:00,42.964,146.48,45.0,5.7,mb,,,,,us,usp0000282,2015-05-13T18:53:08.000Z,"off the coast of Hokkaido, Japan",earthquake,,,,,reviewed,us,us
358,1973-06-17 18:22:02.500000+00:00,43.26,145.713,33.0,4.3,mb,,,,,us,usp0000281,2014-11-06T23:21:13.392Z,"Hokkaido, Japan region",earthquake,,,,,reviewed,us,us
362,1973-06-17 14:24:13.800000+00:00,42.902,145.32399999999998,34.0,4.9,mb,,,,,us,usp000027y,2014-11-06T23:21:13.388Z,"Hokkaido, Japan region",earthquake,,,,,reviewed,us,us
363,1973-06-17 13:43:08.700000+00:00,42.952,146.657,40.0,5.5,mb,,,,,us,usp000027x,2015-05-13T18:53:08.000Z,"off the coast of Hokkaido, Japan",earthquake,,,,,reviewed,us,us
364,1973-06-17 13:33:28.300000+00:00,43.068999999999996,145.375,46.0,5.6,mb,,,,,us,usp000027w,2015-05-13T18:53:08.000Z,"Hokkaido, Japan region",earthquake,,,,,reviewed,us,us
365,1973-06-17 13:22:15.200000+00:00,42.61,146.001,33.0,4.9,mb,,,,,us,usp000027v,2014-11-06T23:21:13.385Z,"off the coast of Hokkaido, Japan",earthquake,,,,,reviewed,us,us
367,1973-06-17 12:24:34.800000+00:00,42.619,146.446,36.0,5.5,mb,,,,,us,usp000027t,2015-05-13T18:53:08.000Z,"off the coast of Hokkaido, Japan",earthquake,,,,,reviewed,us,us
368,1973-06-17 12:14:25.800000+00:00,42.916000000000004,145.569,41.0,5.5,mb,,,,,us,usp000027s,2015-05-13T18:53:08.000Z,"Hokkaido, Japan region",earthquake,,,,,reviewed,us,us
370,1973-06-17 11:35:33.600000+00:00,43.488,146.455,33.0,4.7,mb,,,,,us,usp000027q,2014-11-06T23:21:13.373Z,Kuril Islands,earthquake,,,,,reviewed,us,us
372,1973-06-17 11:19:49.700000+00:00,43.167,145.76,33.0,4.3,mb,,,,,us,usp000027n,2014-11-06T23:21:13.370Z,"Hokkaido, Japan region",earthquake,,,,,reviewed,us,us
373,1973-06-17 10:59:18.800000+00:00,42.953,146.946,37.0,4.8,mb,,,,,us,usp000027m,2014-11-06T23:21:13.369Z,"off the coast of Hokkaido, Japan",earthquake,,,,,reviewed,us,us
375,1973-06-17 10:24:12.400000+00:00,42.333999999999996,145.692,41.0,4.6,mb,,,,,us,usp000027k,2014-11-06T23:21:13.368Z,"Hokkaido, Japan region",earthquake,,,,,reviewed,us,us
377,1973-06-17 09:18:19.200000+00:00,43.163999999999994,146.487,33.0,4.5,mb,,,,,us,usp000027h,2014-11-06T23:21:13.364Z,Kuril Islands,earthquake,,,,,reviewed,us,us
379,1973-06-17 08:55:30.900000+00:00,42.658,145.989,33.0,4.6,mb,,,,,us,usp000027f,2014-11-06T23:21:13.361Z,"Hokkaido, Japan region",earthquake,,,,,reviewed,us,us
380,1973-06-17 08:48:19.400000+00:00,42.908,146.455,37.0,5.2,mb,,,,,us,usp000027e,2014-11-06T23:21:13.360Z,"off the coast of Hokkaido, Japan",earthquake,,,,,reviewed,us,us
381,1973-06-17 08:40:51.100000+00:00,43.206,145.83,33.0,4.6,mb,,,,,us,usp000027d,2014-11-06T23:21:13.359Z,"Hokkaido, Japan region",earthquake,,,,,reviewed,us,us
382,1973-06-17 08:17:47.700000+00:00,43.005,146.416,41.0,5.2,mb,,,,,us,usp000027c,2014-11-06T23:21:13.357Z,Kuril Islands,earthquake,,,,,reviewed,us,us
383,1973-06-17 07:46:40.300000+00:00,42.928999999999995,145.61,33.0,4.3,mb,,,,,us,usp000027b,2014-11-06T23:21:13.356Z,"Hokkaido, Japan region",earthquake,,,,,reviewed,us,us
386,1973-06-17 07:00:23.800000+00:00,42.992,145.55200000000002,33.0,4.1,mb,,,,,us,usp0000279,2014-11-06T23:21:13.353Z,"Hokkaido, Japan region",earthquake,,,,,reviewed,us,us
387,1973-06-17 06:47:48.700000+00:00,43.166000000000004,146.369,33.0,4.5,mb,,,,,us,usp0000278,2014-11-06T23:21:13.352Z,Kuril Islands,earthquake,,,,,reviewed,us,us
388,1973-06-17 06:29:28.400000+00:00,43.382,146.178,33.0,4.4,mb,,,,,us,usp0000277,2014-11-06T23:21:13.351Z,Kuril Islands,earthquake,,,,,reviewed,us,us
389,1973-06-17 06:08:19.800000+00:00,42.793,146.328,33.0,4.4,mb,,,,,us,usp0000276,2014-11-06T23:21:13.349Z,"off the coast of Hokkaido, Japan",earthquake,,,,,reviewed,us,us
390,1973-06-17 05:52:10.900000+00:00,43.07899999999999,146.138,44.0,5.1,mb,,,,,us,usp0000275,2014-11-06T23:21:13.348Z,Kuril Islands,earthquake,,,,,reviewed,us,us
391,1973-06-17 05:12:09.300000+00:00,42.666000000000004,146.12,44.0,5.4,mb,,,,,us,usp0000274,2015-05-13T18:53:08.000Z,"off the coast of Hokkaido, Japan",earthquake,,,,,reviewed,us,us
392,1973-06-17 05:09:58.500000+00:00,43.49,146.161,29.0,4.8,mb,,,,,us,usp0000273,2014-11-06T23:21:13.345Z,Kuril Islands,earthquake,,,,,reviewed,us,us
393,1973-06-17 04:19:32.200000+00:00,42.425,145.805,35.0,5.4,mb,,,,,us,usp0000272,2014-11-06T23:21:13.343Z,"Hokkaido, Japan region",earthquake,,,,,reviewed,us,us
394,1973-06-17 04:09:12.400000+00:00,42.996,146.409,33.0,5.9,mb,,,,,us,usp0000271,2015-05-13T18:53:08.000Z,"off the coast of Hokkaido, Japan",earthquake,,,,,reviewed,us,us
395,1973-06-17 03:55:02.900000+00:00,43.233000000000004,145.785,48.0,7.7,ms,,,,,us,usp0000270,2017-04-26T17:26:46.942Z,"Hokkaido, Japan region",earthquake,,,,,reviewed,us,us
