,time,latitude,longitude,depth,mag,magType,nst,gap,dmin,rms,net,id,updated,place,type,horizontalError,depthError,magError,magNst,status,locationSource,magSource
984,2009-03-26 10:00:30.890000+00:00,-23.061999999999998,-175.174,42.3,5.2,mwc,138.0,50.6,,0.91,us,usp000gvej,2016-11-10T02:10:02.465Z,Tonga region,earthquake,,,,,reviewed,us,gcmt
1124,2009-03-26 01:41:00.130000+00:00,-23.883000000000003,-175.67700000000002,59.6,4.8,mb,52.0,110.2,,1.03,us,usp000gve4,2014-11-07T01:38:37.858Z,Tonga region,earthquake,,11.7,,20.0,reviewed,us,us
1169,2009-03-25 21:46:00.840000+00:00,-23.665,-175.77599999999998,59.1,5.5,mwc,95.0,61.0,,1.16,us,usp000gvdx,2016-11-09T07:48:20.403Z,Tonga region,earthquake,,14.0,,,reviewed,us,gcmt
1612,2009-03-24 03:58:44.250000+00:00,-23.53,-174.692,35.0,4.8,mb,24.0,105.2,,0.75,us,usp000gvc3,2014-11-07T01:38:37.218Z,Tonga region,earthquake,,,,6.0,reviewed,us,us
1744,2009-03-23 04:43:34.450000+00:00,-22.816999999999997,-175.25099999999998,36.3,5.1,mwc,110.0,76.4,,0.96,us,usp000gvb3,2016-11-10T02:09:57.275Z,Tonga region,earthquake,,20.7,,,reviewed,us,gcmt
1791,2009-03-22 19:52:15.290000+00:00,-23.346999999999998,-174.78,35.0,4.8,mb,26.0,90.7,,0.99,us,usp000gvam,2014-11-07T01:38:36.986Z,Tonga region,earthquake,,,,3.0,reviewed,us,us
1838,2009-03-22 11:48:28.610000+00:00,-22.654,-175.12099999999998,35.0,4.6,mb,52.0,76.4,,0.97,us,usp000gva4,2014-11-07T01:38:36.918Z,Tonga region,earthquake,,,,18.0,reviewed,us,us
1846,2009-03-22 10:42:12.320000+00:00,-23.391,-174.729,35.0,4.7,mb,12.0,191.9,,0.76,us,usp000gva1,2014-11-07T01:38:36.912Z,Tonga region,earthquake,,,,3.0,reviewed,us,us
1848,2009-03-22 10:27:46.710000+00:00,-23.605,-174.33599999999998,35.0,4.9,mb,14.0,165.2,,0.9,us,usp000gva0,2014-11-07T01:38:36.910Z,Tonga region,earthquake,,,,3.0,reviewed,us,us
1906,2009-03-22 01:54:48.200000+00:00,-22.91,-174.78099999999998,35.0,4.8,mb,82.0,104.5,,0.71,us,usp000gv9j,2014-11-07T01:38:36.855Z,Tonga region,earthquake,,,,30.0,reviewed,us,us
1956,2009-03-21 20:49:22.740000+00:00,-23.024,-175.38299999999998,35.0,4.6,mb,13.0,138.2,,0.66,us,usp000gv98,2014-11-07T01:38:36.821Z,Tonga region,earthquake,,,,2.0,reviewed,us,us
1985,2009-03-21 20:09:21.490000+00:00,-22.823,-175.168,35.0,4.7,mb,13.0,165.4,,0.96,us,usp000gv90,2014-11-07T01:38:36.789Z,Tonga region,earthquake,,,,4.0,reviewed,us,us
2000,2009-03-21 17:38:39.850000+00:00,-23.434,-175.26,35.0,5.0,mb,41.0,121.5,,1.27,us,usp000gv8u,2014-11-07T01:38:36.761Z,Tonga region,earthquake,,,,12.0,reviewed,us,us
2023,2009-03-21 13:59:13.220000+00:00,-23.115,-174.52700000000002,20.2,4.8,mb,11.0,118.5,,0.58,us,usp000gv8r,2014-11-07T01:38:36.755Z,Tonga region,earthquake,,47.4,,2.0,reviewed,us,us
2035,2009-03-21 12:14:52.690000+00:00,-23.271,-174.59599999999998,35.0,4.6,mb,18.0,104.3,,1.07,us,usp000gv8p,2014-11-07T01:38:36.752Z,Tonga region,earthquake,,,,2.0,reviewed,us,us
2043,2009-03-21 11:33:40.450000+00:00,-23.46,-175.74900000000002,35.0,4.7,mb,30.0,109.9,,0.96,us,usp000gv8m,2014-11-07T01:38:36.744Z,Tonga region,earthquake,,,,7.0,reviewed,us,us
2053,2009-03-21 10:22:00.530000+00:00,-23.386,-174.52700000000002,35.0,4.7,mb,17.0,104.2,,0.77,us,usp000gv8h,2014-11-07T01:38:36.734Z,Tonga region,earthquake,,,,2.0,reviewed,us,us
2098,2009-03-21 06:08:02.490000+00:00,-22.61,-176.47400000000002,127.4,4.6,mb,75.0,44.9,,0.93,us,usp000gv8c,2014-11-07T01:38:36.701Z,south of the Fiji Islands,earthquake,,9.7,,29.0,reviewed,us,us
2102,2009-03-21 05:37:30.760000+00:00,-23.394000000000002,-174.75400000000002,35.0,4.9,mb,20.0,147.4,,0.98,us,usp000gv8a,2014-11-07T01:38:36.696Z,Tonga region,earthquake,,,,3.0,reviewed,us,us
2109,2009-03-21 04:50:19.990000+00:00,-23.331999999999997,-175.391,35.0,4.8,mb,55.0,108.1,,1.05,us,usp000gv89,2014-11-07T01:38:36.690Z,Tonga region,earthquake,,,,21.0,reviewed,us,us
2115,2009-03-21 04:31:40.080000+00:00,-23.147,-175.41299999999998,35.0,4.8,mb,39.0,121.8,,0.91,us,usp000gv88,2014-11-07T01:38:36.686Z,Tonga region,earthquake,,,,8.0,reviewed,us,us
2119,2009-03-21 04:09:35.940000+00:00,-22.674,-175.231,35.0,4.6,mb,30.0,120.5,,1.32,us,usp000gv87,2014-11-07T01:38:36.683Z,Tonga region,earthquake,,,,5.0,reviewed,us,us
2125,2009-03-21 03:33:21.540000+00:00,-22.551,-175.25,35.0,4.6,mb,20.0,121.5,,0.55,us,usp000gv85,2014-11-07T01:38:36.677Z,Tonga region,earthquake,,,,7.0,reviewed,us,us
2126,2009-03-21 03:25:27.680000+00:00,-23.590999999999998,-175.24400000000003,35.0,4.8,mb,24.0,191.9,,1.19,us,usp000gv84,2014-11-07T01:38:36.675Z,Tonga region,earthquake,,,,3.0,reviewed,us,us
2134,2009-03-21 02:41:43.450000+00:00,-23.261999999999997,-174.66299999999998,35.0,4.7,mb,12.0,285.5,,0.58,us,usp000gv83,2014-11-07T01:38:36.673Z,Tonga region,earthquake,,,,5.0,reviewed,us,us
2139,2009-03-21 01:27:58.020000+00:00,-23.316,-175.428,35.0,4.9,mb,83.0,76.4,,0.94,us,usp000gv81,2014-11-07T01:38:36.665Z,Tonga region,earthquake,,,,24.0,reviewed,us,us
2141,2009-03-21 01:18:35.870000+00:00,-23.263,-175.32299999999998,35.0,5.0,mb,53.0,76.4,,1.07,us,usp000gv80,2014-11-07T01:38:36.660Z,Tonga region,earthquake,,,,15.0,reviewed,us,us
2175,2009-03-20 21:41:29.600000+00:00,-23.174,-174.637,37.1,4.7,mb,28.0,104.3,,0.86,us,usp000gv7u,2014-11-07T01:38:36.643Z,Tonga region,earthquake,,19.2,,8.0,reviewed,us,us
2197,2009-03-20 18:46:33.060000+00:00,-23.250999999999998,-174.673,35.0,4.5,mb,13.0,149.4,,0.86,us,usp000gv7q,2014-11-07T01:38:36.627Z,Tonga region,earthquake,,,,2.0,reviewed,us,us
2226,2009-03-20 15:54:42.380000+00:00,-23.136,-174.644,35.0,5.0,mb,73.0,104.2,,1.03,us,usp000gv7n,2014-11-07T01:38:36.610Z,Tonga region,earthquake,,,,19.0,reviewed,us,us
2251,2009-03-20 14:00:05.170000+00:00,-22.857,-175.22799999999998,37.4,4.8,mb,60.0,76.2,,0.96,us,usp000gv7g,2014-11-07T01:38:36.590Z,Tonga region,earthquake,,,,25.0,reviewed,us,us
2257,2009-03-20 13:29:16.620000+00:00,-22.975,-175.24,35.0,4.9,mb,64.0,46.5,,0.83,us,usp000gv7e,2014-11-07T01:38:36.582Z,Tonga region,earthquake,,,,30.0,reviewed,us,us
2273,2009-03-20 11:26:24.490000+00:00,-22.701,-175.171,35.0,4.8,mb,20.0,202.2,,0.81,us,usp000gv78,2014-11-07T01:38:36.529Z,Tonga region,earthquake,,,,5.0,reviewed,us,us
2274,2009-03-20 11:23:39.270000+00:00,-23.014,-175.313,48.0,5.4,mwc,187.0,63.4,,1.19,us,usp000gv77,2016-11-10T02:09:48.309Z,Tonga region,earthquake,,11.6,,,reviewed,us,gcmt
2315,2009-03-20 07:02:52.920000+00:00,-23.486,-174.993,35.0,4.8,mb,26.0,124.1,,1.01,us,usp000gv6x,2014-11-07T01:38:36.482Z,Tonga region,earthquake,,,,7.0,reviewed,us,us
2321,2009-03-20 06:38:32.190000+00:00,-23.217,-175.10299999999998,35.0,4.6,mb,15.0,191.5,,0.64,us,usp000gv6t,2014-11-07T01:38:36.447Z,Tonga region,earthquake,,,,3.0,reviewed,us,us
2329,2009-03-20 06:00:56.540000+00:00,-23.676,-174.21900000000002,35.0,4.7,mb,15.0,165.7,,1.28,us,usp000gv6r,2014-11-07T01:38:36.444Z,Tonga region,earthquake,,,,4.0,reviewed,us,us
2334,2009-03-20 05:22:01.940000+00:00,-23.766,-175.46200000000002,35.0,4.9,mb,35.0,109.0,,1.22,us,usp000gv6p,2014-11-07T01:38:36.439Z,Tonga region,earthquake,,,,16.0,reviewed,us,us
2335,2009-03-20 05:20:32.320000+00:00,-23.947,-175.407,35.0,4.7,mb,21.0,192.3,,1.25,us,usp000gv6n,2014-11-07T01:38:36.436Z,Tonga region,earthquake,,,,5.0,reviewed,us,us
2341,2009-03-20 04:23:15.110000+00:00,-23.77,-174.49900000000002,35.0,4.5,mb,23.0,104.7,,0.64,us,usp000gv6h,2014-11-07T01:38:36.424Z,Tonga region,earthquake,,,,9.0,reviewed,us,us
2356,2009-03-20 02:10:38.550000+00:00,-22.851999999999997,-174.80900000000003,35.0,4.9,mb,88.0,91.5,,0.8,us,usp000gv6e,2014-11-07T01:38:36.407Z,Tonga region,earthquake,,,,34.0,reviewed,us,us
2366,2009-03-20 00:16:50.140000+00:00,-23.855,-174.558,35.0,4.2,mb,13.0,122.4,,1.22,us,usp000gv6d,2014-11-07T01:38:36.405Z,Tonga region,earthquake,,,,6.0,reviewed,us,us
2374,2009-03-19 23:15:52.370000+00:00,-23.268,-174.649,38.4,4.9,mb,22.0,104.5,,0.62,us,usp000gv68,2014-11-07T01:38:36.387Z,Tonga region,earthquake,,22.5,,3.0,reviewed,us,us
2390,2009-03-19 20:33:59.360000+00:00,-23.090999999999998,-174.676,35.0,5.3,mb,89.0,50.8,,1.14,us,usp000gv66,2015-05-13T18:53:55.000Z,Tonga region,earthquake,,,,29.0,reviewed,us,us
2391,2009-03-19 20:30:14.520000+00:00,-23.500999999999998,-174.513,35.0,4.9,mb,23.0,124.3,,1.05,us,usp000gv65,2014-11-07T01:38:36.373Z,Tonga region,earthquake,,,,7.0,reviewed,us,us
2392,2009-03-19 20:29:26.650000+00:00,-22.516,-174.928,35.0,4.8,mb,29.0,104.4,,1.19,us,usp000gv64,2014-11-07T01:38:36.370Z,Tonga region,earthquake,,,,4.0,reviewed,us,us
2398,2009-03-19 19:47:06.440000+00:00,-22.377,-175.03599999999997,35.0,4.6,mb,10.0,190.6,,1.08,us,usp000gv62,2014-11-07T01:38:36.367Z,Tonga region,earthquake,,,,2.0,reviewed,us,us
2400,2009-03-19 19:40:21.790000+00:00,-23.052,-174.859,35.0,4.7,mb,10.0,205.8,,0.8,us,usp000gv61,2014-11-07T01:38:36.366Z,Tonga region,earthquake,,,,3.0,reviewed,us,us
2401,2009-03-19 19:33:19.770000+00:00,-23.141,-174.745,35.0,4.7,mb,9.0,285.3,,0.58,us,usp000gv60,2014-11-07T01:38:36.364Z,Tonga region,earthquake,,,,2.0,reviewed,us,us
2402,2009-03-19 19:27:03.310000+00:00,-23.084,-174.97799999999998,35.4,5.0,mb,47.0,76.4,,1.08,us,usp000gv5z,2014-11-07T01:38:36.360Z,Tonga region,earthquake,,18.5,,11.0,reviewed,us,us
2404,2009-03-19 19:13:15.160000+00:00,-22.910999999999998,-175.12099999999998,35.0,4.8,mb,9.0,159.4,,0.91,us,usp000gv5x,2014-11-07T01:38:36.358Z,Tonga region,earthquake,,,,2.0,reviewed,us,us
2407,2009-03-19 19:06:03.650000+00:00,-23.296999999999997,-174.59099999999998,35.0,4.7,mb,7.0,285.5,,0.83,us,usp000gv5v,2014-11-07T01:38:36.355Z,Tonga region,earthquake,,,,1.0,reviewed,us,us
2409,2009-03-19 19:01:03.330000+00:00,-23.328000000000003,-174.65,35.0,4.6,mb,8.0,217.4,,0.88,us,usp000gv5u,2014-11-07T01:38:36.354Z,Tonga region,earthquake,,,,1.0,reviewed,us,us
2410,2009-03-19 19:00:07.810000+00:00,-22.987,-174.815,35.0,4.7,mb,9.0,205.8,,0.93,us,usp000gv5t,2014-11-07T01:38:36.352Z,Tonga region,earthquake,,,,2.0,reviewed,us,us
2411,2009-03-19 18:59:34.760000+00:00,-22.769000000000002,-175.048,35.0,4.6,mb,8.0,159.5,,0.54,us,usp000gv5s,2014-11-07T01:38:36.351Z,Tonga region,earthquake,,,,2.0,reviewed,us,us
2412,2009-03-19 18:55:06.390000+00:00,-23.596999999999998,-174.645,35.0,4.5,mb,11.0,128.9,,0.64,us,usp000gv5r,2014-11-07T01:38:36.349Z,Tonga region,earthquake,,,,2.0,reviewed,us,us
2415,2009-03-19 18:45:28.410000+00:00,-23.427,-174.61599999999999,35.0,4.9,mb,16.0,124.2,,1.04,us,usp000gv5q,2014-11-07T01:38:36.347Z,Tonga region,earthquake,,,,2.0,reviewed,us,us
2419,2009-03-19 18:17:40.470000+00:00,-23.043000000000003,-174.66,31.0,7.6,mwc,504.0,14.0,,1.0,us,usp000gv5p,2017-11-13T18:13:37.173Z,Tonga region,earthquake,,,,,reviewed,us,us
3072,2009-03-17 05:49:44.420000+00:00,-21.554000000000002,-177.935,389.1,4.7,mb,82.0,120.3,,1.15,us,usp000gv2n,2014-11-07T01:38:35.742Z,Fiji region,earthquake,,9.7,,35.0,reviewed,us,us
3190,2009-03-16 15:25:20.430000+00:00,-20.619,-175.705,86.1,5.0,mb,30.0,104.6,,1.19,us,usp000gv1p,2014-11-07T01:38:35.577Z,Tonga,earthquake,,21.0,,9.0,reviewed,us,us
3648,2009-03-14 03:04:12.320000+00:00,-20.03,-175.382,158.1,5.2,mwc,140.0,37.4,,0.79,us,usp000guza,2016-11-10T02:09:27.032Z,Tonga,earthquake,,,,,reviewed,us,gcmt
3832,2009-03-13 03:26:37.170000+00:00,-21.214000000000002,-175.525,84.3,4.6,mb,91.0,36.4,,0.85,us,usp000guy5,2014-11-07T01:38:34.713Z,Tonga,earthquake,,22.0,,29.0,reviewed,us,us
