,time,latitude,longitude,depth,mag,magType,nst,gap,dmin,rms,net,id,updated,place,type,horizontalError,depthError,magError,magNst,status,locationSource,magSource
3101,2009-10-14 09:34:35.460000+00:00,-11.578,165.97799999999998,35.0,5.0,mb,33.0,123.4,,1.18,us,usp000h2y1,2014-11-07T01:39:55.885Z,Santa Cruz Islands,earthquake,,,,10.0,reviewed,us,us
3117,2009-10-14 06:54:42.270000+00:00,-14.08,166.768,35.0,5.3,mwc,68.0,33.4,,0.97,us,usp000h2xt,2016-11-10T02:18:56.192Z,Vanuatu,earthquake,,,,,reviewed,us,gcmt
3132,2009-10-14 05:16:34.390000+00:00,-11.955,166.146,35.0,4.2,mb,20.0,117.0,,1.01,us,usp000h2xq,2014-11-07T01:39:55.850Z,Santa Cruz Islands,earthquake,,,,2.0,reviewed,us,us
3146,2009-10-14 03:42:00.260000+00:00,-12.68,166.50799999999998,35.0,4.4,mb,28.0,112.2,,0.66,us,usp000h2xn,2014-11-07T01:39:55.845Z,Santa Cruz Islands,earthquake,,,,3.0,reviewed,us,us
3152,2009-10-14 03:18:58.510000+00:00,-12.789000000000001,166.482,35.0,5.0,mwc,48.0,112.2,,0.9,us,usp000h2xj,2016-11-10T02:18:55.442Z,Santa Cruz Islands,earthquake,,,,,reviewed,us,gcmt
3176,2009-10-14 00:55:10.470000+00:00,-12.645999999999999,166.266,24.6,5.4,mwc,87.0,47.8,,0.87,us,usp000h2x6,2016-11-10T02:18:54.650Z,Santa Cruz Islands,earthquake,,4.4,,,reviewed,us,gcmt
3209,2009-10-13 22:11:20.210000+00:00,-12.478,165.58,11.6,4.7,mb,50.0,65.2,,0.84,us,usp000h2wv,2014-11-07T01:39:55.745Z,Santa Cruz Islands,earthquake,,18.4,,16.0,reviewed,us,us
3212,2009-10-13 21:30:04.200000+00:00,-11.867,165.935,35.0,4.2,mb,19.0,79.3,,0.85,us,usp000h2wu,2014-11-07T01:39:55.743Z,Santa Cruz Islands,earthquake,,,,4.0,reviewed,us,us
3220,2009-10-13 20:48:11.910000+00:00,-13.130999999999998,166.91,42.6,5.2,mb,66.0,128.1,,0.95,us,usp000h2wr,2015-05-13T18:53:56.000Z,Vanuatu,earthquake,,9.3,,33.0,reviewed,us,us
3243,2009-10-13 18:06:05.050000+00:00,-10.874,165.162,30.8,4.6,mb,15.0,155.2,,1.35,us,usp000h2wg,2014-11-07T01:39:55.677Z,Santa Cruz Islands,earthquake,,38.2,,4.0,reviewed,us,us
3244,2009-10-13 17:57:36.080000+00:00,-13.207,166.58900000000003,43.6,4.9,mwc,50.0,46.0,,0.92,us,usp000h2wf,2016-11-10T02:18:53.240Z,Vanuatu,earthquake,,10.7,,,reviewed,us,gcmt
3265,2009-10-13 14:50:56.100000+00:00,-12.32,165.562,16.8,4.8,mb,31.0,125.4,,0.66,us,usp000h2wa,2014-11-07T01:39:55.654Z,Santa Cruz Islands,earthquake,,23.7,,8.0,reviewed,us,us
3288,2009-10-13 12:41:23.660000+00:00,-12.147,165.519,35.0,4.1,mb,17.0,125.2,,0.95,us,usp000h2w4,2014-11-07T01:39:55.630Z,Santa Cruz Islands,earthquake,,,,2.0,reviewed,us,us
3316,2009-10-13 09:18:30.500000+00:00,-13.047,166.365,35.0,4.2,mb,18.0,161.3,,1.11,us,usp000h2vf,2014-11-07T01:39:55.495Z,Vanuatu,earthquake,,,,4.0,reviewed,us,us
3343,2009-10-13 07:31:31.470000+00:00,-11.462,166.081,35.3,4.3,mb,14.0,159.8,,0.99,us,usp000h2uw,2014-11-07T01:39:55.405Z,Santa Cruz Islands,earthquake,,25.9,,7.0,reviewed,us,us
3382,2009-10-13 04:54:20.570000+00:00,-12.297,165.638,35.0,4.6,mb,29.0,122.7,,1.03,us,usp000h2u6,2014-11-07T01:39:55.293Z,Santa Cruz Islands,earthquake,,,,8.0,reviewed,us,us
3384,2009-10-13 04:49:04.340000+00:00,-12.293,165.525,35.0,4.9,mwc,49.0,112.1,,0.93,us,usp000h2u5,2016-11-10T02:18:48.943Z,Santa Cruz Islands,earthquake,,,,,reviewed,us,gcmt
3412,2009-10-13 00:30:26.800000+00:00,-13.429,166.59,35.0,4.4,mb,20.0,161.8,,0.82,us,usp000h2u1,2014-11-07T01:39:55.264Z,Vanuatu,earthquake,,,,5.0,reviewed,us,us
3414,2009-10-13 00:21:35.050000+00:00,-13.504000000000001,166.592,39.7,5.1,mwc,71.0,62.9,,0.9,us,usp000h2u0,2016-11-10T02:18:47.068Z,Vanuatu,earthquake,,7.5,,,reviewed,us,gcmt
3420,2009-10-12 23:56:54.360000+00:00,-12.914000000000001,166.40599999999998,35.0,4.3,mb,16.0,84.8,,1.18,us,usp000h2ty,2014-11-07T01:39:55.252Z,Santa Cruz Islands,earthquake,,,,3.0,reviewed,us,us
3445,2009-10-12 21:02:28.360000+00:00,-14.099,166.52700000000002,35.0,4.5,mb,25.0,74.0,,0.97,us,usp000h2tt,2014-11-07T01:39:55.239Z,Vanuatu,earthquake,,,,6.0,reviewed,us,us
3446,2009-10-12 20:59:38.120000+00:00,-14.075,166.253,35.0,5.7,mwb,87.0,30.4,,1.28,us,usp000h2ts,2016-11-10T02:18:46.470Z,Vanuatu,earthquake,,,,,reviewed,us,us
3459,2009-10-12 18:44:51.820000+00:00,-13.004000000000001,166.718,35.0,4.9,mwc,42.0,65.3,,1.01,us,usp000h2tn,2016-11-10T02:18:44.797Z,Vanuatu,earthquake,,,,,reviewed,us,gcmt
3490,2009-10-12 13:42:51.160000+00:00,-13.219000000000001,166.548,43.1,4.6,mb,41.0,130.5,,1.02,us,usp000h2tf,2014-11-07T01:39:55.166Z,Vanuatu,earthquake,,13.1,,11.0,reviewed,us,us
3497,2009-10-12 12:44:38.570000+00:00,-11.682,166.34799999999998,42.0,5.5,mwb,106.0,42.5,,1.18,us,usp000h2te,2016-11-10T02:18:43.071Z,Santa Cruz Islands,earthquake,,,,,reviewed,us,us
3504,2009-10-12 11:02:56.100000+00:00,-11.805,166.99200000000002,35.0,5.0,mb,52.0,58.9,,1.03,us,usp000h2tc,2014-11-07T01:39:55.147Z,Santa Cruz Islands,earthquake,,,,22.0,reviewed,us,us
3512,2009-10-12 10:29:16.040000+00:00,-13.895999999999999,166.71599999999998,35.0,5.1,mb,66.0,50.3,,1.06,us,usp000h2t8,2014-11-07T01:39:55.135Z,Vanuatu,earthquake,,,,28.0,reviewed,us,us
3521,2009-10-12 09:37:21.480000+00:00,-12.414000000000001,166.498,42.0,6.2,mwc,230.0,28.6,,1.24,us,usp000h2t6,2016-11-10T02:18:42.475Z,Santa Cruz Islands,earthquake,,,,,reviewed,us,us
3537,2009-10-12 06:40:16.610000+00:00,-12.686,166.082,35.0,4.0,mb,27.0,154.7,,1.08,us,usp000h2t2,2014-11-07T01:39:55.089Z,Santa Cruz Islands,earthquake,,,,2.0,reviewed,us,us
3540,2009-10-12 06:37:03.440000+00:00,-12.632,166.013,35.0,5.2,mwc,46.0,65.4,,1.07,us,usp000h2t0,2016-11-10T02:18:41.906Z,Santa Cruz Islands,earthquake,,,,,reviewed,us,gcmt
3582,2009-10-12 01:49:42.870000+00:00,-12.655,166.017,35.0,4.2,mb,23.0,159.2,,0.82,us,usp000h2sv,2014-11-07T01:39:55.020Z,Santa Cruz Islands,earthquake,,,,5.0,reviewed,us,us
3618,2009-10-11 21:51:40.570000+00:00,-13.152999999999999,166.188,35.0,4.8,mb,25.0,128.9,,0.82,us,usp000h2s9,2014-11-07T01:39:54.993Z,Vanuatu,earthquake,,12.1,,6.0,reviewed,us,us
3641,2009-10-11 19:59:15.320000+00:00,-11.273,165.863,35.0,4.9,mb,37.0,96.0,,1.26,us,usp000h2s2,2014-11-07T01:39:54.976Z,Santa Cruz Islands,earthquake,,,,10.0,reviewed,us,us
3652,2009-10-11 18:42:06.740000+00:00,-12.998,166.114,35.0,4.9,mwc,47.0,59.3,,0.95,us,usp000h2ry,2016-11-10T02:18:40.167Z,Santa Cruz Islands,earthquake,,,,,reviewed,us,gcmt
3654,2009-10-11 18:39:32.390000+00:00,-13.155,166.21599999999998,35.0,4.6,mb,35.0,129.0,,0.88,us,usp000h2rw,2014-11-07T01:39:54.962Z,Vanuatu,earthquake,,,,6.0,reviewed,us,us
3666,2009-10-11 18:02:03.540000+00:00,-13.048,165.976,16.9,5.0,mwc,44.0,50.6,,1.25,us,usp000h2rt,2016-11-10T02:18:39.560Z,Vanuatu,earthquake,,26.1,,,reviewed,us,gcmt
3684,2009-10-11 17:03:00.650000+00:00,-13.856,166.40200000000002,35.0,4.7,mb,27.0,142.4,,1.1,us,usp000h2rr,2014-11-07T01:39:54.943Z,Vanuatu,earthquake,,,,2.0,reviewed,us,us
3686,2009-10-11 16:56:52.110000+00:00,-13.753,166.271,37.9,5.2,mwc,33.0,123.5,,1.08,us,usp000h2rq,2016-11-10T02:18:38.976Z,Vanuatu,earthquake,,14.0,,,reviewed,us,gcmt
3693,2009-10-11 16:12:14.590000+00:00,-13.720999999999998,166.449,15.8,5.0,mwc,31.0,161.8,,1.18,us,usp000h2rp,2016-11-09T08:05:18.556Z,Vanuatu,earthquake,,36.1,,,reviewed,us,gcmt
3738,2009-10-11 11:13:28.760000+00:00,-12.960999999999999,166.19400000000002,38.5,4.4,mb,23.0,117.1,,1.16,us,usp000h2rh,2014-11-07T01:39:54.920Z,Santa Cruz Islands,earthquake,,15.8,,8.0,reviewed,us,us
3744,2009-10-11 10:41:07.980000+00:00,-12.072000000000001,165.48,35.0,4.4,mb,26.0,98.8,,1.0,us,usp000h2re,2014-11-07T01:39:54.885Z,Santa Cruz Islands,earthquake,,,,8.0,reviewed,us,us
3795,2009-10-11 04:47:51.490000+00:00,-13.003,166.11599999999999,44.8,5.7,mwc,125.0,27.7,,1.05,us,usp000h2r2,2016-11-10T02:18:37.821Z,Vanuatu,earthquake,,7.9,,,reviewed,us,us
3797,2009-10-11 04:19:34.280000+00:00,-12.533,167.44099999999997,35.0,4.4,mb,18.0,83.8,,0.76,us,usp000h2r0,2014-11-07T01:39:54.837Z,Santa Cruz Islands,earthquake,,,,9.0,reviewed,us,us
3809,2009-10-11 03:12:22.210000+00:00,-11.615,165.171,35.0,5.2,mb,59.0,45.8,,1.38,us,usp000h2qy,2014-11-07T01:39:54.831Z,Santa Cruz Islands,earthquake,,,,29.0,reviewed,us,us
3852,2009-10-10 21:44:49.350000+00:00,-11.674000000000001,166.50400000000002,35.0,5.4,mwc,78.0,63.8,,1.03,us,usp000h2qj,2016-11-10T02:18:36.154Z,Santa Cruz Islands,earthquake,,,,,reviewed,us,gcmt
3868,2009-10-10 19:39:45.890000+00:00,-14.187999999999999,166.805,35.0,4.7,mb,35.0,161.9,,0.64,us,usp000h2qe,2014-11-07T01:39:54.666Z,Vanuatu,earthquake,,,,9.0,reviewed,us,us
3871,2009-10-10 19:24:39.260000+00:00,-12.573,166.108,35.0,4.7,mb,28.0,95.6,,0.76,us,usp000h2qd,2014-11-07T01:39:54.654Z,Santa Cruz Islands,earthquake,,,,6.0,reviewed,us,us
3874,2009-10-10 19:00:31.670000+00:00,-10.931,165.326,38.1,4.8,mb,50.0,54.9,,0.83,us,usp000h2qb,2014-11-07T01:39:54.648Z,Santa Cruz Islands,earthquake,,5.0,,20.0,reviewed,us,us
3877,2009-10-10 18:38:29.160000+00:00,-14.159,166.78900000000002,35.0,4.5,mb,24.0,161.9,,1.19,us,usp000h2q9,2014-11-07T01:39:54.642Z,Vanuatu,earthquake,,,,6.0,reviewed,us,us
3896,2009-10-10 17:07:02.210000+00:00,-13.875,166.615,35.0,4.7,mb,43.0,74.5,,1.02,us,usp000h2q5,2014-11-07T01:39:54.616Z,Vanuatu,earthquake,,,,15.0,reviewed,us,us
3898,2009-10-10 16:49:07.300000+00:00,-14.377,166.34,35.0,5.2,mwc,86.0,29.9,,1.2,us,usp000h2q4,2016-11-10T02:18:33.974Z,Vanuatu,earthquake,,,,,reviewed,us,gcmt
3907,2009-10-10 15:34:59.710000+00:00,-14.187000000000001,166.497,35.0,5.3,mwc,91.0,43.1,,1.08,us,usp000h2q3,2016-11-10T02:18:33.427Z,Vanuatu,earthquake,,,,,reviewed,us,gcmt
3921,2009-10-10 14:36:33.350000+00:00,-14.189,166.49900000000002,35.0,5.2,mwc,51.0,107.1,,1.17,us,usp000h2px,2016-11-10T02:18:32.327Z,Vanuatu,earthquake,,,,,reviewed,us,gcmt
3922,2009-10-10 14:32:05.350000+00:00,-14.128,166.583,35.0,5.0,mb,38.0,68.6,,1.03,us,usp000h2pw,2014-11-07T01:39:54.570Z,Vanuatu,earthquake,,,,3.0,reviewed,us,us
3924,2009-10-10 14:25:15.780000+00:00,-14.117,166.69099999999997,35.0,5.8,mwc,174.0,27.7,,1.19,us,usp000h2pv,2016-11-10T02:18:31.801Z,Vanuatu,earthquake,,,,,reviewed,us,us
3947,2009-10-10 11:11:12.880000+00:00,-13.595999999999998,166.521,35.0,5.1,mwc,57.0,67.5,,0.98,us,usp000h2pu,2016-11-10T02:18:31.278Z,Vanuatu,earthquake,,,,,reviewed,us,gcmt
3999,2009-10-10 03:53:42.830000+00:00,-13.115,166.13400000000001,35.0,4.5,mb,29.0,127.8,,1.1,us,usp000h2pg,2014-11-07T01:39:54.442Z,Vanuatu,earthquake,,,,9.0,reviewed,us,us
4002,2009-10-10 03:41:23.830000+00:00,-12.485999999999999,166.429,35.0,4.4,mb,25.0,66.8,,1.01,us,usp000h2pf,2014-11-07T01:39:54.440Z,Santa Cruz Islands,earthquake,,,,10.0,reviewed,us,us
4006,2009-10-10 03:07:15.690000+00:00,-11.561,166.49099999999999,35.0,4.4,mb,27.0,130.4,,1.18,us,usp000h2pe,2014-11-07T01:39:54.437Z,Santa Cruz Islands,earthquake,,,,8.0,reviewed,us,us
4008,2009-10-10 02:50:41.910000+00:00,-13.232999999999999,166.04,35.0,4.5,mb,21.0,83.2,,1.23,us,usp000h2pd,2014-11-07T01:39:54.435Z,Vanuatu,earthquake,,,,8.0,reviewed,us,us
4011,2009-10-10 02:43:09.440000+00:00,-12.749,166.37900000000002,35.0,4.7,mb,34.0,84.0,,1.03,us,usp000h2pc,2014-11-07T01:39:54.432Z,Santa Cruz Islands,earthquake,,,,13.0,reviewed,us,us
4013,2009-10-10 02:27:15.730000+00:00,-11.787,166.56900000000002,35.0,4.4,mb,17.0,130.6,,1.03,us,usp000h2pb,2014-11-07T01:39:54.430Z,Santa Cruz Islands,earthquake,,,,6.0,reviewed,us,us
4067,2009-10-09 20:50:21.720000+00:00,-12.248,165.864,35.0,4.6,mb,24.0,158.4,,0.82,us,usp000h2p2,2014-11-07T01:39:54.380Z,Santa Cruz Islands,earthquake,,,,7.0,reviewed,us,us
4071,2009-10-09 20:34:57.360000+00:00,-12.28,166.0,35.0,4.8,mb,30.0,192.2,,1.01,us,usp000h2p0,2014-11-07T01:39:54.375Z,Santa Cruz Islands,earthquake,,,,10.0,reviewed,us,us
4072,2009-10-09 20:23:54.520000+00:00,-13.005,166.02700000000002,35.0,4.6,mb,11.0,161.7,,0.99,us,usp000h2nz,2014-11-07T01:39:54.373Z,Vanuatu,earthquake,,,,1.0,reviewed,us,us
4073,2009-10-09 20:18:17.510000+00:00,-11.661,165.982,35.0,5.3,mwc,84.0,56.7,,1.1,us,usp000h2ny,2016-11-10T02:18:28.379Z,Santa Cruz Islands,earthquake,,,,,reviewed,us,gcmt
4076,2009-10-09 19:51:54.370000+00:00,-12.470999999999998,165.968,35.0,4.6,mb,11.0,261.8,,1.18,us,usp000h2nx,2014-11-07T01:39:54.364Z,Santa Cruz Islands,earthquake,,,,3.0,reviewed,us,us
4078,2009-10-09 19:41:32.470000+00:00,-12.235999999999999,165.87,40.7,5.0,mwc,53.0,123.1,,1.18,us,usp000h2nw,2016-11-10T02:18:27.696Z,Santa Cruz Islands,earthquake,,11.3,,,reviewed,us,gcmt
4090,2009-10-09 18:35:30.380000+00:00,-12.145999999999999,166.15099999999998,35.0,4.6,mb,33.0,151.3,,1.14,us,usp000h2nu,2014-11-07T01:39:54.347Z,Santa Cruz Islands,earthquake,,,,12.0,reviewed,us,us
4093,2009-10-09 17:58:40+00:00,-13.205,166.105,41.1,4.7,mb,36.0,65.1,,1.05,us,usp000h2ns,2014-11-07T01:39:54.288Z,Vanuatu,earthquake,,10.7,,10.0,reviewed,us,us
4101,2009-10-09 17:07:17.580000+00:00,-13.125,166.148,35.0,5.1,mb,57.0,43.7,,1.14,us,usp000h2nr,2014-11-07T01:39:54.283Z,Vanuatu,earthquake,,,,18.0,reviewed,us,us
4116,2009-10-09 14:17:34.210000+00:00,-12.015,166.03,35.0,4.5,mb,21.0,67.8,,0.92,us,usp000h2nq,2014-11-07T01:39:54.279Z,Santa Cruz Islands,earthquake,,,,3.0,reviewed,us,us
4129,2009-10-09 13:12:32.220000+00:00,-13.357000000000001,166.503,35.0,5.6,mwc,122.0,44.1,,1.08,us,usp000h2nn,2016-11-10T02:18:26.328Z,Vanuatu,earthquake,,,,,reviewed,us,gcmt
4148,2009-10-09 10:25:06.410000+00:00,-10.890999999999998,165.36599999999999,35.0,4.6,mb,28.0,113.4,,0.68,us,usp000h2nj,2014-11-07T01:39:54.242Z,Santa Cruz Islands,earthquake,,,,8.0,reviewed,us,us
4149,2009-10-09 10:23:30.330000+00:00,-12.254000000000001,165.859,35.0,4.1,mb,17.0,158.4,,0.68,us,usp000h2nh,2014-11-07T01:39:54.240Z,Santa Cruz Islands,earthquake,,,,2.0,reviewed,us,us
4162,2009-10-09 09:14:42.300000+00:00,-11.715,165.97799999999998,35.0,5.6,mwc,72.0,54.5,,1.09,us,usp000h2ne,2016-11-10T02:18:25.648Z,Santa Cruz Islands,earthquake,,,,,reviewed,us,gcmt
4185,2009-10-09 07:33:28.030000+00:00,-13.232000000000001,166.282,35.0,5.6,mwc,82.0,51.5,,1.1,us,usp000h2na,2016-11-10T02:18:25.005Z,Vanuatu,earthquake,,,,,reviewed,us,gcmt
4188,2009-10-09 07:28:49.040000+00:00,-12.135,165.46099999999998,35.0,4.0,mb,11.0,64.9,,0.94,us,usp000h2n8,2014-11-07T01:39:54.195Z,Santa Cruz Islands,earthquake,,,,3.0,reviewed,us,us
4196,2009-10-09 06:18:26.560000+00:00,-13.775,166.465,35.0,4.6,mb,14.0,161.9,,1.16,us,usp000h2n7,2014-11-07T01:39:54.193Z,Vanuatu,earthquake,,,,6.0,reviewed,us,us
4205,2009-10-09 05:11:18.060000+00:00,-12.658,166.135,44.3,4.9,mwc,33.0,130.2,,0.93,us,usp000h2n3,2016-11-10T02:18:24.332Z,Santa Cruz Islands,earthquake,,20.1,,,reviewed,us,gcmt
4214,2009-10-09 04:24:10.740000+00:00,-12.549000000000001,166.071,35.0,4.4,mb,27.0,77.7,,1.12,us,usp000h2n0,2014-11-07T01:39:54.168Z,Santa Cruz Islands,earthquake,,,,6.0,reviewed,us,us
4220,2009-10-09 03:47:29.670000+00:00,-12.845999999999998,166.563,35.0,5.1,mwc,57.0,116.5,,1.14,us,usp000h2mx,2016-11-10T02:18:23.022Z,Santa Cruz Islands,earthquake,,,,,reviewed,us,gcmt
4225,2009-10-09 03:11:33.540000+00:00,-12.875,166.268,35.0,4.7,mb,49.0,58.8,,0.88,us,usp000h2mw,2014-11-07T01:39:54.150Z,Santa Cruz Islands,earthquake,,,,15.0,reviewed,us,us
4231,2009-10-09 02:15:58.780000+00:00,-11.979000000000001,165.80599999999998,35.0,4.6,mb,32.0,119.3,,1.27,us,usp000h2mu,2014-11-07T01:39:54.145Z,Santa Cruz Islands,earthquake,,,,13.0,reviewed,us,us
4232,2009-10-09 02:15:13.730000+00:00,-11.989,166.05599999999998,35.0,4.5,mb,31.0,68.0,,0.89,us,usp000h2mt,2014-11-07T01:39:54.143Z,Santa Cruz Islands,earthquake,,,,13.0,reviewed,us,us
4234,2009-10-09 02:05:54.720000+00:00,-11.969000000000001,166.01,35.0,4.4,mb,31.0,80.2,,0.95,us,usp000h2ms,2014-11-07T01:39:54.140Z,Santa Cruz Islands,earthquake,,,,16.0,reviewed,us,us
4238,2009-10-09 01:51:48.890000+00:00,-12.777999999999999,165.90599999999998,35.0,4.4,mb,31.0,64.6,,0.85,us,usp000h2mr,2014-11-07T01:39:54.137Z,Santa Cruz Islands,earthquake,,,,12.0,reviewed,us,us
4239,2009-10-09 01:48:33.530000+00:00,-12.119000000000002,166.733,35.0,4.4,mb,24.0,96.7,,1.0,us,usp000h2mq,2014-11-07T01:39:54.134Z,Santa Cruz Islands,earthquake,,,,9.0,reviewed,us,us
4242,2009-10-09 01:27:21.700000+00:00,-12.872,165.93,35.0,4.3,mb,14.0,134.1,,1.06,us,usp000h2mp,2014-11-07T01:39:54.132Z,Santa Cruz Islands,earthquake,,,,4.0,reviewed,us,us
4257,2009-10-09 00:08:02.830000+00:00,-12.993,166.005,37.1,4.9,mb,32.0,59.0,,1.3,us,usp000h2mm,2014-11-07T01:39:54.125Z,Santa Cruz Islands,earthquake,,3.7,,11.0,reviewed,us,us
4258,2009-10-09 00:04:14.990000+00:00,-11.870999999999999,165.419,35.0,4.6,mb,22.0,122.5,,1.07,us,usp000h2mk,2014-11-07T01:39:54.123Z,Santa Cruz Islands,earthquake,,,,3.0,reviewed,us,us
4260,2009-10-08 23:42:00.390000+00:00,-12.537,165.985,39.5,4.6,mb,23.0,154.5,,0.96,us,usp000h2mj,2014-11-07T01:39:54.120Z,Santa Cruz Islands,earthquake,,14.0,,5.0,reviewed,us,us
4261,2009-10-08 23:35:43.880000+00:00,-12.4,166.696,35.0,5.7,mwb,206.0,48.8,,0.99,us,usp000h2mh,2016-11-10T02:18:22.440Z,Santa Cruz Islands,earthquake,,,,,reviewed,us,us
4263,2009-10-08 23:32:35.220000+00:00,-13.014000000000001,165.985,35.0,5.1,mb,47.0,59.4,,1.15,us,usp000h2mg,2014-11-07T01:39:54.095Z,Vanuatu,earthquake,,,,18.0,reviewed,us,us
4275,2009-10-08 22:43:32.100000+00:00,-10.869000000000002,165.453,19.6,5.3,mwc,112.0,41.0,,0.93,us,usp000h2mc,2016-11-10T02:18:21.854Z,Santa Cruz Islands,earthquake,,3.2,,,reviewed,us,gcmt
4285,2009-10-08 21:37:17.910000+00:00,-12.437999999999999,166.21900000000002,35.0,5.3,mwc,83.0,55.3,,1.19,us,usp000h2ma,2016-11-10T02:18:21.258Z,Santa Cruz Islands,earthquake,,,,,reviewed,us,gcmt
4290,2009-10-08 21:18:40.630000+00:00,-12.981,166.074,43.7,5.1,mb,41.0,111.5,,1.06,us,usp000h2m9,2014-11-07T01:39:54.052Z,Santa Cruz Islands,earthquake,,19.6,,8.0,reviewed,us,us
4292,2009-10-08 21:16:13.850000+00:00,-12.912,166.31400000000002,35.0,6.0,mwc,178.0,27.8,,1.13,us,usp000h2m8,2016-11-10T02:18:20.657Z,Santa Cruz Islands,earthquake,,,,,reviewed,us,gcmt
4307,2009-10-08 19:56:01.900000+00:00,-12.284,166.08700000000002,44.1,4.8,mb,41.0,151.0,,1.05,us,usp000h2m4,2014-11-07T01:39:54.014Z,Santa Cruz Islands,earthquake,,10.5,,7.0,reviewed,us,us
4309,2009-10-08 19:42:43.010000+00:00,-15.88,168.24599999999998,263.8,5.0,mb,74.0,29.5,,0.98,us,usp000h2m3,2014-11-07T01:39:54.008Z,Vanuatu,earthquake,,,,20.0,reviewed,us,us
4316,2009-10-08 19:24:06.130000+00:00,-12.540999999999999,166.497,35.0,4.6,mb,19.0,130.5,,1.08,us,usp000h2m1,2014-11-07T01:39:54.004Z,Santa Cruz Islands,earthquake,,,,2.0,reviewed,us,us
4321,2009-10-08 18:51:26.370000+00:00,-11.642999999999999,166.074,35.0,5.2,mwc,45.0,111.9,,1.04,us,usp000h2ky,2016-11-10T02:18:20.065Z,Santa Cruz Islands,earthquake,,,,,reviewed,us,gcmt
4323,2009-10-08 18:47:58.950000+00:00,-11.142000000000001,165.655,35.0,4.8,mb,22.0,111.3,,1.37,us,usp000h2kx,2014-11-07T01:39:53.987Z,Santa Cruz Islands,earthquake,,,,7.0,reviewed,us,us
4326,2009-10-08 18:24:26.100000+00:00,-12.079,165.949,35.0,4.6,mb,24.0,158.9,,0.8,us,usp000h2kw,2014-11-07T01:39:53.984Z,Santa Cruz Islands,earthquake,,,,5.0,reviewed,us,us
4330,2009-10-08 18:10:49.900000+00:00,-12.035,165.97799999999998,35.0,5.2,mwc,72.0,62.9,,0.92,us,usp000h2kv,2016-11-10T02:18:19.446Z,Santa Cruz Islands,earthquake,,,,,reviewed,us,gcmt
4333,2009-10-08 17:55:01.110000+00:00,-13.04,166.179,35.0,4.8,mb,51.0,64.1,,1.1,us,usp000h2kt,2014-11-07T01:39:53.970Z,Vanuatu,earthquake,,,,16.0,reviewed,us,us
4339,2009-10-08 17:16:42.180000+00:00,-13.089,166.484,9.7,5.2,mwc,42.0,59.6,,1.04,us,usp000h2kq,2016-11-10T02:18:18.829Z,Vanuatu,earthquake,,22.4,,,reviewed,us,gcmt
4349,2009-10-08 16:09:58.690000+00:00,-11.508,166.135,35.0,4.5,mb,14.0,160.1,,0.77,us,usp000h2kn,2014-11-07T01:39:53.953Z,Santa Cruz Islands,earthquake,,,,4.0,reviewed,us,us
4350,2009-10-08 16:02:57.570000+00:00,-12.057,165.71200000000002,35.0,4.9,mb,20.0,78.8,,1.15,us,usp000h2km,2014-11-07T01:39:53.951Z,Santa Cruz Islands,earthquake,,,,3.0,reviewed,us,us
4354,2009-10-08 15:19:23.830000+00:00,-11.439,166.09599999999998,35.0,4.5,mb,18.0,128.6,,0.77,us,usp000h2kj,2014-11-07T01:39:53.946Z,Santa Cruz Islands,earthquake,,,,5.0,reviewed,us,us
4363,2009-10-08 14:08:38.480000+00:00,-12.698,166.326,35.0,4.8,mb,44.0,65.7,,1.22,us,usp000h2kg,2014-11-07T01:39:53.939Z,Santa Cruz Islands,earthquake,,,,11.0,reviewed,us,us
4364,2009-10-08 14:06:03.770000+00:00,-13.184000000000001,166.545,35.0,4.7,mb,15.0,161.8,,0.83,us,usp000h2kf,2014-11-07T01:39:53.928Z,Vanuatu,earthquake,,,,1.0,reviewed,us,us
4380,2009-10-08 12:35:34.300000+00:00,-11.559000000000001,166.24900000000002,35.0,4.3,mb,22.0,92.5,,0.69,us,usp000h2kb,2014-11-07T01:39:53.920Z,Santa Cruz Islands,earthquake,,,,2.0,reviewed,us,us
4383,2009-10-08 11:37:45.520000+00:00,-13.008,166.125,35.0,4.7,mb,34.0,154.7,,0.89,us,usp000h2k8,2014-11-07T01:39:53.907Z,Vanuatu,earthquake,,,,4.0,reviewed,us,us
4384,2009-10-08 11:35:03.490000+00:00,-13.437999999999999,166.53400000000002,35.0,5.1,mb,42.0,124.7,,0.97,us,usp000h2k7,2014-11-07T01:39:53.881Z,Vanuatu,earthquake,,,,14.0,reviewed,us,us
4386,2009-10-08 11:13:51.720000+00:00,-11.452,166.204,35.0,4.8,mb,28.0,123.8,,0.97,us,usp000h2k6,2014-11-07T01:39:53.879Z,Santa Cruz Islands,earthquake,,,,6.0,reviewed,us,us
4387,2009-10-08 10:53:24.780000+00:00,-13.645,166.655,35.0,4.4,mb,20.0,87.9,,1.15,us,usp000h2k5,2014-11-07T01:39:53.877Z,Vanuatu,earthquake,,,,5.0,reviewed,us,us
4388,2009-10-08 10:47:23.630000+00:00,-12.267000000000001,165.447,35.0,5.2,mb,47.0,65.8,,0.83,us,usp000h2k4,2014-11-07T01:39:53.873Z,Santa Cruz Islands,earthquake,,,,16.0,reviewed,us,us
4394,2009-10-08 10:27:07.880000+00:00,-13.005,166.36900000000003,35.0,4.5,mb,25.0,130.0,,0.99,us,usp000h2k1,2014-11-07T01:39:53.866Z,Vanuatu,earthquake,,,,1.0,reviewed,us,us
4396,2009-10-08 10:15:45+00:00,-11.292,165.795,35.0,4.3,mb,15.0,123.1,,0.95,us,usp000h2jz,2014-11-07T01:39:53.862Z,Santa Cruz Islands,earthquake,,,,2.0,reviewed,us,us
4397,2009-10-08 10:11:07.460000+00:00,-11.263,165.81900000000002,44.7,6.1,mwc,114.0,60.8,,0.91,us,usp000h2jy,2017-04-26T18:09:36.420Z,Santa Cruz Islands,earthquake,,8.7,,,reviewed,us,gcmt
4399,2009-10-08 10:03:10.330000+00:00,-12.717,166.155,35.0,4.5,mb,22.0,128.7,,0.99,us,usp000h2jw,2014-11-07T01:39:53.849Z,Santa Cruz Islands,earthquake,,,,2.0,reviewed,us,us
4401,2009-10-08 09:28:09.490000+00:00,-13.25,166.143,35.0,4.8,mb,36.0,63.1,,1.16,us,usp000h2jv,2014-11-07T01:39:53.846Z,Vanuatu,earthquake,,,,7.0,reviewed,us,us
4408,2009-10-08 08:34:36.960000+00:00,-12.237,166.489,35.0,6.0,mb,193.0,30.4,,1.18,us,usp000h2jt,2015-05-13T18:53:56.000Z,Santa Cruz Islands,earthquake,,,,89.0,reviewed,us,us
4409,2009-10-08 08:28:47.970000+00:00,-13.298,165.91,35.0,6.8,mwc,174.0,30.2,,1.45,us,usp000h2js,2017-04-26T18:09:35.873Z,Vanuatu,earthquake,,,,,reviewed,us,us
4419,2009-10-08 07:18:28.190000+00:00,-12.001,166.03900000000002,35.0,4.5,mb,26.0,80.4,,0.93,us,usp000h2jp,2014-11-07T01:39:53.795Z,Santa Cruz Islands,earthquake,,,,6.0,reviewed,us,us
4423,2009-10-08 06:44:46.620000+00:00,-12.497,166.585,35.0,4.9,mb,75.0,65.9,,1.07,us,usp000h2jm,2014-11-07T01:39:53.785Z,Santa Cruz Islands,earthquake,,,,33.0,reviewed,us,us
4428,2009-10-08 06:07:11.400000+00:00,-11.437000000000001,165.717,35.0,5.0,mb,57.0,63.4,,1.0,us,usp000h2jk,2014-11-07T01:39:53.781Z,Santa Cruz Islands,earthquake,,,,13.0,reviewed,us,us
4437,2009-10-08 05:03:58.430000+00:00,-11.909,165.77900000000002,35.0,4.8,mb,24.0,187.4,,0.76,us,usp000h2jg,2014-11-07T01:39:53.755Z,Santa Cruz Islands,earthquake,,,,5.0,reviewed,us,us
4438,2009-10-08 04:57:11.470000+00:00,-12.450999999999999,166.016,35.0,4.2,mb,23.0,127.9,,1.31,us,usp000h2jf,2014-11-07T01:39:53.753Z,Santa Cruz Islands,earthquake,,,,3.0,reviewed,us,us
4439,2009-10-08 04:55:42.160000+00:00,-13.449000000000002,166.673,35.0,4.4,mb,21.0,163.0,,0.9,us,usp000h2je,2014-11-07T01:39:53.751Z,Vanuatu,earthquake,,,,3.0,reviewed,us,us
4442,2009-10-08 04:44:01.600000+00:00,-11.495,166.03900000000002,35.0,4.7,mb,31.0,153.2,,0.91,us,usp000h2jc,2014-11-07T01:39:53.744Z,Santa Cruz Islands,earthquake,,,,8.0,reviewed,us,us
4443,2009-10-08 04:38:50.930000+00:00,-12.922,166.00400000000002,35.0,5.0,mb,64.0,64.2,,1.29,us,usp000h2jb,2014-11-07T01:39:53.739Z,Santa Cruz Islands,earthquake,,,,23.0,reviewed,us,us
4444,2009-10-08 04:36:09.120000+00:00,-11.405,166.23,35.0,4.8,mb,21.0,124.3,,1.21,us,usp000h2ja,2014-11-07T01:39:53.736Z,Santa Cruz Islands,earthquake,,,,3.0,reviewed,us,us
4446,2009-10-08 04:17:53.510000+00:00,-13.020999999999999,166.03099999999998,35.0,5.3,mb,114.0,34.0,,1.04,us,usp000h2j9,2014-11-07T01:39:53.727Z,Vanuatu,earthquake,,,,55.0,reviewed,us,us
4450,2009-10-08 04:01:22.650000+00:00,-13.149000000000001,166.23,35.0,4.8,mb,39.0,95.0,,0.84,us,usp000h2j7,2014-11-07T01:39:53.719Z,Vanuatu,earthquake,,,,8.0,reviewed,us,us
4455,2009-10-08 03:40:54.850000+00:00,-12.707,165.903,35.0,5.1,mb,53.0,64.9,,1.17,us,usp000h2j6,2014-11-07T01:39:53.715Z,Santa Cruz Islands,earthquake,,,,18.0,reviewed,us,us
4456,2009-10-08 03:40:16.550000+00:00,-11.540999999999999,165.968,35.0,4.4,mb,15.0,127.9,,1.28,us,usp000h2j5,2014-11-07T01:39:53.713Z,Santa Cruz Islands,earthquake,,,,2.0,reviewed,us,us
4458,2009-10-08 03:34:22.340000+00:00,-11.436,165.858,35.0,4.3,mb,19.0,121.0,,0.92,us,usp000h2j4,2014-11-07T01:39:53.711Z,Santa Cruz Islands,earthquake,,,,3.0,reviewed,us,us
4459,2009-10-08 03:33:21.290000+00:00,-12.050999999999998,166.035,35.0,4.5,mb,20.0,154.7,,1.15,us,usp000h2j3,2014-11-07T01:39:53.709Z,Santa Cruz Islands,earthquake,,,,2.0,reviewed,us,us
4465,2009-10-08 02:44:44.300000+00:00,-13.196,166.24200000000002,35.0,4.5,mb,27.0,154.9,,1.06,us,usp000h2j1,2014-11-07T01:39:53.704Z,Vanuatu,earthquake,,,,3.0,reviewed,us,us
4467,2009-10-08 02:35:53.670000+00:00,-11.390999999999998,166.081,35.0,4.7,mb,27.0,116.8,,0.74,us,usp000h2j0,2014-11-07T01:39:53.701Z,Santa Cruz Islands,earthquake,,,,5.0,reviewed,us,us
4469,2009-10-08 02:26:17.460000+00:00,-11.942,165.747,35.0,4.7,mb,34.0,123.0,,1.25,us,usp000h2hz,2014-11-07T01:39:53.698Z,Santa Cruz Islands,earthquake,,,,6.0,reviewed,us,us
4471,2009-10-08 02:23:05.060000+00:00,-13.037,166.176,35.0,4.4,mb,28.0,104.6,,0.82,us,usp000h2hy,2014-11-07T01:39:53.689Z,Vanuatu,earthquake,,,,3.0,reviewed,us,us
4472,2009-10-08 02:19:53.490000+00:00,-13.030999999999999,166.08,35.0,4.7,mb,39.0,52.0,,1.02,us,usp000h2hx,2014-11-07T01:39:53.685Z,Vanuatu,earthquake,,,,9.0,reviewed,us,us
4473,2009-10-08 02:12:39.080000+00:00,-11.66,166.17700000000002,35.0,5.8,mb,218.0,28.4,,0.79,us,usp000h2hw,2015-05-13T18:53:56.000Z,Santa Cruz Islands,earthquake,,,,138.0,reviewed,us,us
4475,2009-10-08 02:02:39.610000+00:00,-11.889000000000001,165.834,35.0,5.3,mb,64.0,72.2,,0.81,us,usp000h2hv,2014-11-07T01:39:53.657Z,Santa Cruz Islands,earthquake,,,,15.0,reviewed,us,us
4477,2009-10-08 01:59:19.840000+00:00,-11.898,165.96,35.0,5.9,mb,125.0,47.1,,1.02,us,usp000h2hu,2015-05-13T18:53:56.000Z,Santa Cruz Islands,earthquake,,,,52.0,reviewed,us,us
4480,2009-10-08 01:55:28.620000+00:00,-12.812000000000001,165.765,35.0,4.6,mb,15.0,154.1,,1.34,us,usp000h2ht,2014-11-07T01:39:53.644Z,Santa Cruz Islands,earthquake,,,,1.0,reviewed,us,us
4481,2009-10-08 01:53:16.670000+00:00,-11.988,165.85299999999998,35.0,4.6,mb,31.0,123.1,,1.01,us,usp000h2hs,2014-11-07T01:39:53.641Z,Santa Cruz Islands,earthquake,,,,5.0,reviewed,us,us
4484,2009-10-08 01:42:44.870000+00:00,-11.293,165.668,35.0,5.0,mb,34.0,82.7,,1.01,us,usp000h2hq,2014-11-07T01:39:53.635Z,Santa Cruz Islands,earthquake,,,,4.0,reviewed,us,us
4487,2009-10-08 01:31:00.540000+00:00,-13.45,166.489,35.0,5.2,mb,55.0,92.5,,0.97,us,usp000h2hn,2014-11-07T01:39:53.623Z,Vanuatu,earthquake,,,,12.0,reviewed,us,us
4488,2009-10-08 01:27:18.010000+00:00,-12.763,166.06,35.0,4.1,mb,25.0,154.6,,1.03,us,usp000h2hm,2014-11-07T01:39:53.621Z,Santa Cruz Islands,earthquake,,,,1.0,reviewed,us,us
4489,2009-10-08 01:24:54.780000+00:00,-12.777000000000001,166.615,35.0,4.7,mb,27.0,130.5,,1.17,us,usp000h2hk,2014-11-07T01:39:53.618Z,Santa Cruz Islands,earthquake,,,,4.0,reviewed,us,us
4492,2009-10-08 01:19:27.320000+00:00,-12.639000000000001,166.493,35.0,5.0,mb,55.0,34.5,,0.99,us,usp000h2hj,2014-11-07T01:39:53.613Z,Santa Cruz Islands,earthquake,,,,17.0,reviewed,us,us
4493,2009-10-08 01:12:16.310000+00:00,-13.247,166.447,35.0,4.6,mb,16.0,130.5,,0.97,us,usp000h2hh,2014-11-07T01:39:53.611Z,Vanuatu,earthquake,,,,1.0,reviewed,us,us
4495,2009-10-08 01:08:36.610000+00:00,-12.798,166.204,35.0,5.3,mb,78.0,41.9,,1.06,us,usp000h2hg,2015-05-13T18:53:56.000Z,Santa Cruz Islands,earthquake,,,,33.0,reviewed,us,us
4496,2009-10-08 01:06:38.060000+00:00,-12.795,166.168,35.0,4.9,mb,35.0,118.8,,0.94,us,usp000h2hf,2014-11-07T01:39:53.602Z,Santa Cruz Islands,earthquake,,,,6.0,reviewed,us,us
4497,2009-10-08 01:06:07.360000+00:00,-12.002,166.15099999999998,35.0,4.7,mb,20.0,160.1,,0.83,us,usp000h2he,2014-11-07T01:39:53.599Z,Santa Cruz Islands,earthquake,,,,3.0,reviewed,us,us
4498,2009-10-08 00:59:40.300000+00:00,-12.027999999999999,166.13,35.0,4.9,mb,27.0,128.7,,0.81,us,usp000h2hd,2014-11-07T01:39:53.597Z,Santa Cruz Islands,earthquake,,,,9.0,reviewed,us,us
4501,2009-10-08 00:40:27+00:00,-12.887,165.891,35.0,4.0,mb,16.0,149.9,,1.19,us,usp000h2hc,2014-11-07T01:39:53.595Z,Santa Cruz Islands,earthquake,,,,4.0,reviewed,us,us
4504,2009-10-08 00:38:07.040000+00:00,-12.123,166.65599999999998,35.0,4.4,mb,15.0,207.4,,0.75,us,usp000h2ha,2014-11-07T01:39:53.591Z,Santa Cruz Islands,earthquake,,,,3.0,reviewed,us,us
4505,2009-10-08 00:35:13.100000+00:00,-12.252,166.082,35.0,4.3,mb,14.0,142.7,,1.02,us,usp000h2h9,2014-11-07T01:39:53.589Z,Santa Cruz Islands,earthquake,,,,3.0,reviewed,us,us
4508,2009-10-08 00:25:07.950000+00:00,-11.26,167.074,35.0,5.2,mb,38.0,63.7,,0.72,us,usp000h2h8,2014-11-07T01:39:53.586Z,Santa Cruz Islands,earthquake,,,,18.0,reviewed,us,us
4509,2009-10-08 00:22:04.740000+00:00,-13.285,166.142,35.0,5.1,mb,90.0,57.0,,0.94,us,usp000h2h7,2015-05-13T18:53:56.000Z,Vanuatu,earthquake,,,,46.0,reviewed,us,us
4510,2009-10-08 00:18:11.200000+00:00,-11.674000000000001,166.00900000000001,27.2,4.8,mb,41.0,118.4,,1.0,us,usp000h2h6,2014-11-07T01:39:53.572Z,Santa Cruz Islands,earthquake,,19.8,,6.0,reviewed,us,us
4511,2009-10-08 00:15:20.610000+00:00,-13.22,166.423,35.0,5.0,mb,42.0,85.5,,0.67,us,usp000h2h5,2014-11-07T01:39:53.558Z,Vanuatu,earthquake,,,,10.0,reviewed,us,us
4513,2009-10-08 00:08:19+00:00,-13.45,166.175,40.0,4.4,mb,22.0,84.5,,0.86,us,usp000h2h4,2014-11-07T01:39:53.546Z,Vanuatu,earthquake,,11.4,,6.0,reviewed,us,us
4515,2009-10-08 00:01:18.120000+00:00,-12.854000000000001,166.459,23.9,4.9,mb,52.0,45.8,,1.14,us,usp000h2h3,2014-11-07T01:39:53.541Z,Santa Cruz Islands,earthquake,,12.4,,7.0,reviewed,us,us
4517,2009-10-07 23:54:16.420000+00:00,-13.235,166.356,35.0,5.8,mb,125.0,22.6,,1.01,us,usp000h2h2,2015-05-13T18:53:56.000Z,Vanuatu,earthquake,,,,81.0,reviewed,us,us
4518,2009-10-07 23:48:52.900000+00:00,-13.538,166.399,34.3,5.7,mb,159.0,21.2,,0.84,us,usp000h2h1,2015-05-13T18:53:56.000Z,Vanuatu,earthquake,,6.1,,68.0,reviewed,us,us
4519,2009-10-07 23:47:02.070000+00:00,-12.520999999999999,166.024,38.2,4.9,mb,25.0,111.2,,0.89,us,usp000h2h0,2014-11-07T01:39:53.512Z,Santa Cruz Islands,earthquake,,13.0,,6.0,reviewed,us,us
4521,2009-10-07 23:41:14.120000+00:00,-13.039000000000001,166.19299999999998,35.0,5.0,mb,41.0,95.4,,0.94,us,usp000h2gz,2014-11-07T01:39:53.509Z,Vanuatu,earthquake,,,,13.0,reviewed,us,us
4522,2009-10-07 23:40:19.610000+00:00,-13.408,166.33900000000003,35.0,4.6,mb,19.0,94.4,,1.05,us,usp000h2gy,2014-11-07T01:39:53.507Z,Vanuatu,earthquake,,,,9.0,reviewed,us,us
4523,2009-10-07 23:38:33.140000+00:00,-13.112,166.34400000000002,35.0,4.7,mb,24.0,145.8,,0.71,us,usp000h2gx,2014-11-07T01:39:53.505Z,Vanuatu,earthquake,,,,6.0,reviewed,us,us
4526,2009-10-07 23:29:27.130000+00:00,-13.24,166.554,35.0,5.0,mb,20.0,66.5,,0.73,us,usp000h2gv,2014-11-07T01:39:53.497Z,Vanuatu,earthquake,,,,3.0,reviewed,us,us
4527,2009-10-07 23:26:06.770000+00:00,-12.107000000000001,166.015,35.0,5.3,mb,35.0,91.6,,0.96,us,usp000h2gu,2014-11-07T01:39:53.493Z,Santa Cruz Islands,earthquake,,,,11.0,reviewed,us,us
4529,2009-10-07 23:23:28.480000+00:00,-12.564,165.957,35.6,5.5,mb,55.0,59.1,,0.99,us,usp000h2gt,2014-11-07T01:39:53.487Z,Santa Cruz Islands,earthquake,,10.5,,13.0,reviewed,us,us
4531,2009-10-07 23:13:48.160000+00:00,-13.093,166.497,31.1,7.4,mwc,314.0,20.2,,0.96,us,usp000h2gr,2017-11-13T18:31:01.522Z,Vanuatu,earthquake,,2.4,,,reviewed,us,gcmt
4533,2009-10-07 23:09:20.690000+00:00,-12.555,166.32299999999998,35.0,4.5,mb,16.0,161.6,,0.87,us,usp000h2gq,2014-11-07T01:39:53.434Z,Santa Cruz Islands,earthquake,,,,5.0,reviewed,us,us
4534,2009-10-07 23:06:05.010000+00:00,-12.314,165.804,35.0,4.5,mb,27.0,110.9,,0.73,us,usp000h2gp,2014-11-07T01:39:53.430Z,Santa Cruz Islands,earthquake,,,,6.0,reviewed,us,us
4535,2009-10-07 23:03:35.760000+00:00,-12.478,166.326,19.8,5.0,mb,25.0,83.1,,0.95,us,usp000h2gn,2014-11-07T01:39:53.426Z,Santa Cruz Islands,earthquake,,22.0,,8.0,reviewed,us,us
4536,2009-10-07 22:55:43.740000+00:00,-12.827,165.886,42.4,5.2,mb,32.0,64.4,,0.8,us,usp000h2gm,2014-11-07T01:39:53.419Z,Santa Cruz Islands,earthquake,,10.1,,6.0,reviewed,us,us
4537,2009-10-07 22:53:04.300000+00:00,-12.648,166.207,35.0,4.9,mb,30.0,123.6,,0.75,us,usp000h2gk,2014-11-07T01:39:53.359Z,Santa Cruz Islands,earthquake,,,,6.0,reviewed,us,us
4538,2009-10-07 22:50:15.780000+00:00,-12.39,166.08599999999998,21.0,6.8,mwc,74.0,34.8,,0.92,us,usp000h2gj,2016-11-10T02:18:16.397Z,Santa Cruz Islands,earthquake,,13.9,,,reviewed,us,gcmt
4539,2009-10-07 22:44:00.320000+00:00,-12.048,165.949,35.0,5.1,mb,38.0,60.4,,1.03,us,usp000h2gh,2014-11-07T01:39:53.346Z,Santa Cruz Islands,earthquake,,,,11.0,reviewed,us,us
4542,2009-10-07 22:38:21.450000+00:00,-12.912,166.222,35.0,4.9,mb,25.0,76.9,,1.12,us,usp000h2gg,2014-11-07T01:39:53.344Z,Santa Cruz Islands,earthquake,,,,6.0,reviewed,us,us
4543,2009-10-07 22:29:18.660000+00:00,-11.507,166.03,35.0,5.5,mb,87.0,44.9,,0.78,us,usp000h2gf,2014-11-07T01:39:53.337Z,Santa Cruz Islands,earthquake,,,,36.0,reviewed,us,us
4544,2009-10-07 22:26:38.840000+00:00,-12.097000000000001,166.641,35.0,5.6,mb,51.0,32.6,,0.81,us,usp000h2ge,2014-11-07T01:39:53.333Z,Santa Cruz Islands,earthquake,,,,20.0,reviewed,us,us
4545,2009-10-07 22:18:51.240000+00:00,-12.517000000000001,166.382,35.0,7.8,mwc,195.0,20.3,,0.97,us,usp000h2gd,2017-11-13T18:29:45.908Z,Santa Cruz Islands,earthquake,,,,,reviewed,us,us
4546,2009-10-07 22:18:25.720000+00:00,-12.622,166.352,35.0,5.8,mb,128.0,51.3,,0.83,us,usp000h2gc,2015-05-13T18:53:56.000Z,Santa Cruz Islands,earthquake,,,,62.0,reviewed,us,us
4547,2009-10-07 22:15:46.350000+00:00,-13.245999999999999,166.44099999999997,35.0,5.2,mb,22.0,100.1,,0.93,us,usp000h2gb,2014-11-07T01:39:53.229Z,Vanuatu,earthquake,,,,8.0,reviewed,us,us
4549,2009-10-07 22:03:14.470000+00:00,-13.005999999999998,166.51,45.0,7.7,mww,283.0,23.2,,1.31,us,usp000h2g9,2017-11-13T18:27:00.933Z,Vanuatu,earthquake,,,,,reviewed,us,us
4730,2009-10-07 05:08:54.650000+00:00,-13.084000000000001,165.74400000000003,35.0,5.1,mwc,35.0,59.7,,1.53,us,usp000h2fh,2016-11-10T02:18:10.152Z,Vanuatu,earthquake,,,,,reviewed,us,gcmt
5394,2009-10-04 02:41:58.780000+00:00,-14.954,166.798,35.0,4.6,mb,25.0,121.7,,1.05,us,usp000h2bg,2014-11-07T01:39:52.152Z,Vanuatu,earthquake,,,,10.0,reviewed,us,us
6070,2009-10-01 20:55:42.990000+00:00,-12.25,166.511,80.8,5.5,mwc,128.0,55.1,,1.01,us,usp000h26s,2016-11-10T02:17:49.366Z,Santa Cruz Islands,earthquake,,7.9,,,reviewed,us,gcmt
