,time,latitude,longitude,depth,mag,magType,nst,gap,dmin,rms,net,id,updated,place,type,horizontalError,depthError,magError,magNst,status,locationSource,magSource
546,2010-05-30 01:21:30.030000+00:00,-13.743,166.49599999999998,34.4,4.9,mwc,84.0,46.4,,0.96,us,usp000hdcf,2016-11-10T02:28:53.374Z,Vanuatu,earthquake,,20.1,,,reviewed,us,gcmt
597,2010-05-29 20:47:35.400000+00:00,-13.998,166.68599999999998,35.0,4.8,mb,53.0,142.7,,1.03,us,usp000hdcb,2014-11-07T01:41:34.070Z,Vanuatu,earthquake,,,,18.0,reviewed,us,us
697,2010-05-29 11:47:42.360000+00:00,-13.968,166.685,35.0,5.0,mwc,61.0,118.5,,0.84,us,usp000hdbv,2016-11-10T02:28:51.912Z,Vanuatu,earthquake,,,,,reviewed,us,gcmt
702,2010-05-29 11:15:52.520000+00:00,-13.94,166.638,35.0,5.1,mwc,57.0,63.1,,1.05,us,usp000hdbt,2016-11-10T02:28:51.181Z,Vanuatu,earthquake,,,,,reviewed,us,gcmt
729,2010-05-29 09:10:29.650000+00:00,-13.661,166.648,35.0,5.1,mwc,71.0,68.3,,1.18,us,usp000hdbr,2016-11-10T02:28:50.514Z,Vanuatu,earthquake,,,,,reviewed,us,gcmt
765,2010-05-29 06:25:42.210000+00:00,-13.59,166.657,40.7,4.5,mb,26.0,161.8,,1.04,us,usp000hdbe,2014-11-07T01:41:33.937Z,Vanuatu,earthquake,,14.3,,7.0,reviewed,us,us
834,2010-05-28 22:53:39.580000+00:00,-13.902000000000001,166.56900000000002,39.9,4.5,mb,33.0,83.2,,0.96,us,usp000hdan,2014-11-07T01:41:33.823Z,Vanuatu,earthquake,,14.3,,6.0,reviewed,us,us
929,2010-05-28 14:57:54.070000+00:00,-13.677,166.37599999999998,35.0,5.2,mwc,71.0,123.7,,1.03,us,usp000hda8,2016-11-10T02:28:46.671Z,Vanuatu,earthquake,,,,,reviewed,us,gcmt
943,2010-05-28 13:44:17.220000+00:00,-13.543,166.687,35.0,4.8,mb,65.0,50.9,,1.51,us,usp000hda5,2014-11-07T01:41:33.742Z,Vanuatu,earthquake,,,,26.0,reviewed,us,us
991,2010-05-28 09:39:05.240000+00:00,-14.107000000000001,166.668,49.8,4.4,mb,28.0,161.9,,0.91,us,usp000hd9s,2014-11-07T01:41:33.677Z,Vanuatu,earthquake,,18.1,,3.0,reviewed,us,us
1039,2010-05-28 05:30:16.130000+00:00,-13.708,166.64,35.0,4.1,mb,21.0,152.7,,1.24,us,usp000hd9g,2014-11-07T01:41:33.651Z,Vanuatu,earthquake,,,,6.0,reviewed,us,us
1040,2010-05-28 05:26:17.110000+00:00,-12.743,166.16,42.4,4.4,mb,35.0,123.5,,0.86,us,usp000hd9f,2014-11-07T01:41:33.648Z,Santa Cruz Islands,earthquake,,17.2,,10.0,reviewed,us,us
1047,2010-05-28 04:58:53.070000+00:00,-13.635,166.765,35.0,4.3,mb,19.0,163.1,,0.98,us,usp000hd9e,2014-11-07T01:41:33.646Z,Vanuatu,earthquake,,,,2.0,reviewed,us,us
1052,2010-05-28 04:25:58.630000+00:00,-14.048,166.606,34.0,5.8,mwc,196.0,30.8,,1.1,us,usp000hd9c,2016-11-10T02:28:45.477Z,Vanuatu,earthquake,,,,,reviewed,us,gcmt
1053,2010-05-28 04:24:23.060000+00:00,-13.86,166.657,21.6,4.6,mb,30.0,152.7,,0.76,us,usp000hd9b,2014-11-07T01:41:33.610Z,Vanuatu,earthquake,,32.2,,4.0,reviewed,us,us
1060,2010-05-28 03:38:21.360000+00:00,-13.852,166.722,35.0,4.0,mb,21.0,163.1,,1.2,us,usp000hd9a,2014-11-07T01:41:33.607Z,Vanuatu,earthquake,,,,2.0,reviewed,us,us
1066,2010-05-28 03:14:44.190000+00:00,-13.869000000000002,166.628,35.0,4.9,mb,48.0,99.5,,1.32,us,usp000hd98,2014-11-07T01:41:33.530Z,Vanuatu,earthquake,,,,15.0,reviewed,us,us
1073,2010-05-28 02:01:13.750000+00:00,-13.855,166.623,43.3,4.5,mb,21.0,140.7,,1.12,us,usp000hd94,2014-11-07T01:41:33.470Z,Vanuatu,earthquake,,25.4,,3.0,reviewed,us,us
1094,2010-05-27 23:38:05.950000+00:00,-14.052,166.989,35.0,4.9,mb,31.0,116.4,,0.91,us,usp000hd90,2014-11-07T01:41:33.452Z,Vanuatu,earthquake,,,,12.0,reviewed,us,us
1126,2010-05-27 20:48:00.440000+00:00,-13.658,166.745,35.0,6.1,mwc,161.0,32.2,,0.96,us,usp000hd8v,2016-11-10T02:28:44.849Z,Vanuatu,earthquake,,,,,reviewed,us,gcmt
1150,2010-05-27 19:51:25.370000+00:00,-14.056,166.80200000000002,35.0,4.7,mb,30.0,152.7,,0.82,us,usp000hd8q,2014-11-07T01:41:33.400Z,Vanuatu,earthquake,,,,6.0,reviewed,us,us
1159,2010-05-27 19:16:40.540000+00:00,-14.095,166.83700000000002,35.0,5.0,mb,45.0,161.9,,1.02,us,usp000hd8m,2014-11-07T01:41:33.386Z,Vanuatu,earthquake,,,,13.0,reviewed,us,us
1160,2010-05-27 19:08:11.310000+00:00,-13.912,166.699,35.0,4.4,mb,19.0,161.9,,0.74,us,usp000hd8k,2014-11-07T01:41:33.384Z,Vanuatu,earthquake,,,,2.0,reviewed,us,us
1161,2010-05-27 18:53:09.960000+00:00,-14.074000000000002,166.422,35.0,4.2,mb,15.0,161.6,,1.08,us,usp000hd8j,2014-11-07T01:41:33.383Z,Vanuatu,earthquake,,,,2.0,reviewed,us,us
1166,2010-05-27 18:09:27.450000+00:00,-13.81,166.40599999999998,35.0,4.2,mb,18.0,142.4,,1.4,us,usp000hd8f,2014-11-07T01:41:33.378Z,Vanuatu,earthquake,,,,3.0,reviewed,us,us
1167,2010-05-27 18:08:55.900000+00:00,-13.959000000000001,166.271,35.0,4.1,mb,14.0,178.6,,1.12,us,usp000hd8e,2014-11-07T01:41:33.376Z,Vanuatu,earthquake,,,,1.0,reviewed,us,us
1169,2010-05-27 18:04:39.380000+00:00,-13.59,166.688,35.0,4.9,mb,23.0,99.8,,1.47,us,usp000hd8d,2014-11-07T01:41:33.374Z,Vanuatu,earthquake,,,,3.0,reviewed,us,us
1171,2010-05-27 17:49:35.500000+00:00,-13.859000000000002,166.713,35.0,4.2,mb,14.0,161.9,,1.08,us,usp000hd8b,2014-11-07T01:41:33.370Z,Vanuatu,earthquake,,,,2.0,reviewed,us,us
1172,2010-05-27 17:45:28.700000+00:00,-13.755999999999998,166.93400000000003,35.0,5.3,mb,63.0,55.6,,0.91,us,usp000hd8a,2014-11-07T01:41:33.364Z,Vanuatu,earthquake,,,,18.0,reviewed,us,us
1173,2010-05-27 17:44:38.200000+00:00,-13.819,166.738,35.0,4.2,mb,25.0,134.9,,0.88,us,usp000hd89,2014-11-07T01:41:33.361Z,Vanuatu,earthquake,,,,1.0,reviewed,us,us
1176,2010-05-27 17:30:31.490000+00:00,-13.808,166.81799999999998,35.0,4.6,mb,27.0,146.6,,1.1,us,usp000hd87,2014-11-07T01:41:33.356Z,Vanuatu,earthquake,,,,5.0,reviewed,us,us
1179,2010-05-27 17:24:23.110000+00:00,-13.884,166.73,35.0,5.6,mb,97.0,32.3,,0.9,us,usp000hd86,2014-11-07T01:41:33.347Z,Vanuatu,earthquake,,,,27.0,reviewed,us,us
1180,2010-05-27 17:19:52.860000+00:00,-14.458,167.00799999999998,35.0,5.1,mb,18.0,110.9,,1.13,us,usp000hd85,2014-11-07T01:41:33.344Z,Vanuatu,earthquake,,,,1.0,reviewed,us,us
1181,2010-05-27 17:14:46.570000+00:00,-13.698,166.643,31.0,7.2,mwc,327.0,11.7,,1.08,us,usp000hd84,2017-11-13T18:57:40.216Z,Vanuatu,earthquake,,,,,reviewed,us,gcmt
1338,2010-05-27 01:52:14.680000+00:00,-12.142999999999999,166.543,82.5,4.8,mb,39.0,62.0,,0.86,us,usp000hd7e,2014-11-07T01:41:33.226Z,Santa Cruz Islands,earthquake,,9.5,,18.0,reviewed,us,us
2030,2010-05-24 18:57:13.180000+00:00,-12.367,166.565,35.0,4.2,mb,15.0,161.8,,1.36,us,usp000hd4n,2014-11-07T01:41:32.621Z,Santa Cruz Islands,earthquake,,,,2.0,reviewed,us,us
2087,2010-05-24 13:20:20.810000+00:00,-11.104000000000001,166.389,135.2,4.7,mb,85.0,101.0,,0.78,us,usp000hd4a,2014-11-07T01:41:32.381Z,Santa Cruz Islands,earthquake,,,,34.0,reviewed,us,us
2316,2010-05-23 17:18:10.370000+00:00,-17.105,168.405,203.4,4.8,mb,37.0,66.5,,0.96,us,usp000hd3g,2014-11-07T01:41:32.075Z,Vanuatu,earthquake,,9.7,,13.0,reviewed,us,us
2407,2010-05-23 09:46:13.920000+00:00,-12.234000000000002,165.58599999999998,35.0,4.3,mb,28.0,205.8,,0.93,us,usp000hd2z,2014-11-07T01:41:31.727Z,Santa Cruz Islands,earthquake,,,,7.0,reviewed,us,us
2429,2010-05-23 07:22:48.980000+00:00,-12.661,165.75,35.0,4.7,mb,18.0,114.5,,1.0,us,usp000hd2y,2014-11-07T01:41:31.722Z,Santa Cruz Islands,earthquake,,,,2.0,reviewed,us,us
2695,2010-05-22 14:27:07.440000+00:00,-14.145999999999999,166.995,35.0,4.9,mb,64.0,71.2,,0.9,us,usp000hd1w,2014-11-07T01:41:31.191Z,Vanuatu,earthquake,,,,22.0,reviewed,us,us
8485,2010-06-02 19:50:14.520000+00:00,-13.734000000000002,166.658,35.0,4.6,mb,36.0,130.6,,1.01,us,usp000hdgr,2014-11-07T01:41:37.680Z,Vanuatu,earthquake,,,,5.0,reviewed,us,us
8488,2010-06-02 19:35:00.340000+00:00,-13.53,166.37,43.7,4.1,mb,23.0,97.1,,1.16,us,usp000hdgq,2014-11-07T01:41:37.675Z,Vanuatu,earthquake,,15.6,,1.0,reviewed,us,us
8496,2010-06-02 18:51:07.290000+00:00,-13.731,166.59400000000002,35.0,5.6,mwc,118.0,35.5,,1.0,us,usp000hdgp,2016-11-10T02:29:02.562Z,Vanuatu,earthquake,,,,,reviewed,us,gcmt
8659,2010-06-02 05:09:38.270000+00:00,-14.315999999999999,166.523,39.4,4.6,mb,21.0,153.2,,0.91,us,usp000hdg4,2014-11-07T01:41:37.398Z,Vanuatu,earthquake,,13.2,,2.0,reviewed,us,us
8701,2010-06-02 01:12:48.280000+00:00,-13.549000000000001,166.585,35.0,4.3,mb,21.0,121.7,,1.0,us,usp000hdfw,2014-11-07T01:41:37.258Z,Vanuatu,earthquake,,,,1.0,reviewed,us,us
8784,2010-06-01 16:06:32.650000+00:00,-11.818,165.18099999999998,35.1,4.8,mb,33.0,55.3,,0.73,us,usp000hdfa,2014-11-07T01:41:36.973Z,Santa Cruz Islands,earthquake,,10.7,,6.0,reviewed,us,us
8909,2010-06-01 04:41:24.810000+00:00,-13.895999999999999,166.80200000000002,35.0,4.8,mb,59.0,112.4,,0.97,us,usp000hdes,2014-11-07T01:41:36.593Z,Vanuatu,earthquake,,,,24.0,reviewed,us,us
