,time,latitude,longitude,depth,mag,magType,nst,gap,dmin,rms,net,id,updated,place,type,horizontalError,depthError,magError,magNst,status,locationSource,magSource
77,2010-12-31 12:42:45.300000+00:00,-19.622,168.21200000000002,10.0,4.8,mb,21.0,68.1,,1.34,us,usp000hsc2,2014-11-07T01:43:16.859Z,Vanuatu,earthquake,,,,8.0,reviewed,us,us
129,2010-12-31 04:11:03.180000+00:00,-19.209,167.90200000000002,10.0,5.1,mwc,72.0,76.1,,1.21,us,usp000hsbp,2016-11-10T02:38:40.398Z,Vanuatu region,earthquake,,,,,reviewed,us,gcmt
134,2010-12-31 03:35:04.280000+00:00,-19.781,168.475,10.0,4.4,mb,15.0,201.9,,1.27,us,usp000hsbj,2014-11-07T01:43:16.822Z,Vanuatu,earthquake,,,,5.0,reviewed,us,us
135,2010-12-31 03:28:51.030000+00:00,-19.609,168.18599999999998,10.0,4.7,mb,44.0,108.3,,0.95,us,usp000hsbh,2014-11-07T01:43:16.818Z,Vanuatu,earthquake,,,,15.0,reviewed,us,us
175,2010-12-30 21:22:30.350000+00:00,-19.984,168.35299999999998,20.2,5.0,mwc,55.0,81.3,,1.09,us,usp000hsb2,2016-11-10T02:38:39.258Z,Vanuatu,earthquake,,20.5,,,reviewed,us,gcmt
201,2010-12-30 18:41:57.300000+00:00,-19.496,167.945,10.0,4.1,mb,11.0,190.8,,0.81,us,usp000hsas,2014-11-07T01:43:16.675Z,Vanuatu region,earthquake,,,,3.0,reviewed,us,us
207,2010-12-30 17:49:46.870000+00:00,-19.604,168.235,10.0,4.5,mb,16.0,141.7,,1.26,us,usp000hsaq,2014-11-07T01:43:16.671Z,Vanuatu,earthquake,,,,3.0,reviewed,us,us
211,2010-12-30 17:28:11.690000+00:00,-19.472,168.055,10.0,4.5,mb,11.0,192.3,,1.35,us,usp000hsan,2014-11-07T01:43:16.668Z,Vanuatu,earthquake,,,,3.0,reviewed,us,us
232,2010-12-30 15:02:43.980000+00:00,-19.375,168.28599999999997,10.0,4.2,mb,11.0,194.8,,1.43,us,usp000hsac,2014-11-07T01:43:16.649Z,Vanuatu,earthquake,,,,1.0,reviewed,us,us
258,2010-12-30 11:19:34.280000+00:00,-19.784000000000002,168.333,10.0,4.3,mb,12.0,199.9,,0.75,us,usp000hsa2,2014-11-07T01:43:16.562Z,Vanuatu,earthquake,,,,1.0,reviewed,us,us
267,2010-12-30 09:11:50.220000+00:00,-19.171,167.952,10.0,5.0,mwc,92.0,66.7,,1.0,us,usp000hs9x,2016-11-10T02:38:33.275Z,Vanuatu region,earthquake,,,,,reviewed,us,gcmt
276,2010-12-30 07:54:12.260000+00:00,-19.608,168.33900000000003,10.0,4.2,mb,14.0,142.0,,1.42,us,usp000hs9u,2014-11-07T01:43:16.523Z,Vanuatu,earthquake,,,,3.0,reviewed,us,us
280,2010-12-30 07:29:14.150000+00:00,-19.541,168.239,10.0,4.3,mb,22.0,110.6,,1.1,us,usp000hs9s,2014-11-07T01:43:16.513Z,Vanuatu,earthquake,,,,7.0,reviewed,us,us
288,2010-12-30 06:31:59.940000+00:00,-19.532,168.072,10.0,4.3,mb,13.0,129.9,,1.05,us,usp000hs9m,2014-11-07T01:43:16.477Z,Vanuatu,earthquake,,,,3.0,reviewed,us,us
330,2010-12-29 21:10:35.410000+00:00,-19.635,168.247,10.0,4.9,mwc,101.0,97.6,,1.18,us,usp000hs9c,2016-11-10T02:38:31.113Z,Vanuatu,earthquake,,,,,reviewed,us,gcmt
332,2010-12-29 20:21:22.690000+00:00,-19.801,168.583,10.0,4.2,mb,12.0,207.9,,1.43,us,usp000hs9b,2014-11-07T01:43:16.433Z,Vanuatu,earthquake,,,,1.0,reviewed,us,us
353,2010-12-29 18:10:18.900000+00:00,-19.374000000000002,167.968,10.0,4.8,mb,27.0,77.1,,1.15,us,usp000hs92,2014-11-07T01:43:16.402Z,Vanuatu region,earthquake,,,,4.0,reviewed,us,us
354,2010-12-29 17:58:57.540000+00:00,-19.343,168.21099999999998,10.0,4.1,mb,10.0,162.2,,1.31,us,usp000hs91,2014-11-07T01:43:16.401Z,Vanuatu,earthquake,,,,1.0,reviewed,us,us
374,2010-12-29 13:37:42.200000+00:00,-19.925,168.334,10.0,4.6,mb,25.0,81.0,,1.05,us,usp000hs8s,2014-11-07T01:43:16.381Z,Vanuatu,earthquake,,,,3.0,reviewed,us,us
386,2010-12-29 11:39:25.740000+00:00,-19.59,168.136,10.0,4.8,mb,22.0,78.6,,0.91,us,usp000hs8n,2014-11-07T01:43:16.370Z,Vanuatu,earthquake,,,,2.0,reviewed,us,us
388,2010-12-29 11:10:37.580000+00:00,-19.722,168.16299999999998,10.0,4.9,mwc,62.0,79.4,,1.05,us,usp000hs8m,2016-11-10T02:38:29.893Z,Vanuatu,earthquake,,,,,reviewed,us,gcmt
402,2010-12-29 09:59:28.410000+00:00,-19.613,168.22099999999998,10.0,4.8,mb,46.0,79.0,,0.87,us,usp000hs8e,2014-11-07T01:43:16.349Z,Vanuatu,earthquake,,,,10.0,reviewed,us,us
405,2010-12-29 09:46:19.020000+00:00,-19.497,168.217,10.0,5.0,mb,46.0,78.5,,1.12,us,usp000hs8d,2014-11-07T01:43:16.345Z,Vanuatu,earthquake,,,,17.0,reviewed,us,us
418,2010-12-29 07:43:54.840000+00:00,-19.982,168.438,10.0,4.4,mb,14.0,146.8,,1.08,us,usp000hs86,2014-11-07T01:43:16.325Z,Vanuatu,earthquake,,,,2.0,reviewed,us,us
425,2010-12-29 07:09:24.940000+00:00,-19.529,168.109,10.0,5.2,mb,38.0,53.6,,1.32,us,usp000hs84,2014-11-07T01:43:16.320Z,Vanuatu,earthquake,,,,7.0,reviewed,us,us
428,2010-12-29 07:02:17.340000+00:00,-19.701,168.123,10.0,5.5,mb,88.0,52.2,,1.29,us,usp000hs83,2015-05-13T18:53:58.000Z,Vanuatu,earthquake,,,,51.0,reviewed,us,us
430,2010-12-29 06:54:19.640000+00:00,-19.660999999999998,168.14,16.0,6.4,mwc,372.0,20.2,,1.27,us,usp000hs82,2016-11-10T02:38:29.245Z,Vanuatu,earthquake,,,,,reviewed,us,us
458,2010-12-29 04:20:38.480000+00:00,-19.737000000000002,168.18200000000002,10.0,4.5,mb,17.0,135.1,,1.4,us,usp000hs7u,2014-11-07T01:43:16.230Z,Vanuatu,earthquake,,,,4.0,reviewed,us,us
496,2010-12-28 23:13:00.570000+00:00,-19.405,167.97799999999998,10.0,4.8,mb,45.0,99.5,,1.14,us,usp000hs7c,2014-11-07T01:43:16.179Z,Vanuatu region,earthquake,,,,20.0,reviewed,us,us
504,2010-12-28 22:02:18.340000+00:00,-19.441,168.05200000000002,10.0,5.0,mwc,107.0,116.4,,1.06,us,usp000hs79,2016-11-10T02:38:28.608Z,Vanuatu,earthquake,,,,,reviewed,us,gcmt
506,2010-12-28 21:43:50.150000+00:00,-19.385,168.014,10.4,5.2,mwc,168.0,28.6,,0.92,us,usp000hs78,2016-11-10T02:38:27.873Z,Vanuatu,earthquake,,4.4,,,reviewed,us,gcmt
514,2010-12-28 20:45:06.180000+00:00,-20.212,168.66,10.0,4.3,mb,14.0,151.8,,1.61,us,usp000hs76,2014-11-07T01:43:16.136Z,"Loyalty Islands, New Caledonia",earthquake,,,,1.0,reviewed,us,us
516,2010-12-28 20:07:13.930000+00:00,-19.451,168.03799999999998,10.0,4.5,mb,12.0,160.6,,1.0,us,usp000hs75,2014-11-07T01:43:16.134Z,Vanuatu,earthquake,,,,2.0,reviewed,us,us
526,2010-12-28 18:19:18.140000+00:00,-20.155,168.39,10.0,4.4,mb,12.0,146.4,,1.55,us,usp000hs70,2014-11-07T01:43:16.116Z,"Loyalty Islands, New Caledonia",earthquake,,,,1.0,reviewed,us,us
545,2010-12-28 15:00:49.830000+00:00,-19.442,168.044,10.0,4.4,mb,14.0,160.6,,0.97,us,usp000hs6v,2014-11-07T01:43:16.091Z,Vanuatu,earthquake,,,,3.0,reviewed,us,us
564,2010-12-28 12:09:53.080000+00:00,-19.947,168.043,10.0,5.2,mb,49.0,82.4,,1.29,us,usp000hs6q,2014-11-07T01:43:16.076Z,Vanuatu,earthquake,,,,23.0,reviewed,us,us
604,2010-12-28 06:54:46.860000+00:00,-19.282,168.017,10.0,5.0,mb,21.0,128.3,,1.08,us,usp000hs6b,2014-11-07T01:43:15.995Z,Vanuatu,earthquake,,,,4.0,reviewed,us,us
633,2010-12-28 03:49:51.180000+00:00,-19.33,168.03400000000002,10.0,4.3,mb,22.0,118.3,,1.09,us,usp000hs62,2014-11-07T01:43:15.964Z,Vanuatu,earthquake,,,,4.0,reviewed,us,us
634,2010-12-28 03:48:09.620000+00:00,-19.385,168.101,10.0,4.9,mwc,24.0,118.3,,1.0,us,usp000hs61,2016-11-10T02:38:24.123Z,Vanuatu,earthquake,,,,,reviewed,us,gcmt
689,2010-12-28 02:20:29.680000+00:00,-19.378,168.06900000000002,10.0,5.2,mb,56.0,140.5,,1.13,us,usp000hs5v,2014-11-07T01:43:15.940Z,Vanuatu,earthquake,,,,23.0,reviewed,us,us
721,2010-12-27 23:53:07.870000+00:00,-19.867,168.282,10.0,4.9,mwc,157.0,63.3,,1.11,us,usp000hs5h,2016-11-10T02:38:22.857Z,Vanuatu,earthquake,,,,,reviewed,us,gcmt
730,2010-12-27 22:46:48.290000+00:00,-19.426,168.41299999999998,10.0,4.9,mb,28.0,77.5,,1.26,us,usp000hs5g,2014-11-07T01:43:15.890Z,Vanuatu,earthquake,,,,10.0,reviewed,us,us
741,2010-12-27 21:36:41.590000+00:00,-20.055999999999997,168.21400000000003,14.1,5.1,mb,42.0,83.5,,1.16,us,usp000hs5a,2014-11-07T01:43:15.875Z,"Loyalty Islands, New Caledonia",earthquake,,28.0,,19.0,reviewed,us,us
749,2010-12-27 21:04:44.210000+00:00,-19.998,168.231,10.0,4.9,mwc,75.0,97.2,,0.93,us,usp000hs58,2016-11-10T02:38:22.220Z,Vanuatu,earthquake,,,,,reviewed,us,gcmt
755,2010-12-27 20:38:29.670000+00:00,-19.399,168.00599999999997,10.0,4.0,mb,15.0,102.7,,1.03,us,usp000hs54,2014-11-07T01:43:15.855Z,Vanuatu,earthquake,,,,1.0,reviewed,us,us
756,2010-12-27 20:33:15.780000+00:00,-19.864,168.21900000000002,10.0,5.2,mb,46.0,101.2,,1.25,us,usp000hs53,2014-11-07T01:43:15.851Z,Vanuatu,earthquake,,,,15.0,reviewed,us,us
761,2010-12-27 19:40:12.650000+00:00,-19.311,167.96,10.0,5.5,mwc,181.0,27.1,,0.96,us,usp000hs50,2016-11-10T02:38:21.622Z,Vanuatu region,earthquake,,,,,reviewed,us,gcmt
791,2010-12-27 16:43:48.440000+00:00,-19.086,167.926,10.0,5.1,mwc,51.0,80.9,,1.14,us,usp000hs4m,2016-11-10T02:38:20.382Z,Vanuatu region,earthquake,,,,,reviewed,us,gcmt
862,2010-12-27 09:00:20.440000+00:00,-19.732,168.36900000000003,10.0,5.0,mb,33.0,80.1,,0.99,us,usp000hs3w,2014-11-07T01:43:15.696Z,Vanuatu,earthquake,,,,5.0,reviewed,us,us
877,2010-12-27 07:07:31.310000+00:00,-19.914,168.5,10.0,4.3,mb,10.0,172.7,,1.39,us,usp000hs3j,2014-11-07T01:43:15.648Z,Vanuatu,earthquake,,,,2.0,reviewed,us,us
884,2010-12-27 05:44:10.790000+00:00,-19.59,167.94,10.0,5.2,mb,54.0,48.8,,0.98,us,usp000hs3e,2014-11-07T01:43:15.617Z,Vanuatu region,earthquake,,,,15.0,reviewed,us,us
921,2010-12-27 01:51:25.240000+00:00,-19.359,167.80200000000002,10.0,5.0,mwc,74.0,76.5,,1.2,us,usp000hs33,2016-11-10T02:38:16.128Z,Vanuatu region,earthquake,,,,,reviewed,us,gcmt
929,2010-12-27 00:49:03.270000+00:00,-19.687,167.856,10.0,4.3,mb,20.0,71.6,,0.61,us,usp000hs31,2014-11-07T01:43:15.551Z,Vanuatu region,earthquake,,,,9.0,reviewed,us,us
944,2010-12-26 23:36:05.870000+00:00,-19.785999999999998,168.171,5.1,4.2,mb,19.0,104.2,,0.88,us,usp000hs2x,2014-11-07T01:43:15.542Z,Vanuatu,earthquake,,26.6,,6.0,reviewed,us,us
945,2010-12-26 23:32:11+00:00,-19.8,167.75599999999997,9.1,5.0,mb,18.0,49.4,,0.38,us,usp000hs2w,2014-11-07T01:43:15.540Z,Vanuatu region,earthquake,,27.3,,10.0,reviewed,us,us
950,2010-12-26 23:02:26.710000+00:00,-19.488,168.074,10.0,4.6,mb,38.0,60.3,,0.97,us,usp000hs2v,2014-11-07T01:43:15.537Z,Vanuatu,earthquake,,,,20.0,reviewed,us,us
978,2010-12-26 19:38:21.440000+00:00,-19.636,168.261,10.0,5.5,mwc,196.0,32.3,,1.13,us,usp000hs2h,2016-11-10T02:38:12.536Z,Vanuatu,earthquake,,,,,reviewed,us,gcmt
980,2010-12-26 19:10:42.200000+00:00,-19.686,168.326,10.0,4.3,mb,23.0,79.8,,1.23,us,usp000hs2f,2014-11-07T01:43:15.479Z,Vanuatu,earthquake,,,,3.0,reviewed,us,us
1013,2010-12-26 15:18:48.520000+00:00,-19.695999999999998,168.174,10.0,4.6,mb,17.0,100.2,,1.27,us,usp000hs20,2014-11-07T01:43:15.441Z,Vanuatu,earthquake,,,,3.0,reviewed,us,us
1023,2010-12-26 14:15:49.270000+00:00,-19.925,168.312,10.0,4.3,mb,7.0,201.4,,0.68,us,usp000hs1w,2014-11-07T01:43:15.428Z,Vanuatu,earthquake,,0.0,,1.0,reviewed,us,us
1024,2010-12-26 14:14:14.880000+00:00,-19.999000000000002,168.14,10.0,4.6,mb,13.0,139.1,,1.36,us,usp000hs1v,2014-11-07T01:43:15.426Z,Vanuatu,earthquake,,,,1.0,reviewed,us,us
1028,2010-12-26 13:52:43.690000+00:00,-19.795,168.27900000000002,10.0,4.4,mb,8.0,131.6,,1.23,us,usp000hs1t,2014-11-07T01:43:15.415Z,Vanuatu,earthquake,,,,1.0,reviewed,us,us
1033,2010-12-26 13:34:04.300000+00:00,-19.842,168.213,10.0,5.0,mwc,78.0,83.1,,1.05,us,usp000hs1r,2016-11-10T02:38:11.897Z,Vanuatu,earthquake,,,,,reviewed,us,gcmt
1046,2010-12-26 11:58:14.650000+00:00,-19.49,168.042,10.0,4.8,mb,23.0,97.3,,1.2,us,usp000hs1h,2014-11-07T01:43:15.364Z,Vanuatu,earthquake,,,,9.0,reviewed,us,us
1047,2010-12-26 11:46:31.300000+00:00,-19.787,168.268,10.0,4.6,mb,16.0,111.3,,1.26,us,usp000hs1g,2014-11-07T01:43:15.362Z,Vanuatu,earthquake,,,,6.0,reviewed,us,us
1055,2010-12-26 10:33:12.340000+00:00,-19.486,168.088,10.0,5.3,mb,90.0,78.0,,1.11,us,usp000hs1a,2014-11-07T01:43:15.333Z,Vanuatu,earthquake,,,,50.0,reviewed,us,us
1060,2010-12-26 10:00:00.250000+00:00,-19.927,168.13,10.0,5.2,mb,77.0,109.6,,0.99,us,usp000hs18,2014-11-07T01:43:15.326Z,Vanuatu,earthquake,,,,44.0,reviewed,us,us
1082,2010-12-26 06:52:47.190000+00:00,-19.745,168.233,10.0,4.9,mwc,61.0,79.7,,0.89,us,usp000hs0u,2016-11-10T02:38:10.128Z,Vanuatu,earthquake,,,,,reviewed,us,gcmt
1091,2010-12-26 06:27:37.410000+00:00,-19.452,167.924,10.0,4.6,mb,13.0,93.1,,0.7,us,usp000hs0n,2014-11-07T01:43:15.065Z,Vanuatu region,earthquake,,,,3.0,reviewed,us,us
1093,2010-12-26 06:17:57.420000+00:00,-19.742,168.207,10.0,5.4,mwc,149.0,35.5,,0.85,us,usp000hs0m,2016-11-10T02:38:08.849Z,Vanuatu,earthquake,,,,,reviewed,us,gcmt
1121,2010-12-26 03:26:04.420000+00:00,-19.444000000000003,168.067,10.0,4.8,mb,38.0,52.7,,1.11,us,usp000hs06,2014-11-07T01:43:14.950Z,Vanuatu,earthquake,,,,12.0,reviewed,us,us
1124,2010-12-26 03:15:20.200000+00:00,-19.355,168.042,10.0,4.5,mb,25.0,52.7,,1.21,us,usp000hs04,2014-11-07T01:43:14.946Z,Vanuatu,earthquake,,,,5.0,reviewed,us,us
1127,2010-12-26 02:48:31.350000+00:00,-19.674,168.362,10.0,4.7,mb,35.0,83.2,,0.97,us,usp000hs03,2014-11-07T01:43:14.943Z,Vanuatu,earthquake,,,,11.0,reviewed,us,us
1131,2010-12-26 02:43:51.180000+00:00,-19.842,168.33,10.0,4.7,mb,38.0,97.6,,0.98,us,usp000hs01,2014-11-07T01:43:14.937Z,Vanuatu,earthquake,,,,10.0,reviewed,us,us
1133,2010-12-26 02:30:33.280000+00:00,-19.569000000000003,168.12599999999998,10.0,4.5,mb,25.0,44.6,,1.02,us,usp000hrzz,2014-11-07T01:43:14.932Z,Vanuatu,earthquake,,,,9.0,reviewed,us,us
1134,2010-12-26 02:28:58.490000+00:00,-19.535,168.063,10.0,4.4,mb,18.0,82.1,,0.76,us,usp000hrzy,2014-11-07T01:43:14.930Z,Vanuatu,earthquake,,,,6.0,reviewed,us,us
1135,2010-12-26 02:26:47.220000+00:00,-19.734,168.292,10.0,4.5,mb,20.0,135.7,,0.93,us,usp000hrzx,2014-11-07T01:43:14.927Z,Vanuatu,earthquake,,,,6.0,reviewed,us,us
1138,2010-12-26 02:21:08.210000+00:00,-19.647000000000002,168.24900000000002,10.0,4.8,mb,41.0,82.9,,0.72,us,usp000hrzu,2014-11-07T01:43:14.916Z,Vanuatu,earthquake,,,,13.0,reviewed,us,us
1140,2010-12-26 02:13:37.680000+00:00,-19.616,168.28400000000002,13.0,6.0,mwb,300.0,25.1,,0.93,us,usp000hrzt,2016-11-10T02:38:08.229Z,Vanuatu,earthquake,,,,,reviewed,us,us
1145,2010-12-26 02:00:04.090000+00:00,-19.449,167.989,10.0,4.6,mb,27.0,81.8,,1.13,us,usp000hrzr,2014-11-07T01:43:14.804Z,Vanuatu region,earthquake,,,,9.0,reviewed,us,us
1149,2010-12-26 01:50:36.020000+00:00,-19.44,168.145,10.0,4.6,mb,23.0,65.6,,1.03,us,usp000hrzp,2014-11-07T01:43:14.792Z,Vanuatu,earthquake,,,,7.0,reviewed,us,us
1151,2010-12-26 01:40:53.480000+00:00,-19.866,168.261,10.0,4.6,mb,20.0,155.7,,0.85,us,usp000hrzn,2014-11-07T01:43:14.720Z,Vanuatu,earthquake,,,,6.0,reviewed,us,us
1152,2010-12-26 01:25:30.300000+00:00,-19.827,168.207,10.0,4.7,mb,28.0,97.3,,1.05,us,usp000hrzm,2014-11-07T01:43:14.715Z,Vanuatu,earthquake,,,,9.0,reviewed,us,us
1153,2010-12-26 01:21:23.880000+00:00,-19.84,167.875,10.0,4.2,mb,17.0,47.9,,0.97,us,usp000hrzk,2014-11-07T01:43:14.674Z,Vanuatu region,earthquake,,,,2.0,reviewed,us,us
1156,2010-12-26 01:12:02.280000+00:00,-19.445,168.06,10.0,4.8,mb,47.0,52.7,,0.9,us,usp000hrzh,2014-11-07T01:43:14.666Z,Vanuatu,earthquake,,,,16.0,reviewed,us,us
1157,2010-12-26 01:06:08.540000+00:00,-19.844,168.545,10.0,4.7,mb,10.0,249.3,,0.56,us,usp000hrzg,2014-11-07T01:43:14.665Z,Vanuatu,earthquake,,,,5.0,reviewed,us,us
1159,2010-12-26 01:00:21.190000+00:00,-19.937,168.18099999999998,10.0,5.3,mwc,243.0,24.1,,0.9,us,usp000hrze,2016-11-10T02:38:07.633Z,Vanuatu,earthquake,,,,,reviewed,us,gcmt
1166,2010-12-26 00:12:37.020000+00:00,-19.506,168.101,10.0,5.1,mb,60.0,49.0,,0.95,us,usp000hrzb,2014-11-07T01:43:14.605Z,Vanuatu,earthquake,,,,33.0,reviewed,us,us
1167,2010-12-26 00:12:34.050000+00:00,-21.083000000000002,168.12900000000002,10.0,5.0,mb,36.0,52.7,,1.02,us,usp000hrza,2014-11-07T01:43:14.601Z,"Loyalty Islands, New Caledonia",earthquake,,,,21.0,reviewed,us,us
1170,2010-12-25 23:56:55.690000+00:00,-19.511,168.498,10.0,4.9,mb,41.0,88.4,,1.47,us,usp000hrz8,2014-11-07T01:43:14.584Z,Vanuatu,earthquake,,,,20.0,reviewed,us,us
1171,2010-12-25 23:47:03.370000+00:00,-19.4,167.96900000000002,10.3,4.2,mb,18.0,77.9,,0.91,us,usp000hrz7,2014-11-07T01:43:14.582Z,Vanuatu region,earthquake,,25.4,,8.0,reviewed,us,us
1173,2010-12-25 23:36:24.790000+00:00,-19.980999999999998,168.315,11.2,4.5,mb,19.0,104.8,,0.95,us,usp000hrz6,2014-11-07T01:43:14.580Z,Vanuatu,earthquake,,23.4,,8.0,reviewed,us,us
1177,2010-12-25 23:22:01.520000+00:00,-20.125999999999998,168.513,10.0,4.5,mb,16.0,149.7,,0.74,us,usp000hrz3,2014-11-07T01:43:14.575Z,"Loyalty Islands, New Caledonia",earthquake,,,,8.0,reviewed,us,us
1178,2010-12-25 23:20:22.480000+00:00,-19.648,168.014,10.0,5.1,mb,46.0,78.5,,1.3,us,usp000hrz2,2014-11-07T01:43:14.571Z,Vanuatu,earthquake,,,,22.0,reviewed,us,us
1179,2010-12-25 23:17:14.950000+00:00,-20.002,168.28,3.2,4.5,mb,25.0,90.5,,0.66,us,usp000hrz1,2014-11-07T01:43:14.568Z,"Loyalty Islands, New Caledonia",earthquake,,20.2,,13.0,reviewed,us,us
1182,2010-12-25 23:13:05.390000+00:00,-19.541,168.22099999999998,10.0,4.4,mb,18.0,81.3,,0.7,us,usp000hryy,2014-11-07T01:43:14.556Z,Vanuatu,earthquake,,,,8.0,reviewed,us,us
1187,2010-12-25 22:41:31.130000+00:00,-19.342,167.933,23.8,5.0,mb,85.0,76.8,,0.95,us,usp000hryu,2014-11-07T01:43:14.530Z,Vanuatu region,earthquake,,14.2,,31.0,reviewed,us,us
1189,2010-12-25 22:33:33.210000+00:00,-19.879,168.385,18.7,4.4,mb,25.0,89.9,,0.5,us,usp000hryt,2014-11-07T01:43:14.528Z,Vanuatu,earthquake,,16.5,,11.0,reviewed,us,us
1192,2010-12-25 22:30:26.140000+00:00,-19.87,168.31900000000002,10.0,4.4,mb,20.0,174.2,,0.78,us,usp000hryr,2014-11-07T01:43:14.524Z,Vanuatu,earthquake,,,,9.0,reviewed,us,us
1193,2010-12-25 22:26:02.080000+00:00,-19.833,168.09599999999998,10.0,5.2,mwc,107.0,79.7,,0.96,us,usp000hryq,2016-11-10T02:38:06.354Z,Vanuatu,earthquake,,,,,reviewed,us,gcmt
1198,2010-12-25 22:09:01.930000+00:00,-19.447,168.196,10.0,4.6,mb,32.0,97.7,,0.71,us,usp000hryk,2014-11-07T01:43:14.505Z,Vanuatu,earthquake,,,,11.0,reviewed,us,us
1202,2010-12-25 21:53:06.920000+00:00,-19.954,168.2,10.0,4.3,mb,20.0,122.7,,0.79,us,usp000hryf,2014-11-07T01:43:14.493Z,Vanuatu,earthquake,,,,10.0,reviewed,us,us
1203,2010-12-25 21:47:48.900000+00:00,-19.721,168.02,10.0,4.7,mb,41.0,37.3,,0.73,us,usp000hrye,2014-11-07T01:43:14.490Z,Vanuatu,earthquake,,,,22.0,reviewed,us,us
1214,2010-12-25 20:41:26.220000+00:00,-19.378,168.14,10.0,4.6,mb,12.0,141.7,,1.09,us,usp000hry6,2014-11-07T01:43:14.459Z,Vanuatu,earthquake,,,,3.0,reviewed,us,us
1217,2010-12-25 20:33:53.350000+00:00,-19.493,167.873,10.0,4.5,mb,23.0,59.8,,1.47,us,usp000hry4,2014-11-07T01:43:14.452Z,Vanuatu region,earthquake,,,,2.0,reviewed,us,us
1226,2010-12-25 20:04:03.300000+00:00,-19.327,168.095,10.0,4.4,mb,21.0,97.6,,1.42,us,usp000hrxx,2014-11-07T01:43:14.417Z,Vanuatu,earthquake,,,,4.0,reviewed,us,us
1237,2010-12-25 19:16:43.160000+00:00,-19.445999999999998,168.043,10.0,4.7,mb,30.0,97.3,,1.31,us,usp000hrxq,2014-11-07T01:43:14.370Z,Vanuatu,earthquake,,,,11.0,reviewed,us,us
1238,2010-12-25 19:10:40.950000+00:00,-19.828,168.39700000000002,10.0,4.7,mb,17.0,134.0,,1.16,us,usp000hrxp,2014-11-07T01:43:14.368Z,Vanuatu,earthquake,,,,4.0,reviewed,us,us
1239,2010-12-25 19:08:36.540000+00:00,-19.621,168.203,10.0,4.8,mb,22.0,97.5,,1.09,us,usp000hrxn,2014-11-07T01:43:14.366Z,Vanuatu,earthquake,,,,5.0,reviewed,us,us
1241,2010-12-25 19:03:46.760000+00:00,-19.41,168.043,10.0,4.4,mb,18.0,140.5,,1.0,us,usp000hrxm,2014-11-07T01:43:14.364Z,Vanuatu,earthquake,,,,4.0,reviewed,us,us
1244,2010-12-25 18:52:30.820000+00:00,-19.323,167.975,10.0,5.3,mb,97.0,93.8,,1.02,us,usp000hrxh,2014-11-07T01:43:14.354Z,Vanuatu region,earthquake,,,,50.0,reviewed,us,us
1247,2010-12-25 18:40:15.790000+00:00,-19.808,168.27200000000002,10.0,5.2,mb,39.0,99.0,,1.07,us,usp000hrxf,2014-11-07T01:43:14.346Z,Vanuatu,earthquake,,,,12.0,reviewed,us,us
1248,2010-12-25 18:38:49.180000+00:00,-19.66,168.22400000000002,10.0,5.4,mb,114.0,94.1,,0.95,us,usp000hrxe,2014-11-07T01:43:14.337Z,Vanuatu,earthquake,,,,34.0,reviewed,us,us
1252,2010-12-25 18:28:23.700000+00:00,-19.469,168.06599999999997,10.0,5.0,mb,57.0,54.9,,1.47,us,usp000hrxc,2014-11-07T01:43:14.330Z,Vanuatu,earthquake,,,,22.0,reviewed,us,us
1255,2010-12-25 17:59:04.160000+00:00,-19.605,168.15,10.0,4.4,mb,15.0,110.3,,1.59,us,usp000hrxa,2014-11-07T01:43:14.327Z,Vanuatu,earthquake,,,,2.0,reviewed,us,us
1257,2010-12-25 17:33:59.200000+00:00,-19.605,167.976,10.0,4.4,mb,16.0,78.2,,1.42,us,usp000hrx8,2014-11-07T01:43:14.309Z,Vanuatu region,earthquake,,,,3.0,reviewed,us,us
1259,2010-12-25 17:14:35.370000+00:00,-19.508,167.778,10.0,4.4,mb,8.0,152.5,,1.17,us,usp000hrx7,2014-11-07T01:43:14.308Z,Vanuatu region,earthquake,,,,1.0,reviewed,us,us
1260,2010-12-25 17:11:41.900000+00:00,-19.396,167.947,10.0,5.1,mb,66.0,97.1,,1.14,us,usp000hrx6,2014-11-07T01:43:14.303Z,Vanuatu region,earthquake,,,,39.0,reviewed,us,us
1262,2010-12-25 17:05:58.400000+00:00,-19.76,168.15099999999998,10.0,4.3,mb,11.0,110.1,,1.67,us,usp000hrx5,2014-11-07T01:43:14.301Z,Vanuatu,earthquake,,,,1.0,reviewed,us,us
1263,2010-12-25 17:02:27.160000+00:00,-19.317999999999998,167.942,10.0,5.1,mb,89.0,81.4,,1.29,us,usp000hrx4,2014-11-07T01:43:14.294Z,Vanuatu region,earthquake,,,,48.0,reviewed,us,us
1265,2010-12-25 16:53:57.010000+00:00,-19.291,167.97,10.0,5.2,mb,63.0,76.7,,1.28,us,usp000hrx3,2014-11-07T01:43:14.289Z,Vanuatu region,earthquake,,,,35.0,reviewed,us,us
1268,2010-12-25 16:49:04.350000+00:00,-19.49,168.082,10.0,4.8,mb,25.0,97.4,,1.29,us,usp000hrx1,2014-11-07T01:43:14.284Z,Vanuatu,earthquake,,,,2.0,reviewed,us,us
1269,2010-12-25 16:47:35.280000+00:00,-19.636,167.987,10.0,5.2,mb,54.0,78.4,,1.12,us,usp000hrx0,2014-11-07T01:43:14.280Z,Vanuatu region,earthquake,,,,27.0,reviewed,us,us
1271,2010-12-25 16:22:11.600000+00:00,-19.320999999999998,167.928,10.0,5.0,mb,75.0,51.6,,1.02,us,usp000hrwy,2014-11-07T01:43:14.272Z,Vanuatu region,earthquake,,,,21.0,reviewed,us,us
1276,2010-12-25 15:28:34.310000+00:00,-19.678,167.955,10.0,5.2,mb,112.0,52.0,,0.91,us,usp000hrwt,2014-11-07T01:43:14.254Z,Vanuatu region,earthquake,,,,22.0,reviewed,us,us
1277,2010-12-25 15:26:18.300000+00:00,-19.467,168.023,10.0,5.3,mb,80.0,77.7,,0.97,us,usp000hrws,2014-11-07T01:43:14.248Z,Vanuatu,earthquake,,,,44.0,reviewed,us,us
1278,2010-12-25 15:24:44.770000+00:00,-19.357,167.968,10.0,4.8,mb,26.0,48.1,,1.16,us,usp000hrwr,2014-11-07T01:43:14.245Z,Vanuatu region,earthquake,,,,4.0,reviewed,us,us
1282,2010-12-25 15:04:16.430000+00:00,-19.361,167.97299999999998,10.0,5.1,mb,40.0,99.5,,1.03,us,usp000hrwp,2014-11-07T01:43:14.239Z,Vanuatu region,earthquake,,,,13.0,reviewed,us,us
1283,2010-12-25 15:01:39.160000+00:00,-19.904,168.245,10.0,4.3,mb,15.0,139.1,,0.74,us,usp000hrwn,2014-11-07T01:43:14.237Z,Vanuatu,earthquake,,,,2.0,reviewed,us,us
1284,2010-12-25 14:59:50.350000+00:00,-19.676,168.19299999999998,10.0,4.6,mb,16.0,134.2,,1.03,us,usp000hrwm,2014-11-07T01:43:14.235Z,Vanuatu,earthquake,,,,5.0,reviewed,us,us
1285,2010-12-25 14:44:35.980000+00:00,-19.361,167.954,10.0,5.4,mb,86.0,77.0,,1.28,us,usp000hrwk,2015-05-13T18:53:58.000Z,Vanuatu region,earthquake,,,,48.0,reviewed,us,us
1286,2010-12-25 14:44:23.890000+00:00,-19.467,168.10299999999998,10.0,4.7,mb,27.0,119.8,,0.89,us,usp000hrwj,2014-11-07T01:43:14.226Z,Vanuatu,earthquake,,,,1.0,reviewed,us,us
1288,2010-12-25 14:37:49.330000+00:00,-19.512999999999998,167.958,10.0,4.1,mb,16.0,97.0,,1.09,us,usp000hrwg,2014-11-07T01:43:14.222Z,Vanuatu region,earthquake,,,,2.0,reviewed,us,us
1289,2010-12-25 14:24:34.560000+00:00,-19.509,168.15200000000002,10.0,4.6,mb,19.0,78.3,,1.1,us,usp000hrwf,2014-11-07T01:43:14.220Z,Vanuatu,earthquake,,,,2.0,reviewed,us,us
1294,2010-12-25 14:14:18.810000+00:00,-19.419,168.03900000000002,10.0,4.5,mb,14.0,84.4,,1.06,us,usp000hrwb,2014-11-07T01:43:14.205Z,Vanuatu,earthquake,,,,2.0,reviewed,us,us
1299,2010-12-25 14:01:13+00:00,-19.709,167.985,10.0,4.2,mb,14.0,131.2,,0.78,us,usp000hrw6,2014-11-07T01:43:14.180Z,Vanuatu region,earthquake,,,,2.0,reviewed,us,us
1300,2010-12-25 13:59:02.040000+00:00,-19.307000000000002,168.002,10.0,5.5,mb,159.0,25.4,,1.16,us,usp000hrw5,2015-05-13T18:53:58.000Z,Vanuatu,earthquake,,,,89.0,reviewed,us,us
1301,2010-12-25 13:53:00.590000+00:00,-19.62,168.13299999999998,10.0,4.2,mb,20.0,113.0,,1.18,us,usp000hrw4,2014-11-07T01:43:14.156Z,Vanuatu,earthquake,,,,1.0,reviewed,us,us
1303,2010-12-25 13:49:20.420000+00:00,-19.212,167.99900000000002,10.0,4.5,mb,29.0,76.4,,1.26,us,usp000hrw3,2014-11-07T01:43:14.153Z,Vanuatu region,earthquake,,,,6.0,reviewed,us,us
1304,2010-12-25 13:44:04.930000+00:00,-19.132,167.912,10.0,4.6,mb,15.0,143.2,,1.28,us,usp000hrw2,2014-11-07T01:43:14.151Z,Vanuatu region,earthquake,,,,3.0,reviewed,us,us
1306,2010-12-25 13:27:45.290000+00:00,-19.467,167.919,10.0,5.3,mb,13.0,109.9,,1.17,us,usp000hrw1,2014-11-07T01:43:14.149Z,Vanuatu region,earthquake,,,,2.0,reviewed,us,us
1307,2010-12-25 13:16:37+00:00,-19.702,167.947,16.0,7.3,mwc,409.0,12.0,,1.17,us,usp000hrw0,2017-11-13T20:04:14.579Z,Vanuatu region,earthquake,,,,,reviewed,us,us
1390,2010-12-25 04:00:29.230000+00:00,-19.965999999999998,169.06900000000002,10.0,4.6,mb,15.0,211.7,,1.31,us,usp000hrut,2014-11-07T01:43:13.931Z,Vanuatu,earthquake,,,,5.0,reviewed,us,us
1617,2010-12-24 00:05:34.670000+00:00,-19.847,168.53099999999998,10.0,5.0,mb,80.0,51.4,,1.39,us,usp000hrrs,2014-11-07T01:43:13.443Z,Vanuatu,earthquake,,,,40.0,reviewed,us,us
1677,2010-12-23 17:29:58.450000+00:00,-17.664,167.36900000000003,11.0,4.7,mb,20.0,74.1,,0.99,us,usp000hrqx,2014-11-07T01:43:13.345Z,Vanuatu,earthquake,,22.7,,1.0,reviewed,us,us
1694,2010-12-23 16:28:14.240000+00:00,-19.908,168.59599999999998,39.3,5.6,mb,42.0,81.8,,1.38,us,usp000hrqj,2015-05-13T18:53:58.000Z,Vanuatu,earthquake,,12.0,,20.0,reviewed,us,us
1697,2010-12-23 16:01:34.420000+00:00,-19.723,168.46900000000002,58.6,5.3,mb,183.0,28.1,,1.34,us,usp000hrqg,2014-11-07T01:43:13.255Z,Vanuatu,earthquake,,9.9,,104.0,reviewed,us,us
2876,2010-12-19 00:02:21.020000+00:00,-18.498,168.674,136.3,4.8,mb,107.0,72.1,,1.03,us,usp000hr4c,2014-11-07T01:43:09.695Z,Vanuatu,earthquake,,10.4,,56.0,reviewed,us,us
5986,2011-01-01 12:48:59.740000+00:00,-19.598,168.282,10.0,4.4,mb,19.0,118.3,,1.12,us,usp000hsdg,2014-11-07T01:43:19.561Z,Vanuatu,earthquake,,,,3.0,reviewed,us,us
6049,2011-01-01 04:55:40.950000+00:00,-19.396,168.05200000000002,10.0,4.3,mb,11.0,160.3,,1.3,us,usp000hsd6,2014-11-07T01:43:19.026Z,Vanuatu,earthquake,,,,2.0,reviewed,us,us
6068,2011-01-01 02:58:35.050000+00:00,-19.489,168.148,10.0,4.8,mb,27.0,134.0,,1.1,us,usp000hsd5,2014-11-07T01:43:19.007Z,Vanuatu,earthquake,,,,12.0,reviewed,us,us
6086,2011-01-01 01:08:27.450000+00:00,-19.539,168.13,10.0,4.2,mb,9.0,134.0,,1.33,us,usp000hscy,2014-11-07T01:43:18.757Z,Vanuatu,earthquake,,,,2.0,reviewed,us,us
