,time,latitude,longitude,depth,mag,magType,nst,gap,dmin,rms,net,id,updated,place,type,horizontalError,depthError,magError,magNst,status,locationSource,magSource
5579,2013-07-13 21:05:38.560000+00:00,-4.575,152.93,71.3,4.5,mb,37.0,53.0,,0.51,us,usp000k1yy,2014-11-07T01:51:15.897Z,"New Britain region, Papua New Guinea",earthquake,,6.6,,29.0,reviewed,us,us
6882,2013-07-09 08:54:53.090000+00:00,-4.94,151.952,117.9,4.6,mb,29.0,90.0,,0.49,us,usp000k1ur,2014-11-07T01:51:14.513Z,"New Britain region, Papua New Guinea",earthquake,,6.4,,22.0,reviewed,us,us
7082,2013-07-08 15:15:46.180000+00:00,-6.829,155.065,35.0,4.6,mb,13.0,94.0,,0.87,us,usp000k1u1,2014-11-07T01:51:14.373Z,"Bougainville region, Papua New Guinea",earthquake,,,,4.0,reviewed,us,us
7215,2013-07-08 02:06:42.630000+00:00,-6.279,152.469,30.2,4.5,mb,33.0,49.0,,1.22,us,usp000k1th,2014-11-07T01:51:14.236Z,"New Britain region, Papua New Guinea",earthquake,,4.7,,28.0,reviewed,us,us
7313,2013-07-07 18:35:30.740000+00:00,-3.917,153.92700000000002,385.5,7.3,mww,117.0,24.0,,0.88,us,usb000i89z,2017-11-14T15:33:03.980Z,"115km ENE of Taron, Papua New Guinea",earthquake,,4.0,,,reviewed,us,us
7695,2013-07-06 09:27:47.240000+00:00,-7.08,154.764,21.6,4.5,mb,30.0,92.0,,0.6,us,usp000k1rt,2014-11-07T01:51:13.928Z,"Bougainville region, Papua New Guinea",earthquake,,4.9,,16.0,reviewed,us,us
7755,2013-07-06 04:42:47.060000+00:00,-5.433,151.987,57.7,4.5,mb,44.0,126.0,,0.85,us,usb000i7my,2014-11-07T01:51:13.802Z,"113km SSW of Kokopo, Papua New Guinea",earthquake,,5.9,,32.0,reviewed,us,us
8248,2013-07-04 17:15:54.540000+00:00,-7.028,155.726,29.0,6.1,mww,356.0,19.0,,0.9,us,usb000i6rh,2014-11-07T01:51:13.504Z,"81km SSE of Panguna, Papua New Guinea",earthquake,,,,,reviewed,us,us
8465,2013-07-04 01:50:16.010000+00:00,-4.7860000000000005,153.315,44.7,4.8,mb,36.0,114.0,,1.17,us,usp000k1pe,2014-11-07T01:51:13.343Z,"New Ireland region, Papua New Guinea",earthquake,,7.5,,27.0,reviewed,us,us
8931,2013-07-02 12:05:16.250000+00:00,-4.918,152.319,51.6,4.9,mb,99.0,47.0,,0.94,us,usb000i4si,2014-11-07T01:51:11.991Z,"54km S of Kokopo, Papua New Guinea",earthquake,,3.8,,81.0,reviewed,us,us
8932,2013-07-02 12:03:19.640000+00:00,-5.073,153.357,97.6,4.8,mb,55.0,101.0,,1.36,us,usp000k1n9,2014-11-07T01:51:11.979Z,"New Ireland region, Papua New Guinea",earthquake,,7.2,,44.0,reviewed,us,us
