,time,latitude,longitude,depth,mag,magType,nst,gap,dmin,rms,net,id,updated,place,type,horizontalError,depthError,magError,magNst,status,locationSource,magSource
82,1974-10-29 05:06:02.300000+00:00,-5.043,153.655,78.0,5.0,mb,,,,,us,usp00008ku,2014-11-06T23:21:27.064Z,"New Ireland region, Papua New Guinea",earthquake,,,,,reviewed,us,us
151,1974-10-26 13:28:20.600000+00:00,-8.644,153.47,70.0,5.2,mb,,,,,us,usp00008jy,2014-11-06T23:21:27.031Z,D'Entrecasteaux Islands region,earthquake,,,,,reviewed,us,us
193,1974-10-25 03:19:07.700000+00:00,-6.305,152.284,18.0,5.7,mb,,,,,us,usp00008jf,2015-05-13T18:53:10.000Z,"New Britain region, Papua New Guinea",earthquake,,,,,reviewed,us,us
195,1974-10-25 01:22:46.400000+00:00,-6.763,154.642,40.0,4.8,mb,,,,,us,usp00008je,2014-11-06T23:21:27.011Z,"Bougainville region, Papua New Guinea",earthquake,,,,,reviewed,us,us
237,1974-10-23 22:18:50.400000+00:00,-6.322,154.47799999999998,40.0,5.0,mb,,,,,us,usp00008j1,2014-11-06T23:21:26.997Z,"Bougainville region, Papua New Guinea",earthquake,,,,,reviewed,us,us
256,1974-10-23 08:52:09.500000+00:00,-8.405,153.02200000000002,88.0,4.8,mb,,,,,us,usp00008hq,2014-11-06T23:21:26.986Z,D'Entrecasteaux Islands region,earthquake,,,,,reviewed,us,us
260,1974-10-23 06:14:54+00:00,-8.42,154.034,48.0,7.2,ms,,,,,us,usp00008hm,2015-05-13T18:53:10.000Z,D'Entrecasteaux Islands region,earthquake,,,,,reviewed,us,us
329,1974-10-20 19:39:31.100000+00:00,-6.593999999999999,154.721,43.0,5.8,ms,,,,,us,usp00008gd,2015-05-13T18:53:10.000Z,"Bougainville region, Papua New Guinea",earthquake,,,,,reviewed,us,us
333,1974-10-20 15:27:39.600000+00:00,-6.595,154.785,43.0,5.7,ms,,,,,us,usp00008ga,2015-05-13T18:53:10.000Z,"Bougainville region, Papua New Guinea",earthquake,,,,,reviewed,us,us
