,time,latitude,longitude,depth,mag,magType,nst,gap,dmin,rms,net,id,updated,place,type,horizontalError,depthError,magError,magNst,status,locationSource,magSource
5955,2015-12-11 22:05:36.820000+00:00,-47.6159,85.1651,10.0,5.0,mb,,48.0,10.082,0.64,us,us20004gm0,2016-11-10T22:04:25.353Z,Southeast Indian Ridge,earthquake,9.0,1.8,0.083,46.0,reviewed,us,us
8028,2015-12-05 00:52:02.350000+00:00,-48.0057,85.2841,35.0,4.6,mb,,127.0,10.062999999999999,0.54,us,us20004fs4,2016-03-02T03:36:32.040Z,Southeast Indian Ridge,earthquake,13.3,2.0,0.125,19.0,reviewed,us,us
8061,2015-12-04 22:25:00.110000+00:00,-47.6165,85.0913,35.0,7.1,mww,,8.0,10.033999999999999,1.42,us,us100043z2,2017-11-14T17:07:53.882Z,Southeast Indian Ridge,earthquake,8.0,1.8,,,reviewed,us,us
