,time,latitude,longitude,depth,mag,magType,nst,gap,dmin,rms,net,id,updated,place,type,horizontalError,depthError,magError,magNst,status,locationSource,magSource
0,2016-07-31 23:57:05.740000+00:00,18.4798,145.5728,207.2,4.6,mb,,53.0,3.227,0.63,us,us1000692e,2016-10-19T04:52:01.040Z,"33km SSW of Agrihan, Northern Mariana Islands",earthquake,7.3,6.3,0.035,247.0,reviewed,us,us
23,2016-07-31 21:55:54.270000+00:00,18.7679,146.085,195.62,4.1,mb,,179.0,3.5180000000000002,0.73,us,us10006a4x,2016-10-19T04:52:00.040Z,"44km E of Agrihan, Northern Mariana Islands",earthquake,18.9,11.6,0.166,10.0,reviewed,us,us
65,2016-07-31 19:00:14.290000+00:00,18.7247,145.1591,186.43,4.0,mb,,174.0,3.516,0.5,us,us10006a4s,2016-10-19T04:51:59.040Z,"53km W of Agrihan, Northern Mariana Islands",earthquake,15.7,9.0,0.15,12.0,reviewed,us,us
114,2016-07-31 15:25:38.820000+00:00,18.795,145.335,187.28,4.5,mb,,149.0,3.5610000000000004,0.47,us,us10006a4n,2016-10-19T04:51:58.040Z,"35km W of Agrihan, Northern Mariana Islands",earthquake,15.6,5.9,0.156,12.0,reviewed,us,us
129,2016-07-31 14:20:33.250000+00:00,18.464000000000002,145.5897,203.0,4.3,mb,,120.0,3.21,0.53,us,us10006a4l,2016-10-19T04:51:57.040Z,"34km SSW of Agrihan, Northern Mariana Islands",earthquake,15.5,9.4,0.133,16.0,reviewed,us,us
134,2016-07-31 13:51:03.130000+00:00,18.7202,145.3089,205.76,4.2,mb,,132.0,3.49,0.57,us,us10006a4k,2016-10-19T04:51:57.040Z,"38km W of Agrihan, Northern Mariana Islands",earthquake,19.9,5.9,0.146,13.0,reviewed,us,us
201,2016-07-31 08:17:45.930000+00:00,18.5441,145.7201,209.79,4.0,mb,,124.0,3.285,0.78,us,us10006a4b,2016-10-19T04:51:56.040Z,"25km SSE of Agrihan, Northern Mariana Islands",earthquake,14.5,9.8,0.10400000000000001,25.0,reviewed,us,us
235,2016-07-31 05:45:52.180000+00:00,18.4811,145.27200000000002,189.22,4.2,mb,,175.0,3.26,0.43,us,us10006a49,2016-10-19T04:51:55.040Z,"52km SW of Agrihan, Northern Mariana Islands",earthquake,13.8,18.4,0.17600000000000002,9.0,reviewed,us,us
237,2016-07-31 05:35:21.660000+00:00,18.5413,145.6411,194.98,4.5,mb,,100.0,3.285,0.81,us,us100068x7,2016-10-19T04:51:55.040Z,"25km S of Agrihan, Northern Mariana Islands",earthquake,9.6,6.6,0.057999999999999996,85.0,reviewed,us,us
325,2016-07-30 23:06:46.690000+00:00,18.5756,145.8055,186.01,4.3,mb,,124.0,3.3160000000000003,0.73,us,us100069vc,2016-10-19T04:51:54.040Z,"25km SE of Agrihan, Northern Mariana Islands",earthquake,9.9,8.6,0.09,35.0,reviewed,us,us
337,2016-07-30 22:28:19.740000+00:00,18.5932,145.6474,208.38,4.9,mb,,76.0,3.3360000000000003,0.63,us,us100068vz,2016-10-19T04:51:53.040Z,"19km S of Agrihan, Northern Mariana Islands",earthquake,9.2,6.6,0.042,180.0,reviewed,us,us
344,2016-07-30 21:57:43.970000+00:00,18.7597,145.8903,206.15,4.0,mb,,158.0,3.5,0.69,us,us100069v7,2016-10-19T04:51:53.040Z,"23km E of Agrihan, Northern Mariana Islands",earthquake,8.7,9.3,0.156,11.0,reviewed,us,us
394,2016-07-30 18:31:01.210000+00:00,18.9133,145.0282,185.73,4.1,mb,,158.0,3.7230000000000003,1.42,us,us100069uy,2016-10-19T04:51:52.040Z,"69km WNW of Agrihan, Northern Mariana Islands",earthquake,10.9,8.1,0.174,9.0,reviewed,us,us
397,2016-07-30 18:18:51.650000+00:00,18.3805,145.6948,181.36,4.5,mb,,81.0,3.123,1.25,us,us100069uw,2016-10-19T04:51:52.040Z,"30km NNW of Pagan, Northern Mariana Islands",earthquake,6.9,7.3,0.08,45.0,reviewed,us,us
423,2016-07-30 16:53:34.460000+00:00,18.523,145.5748,178.68,4.1,mb,,153.0,3.27,0.66,us,us100069ut,2016-10-19T04:51:51.040Z,"28km SSW of Agrihan, Northern Mariana Islands",earthquake,15.4,10.9,0.13,16.0,reviewed,us,us
440,2016-07-30 15:21:38.400000+00:00,18.7281,145.8542,207.71,4.4,mb,,140.0,3.468,0.25,us,us100069up,2016-10-19T04:51:50.040Z,"20km ESE of Agrihan, Northern Mariana Islands",earthquake,14.3,13.1,0.12300000000000001,19.0,reviewed,us,us
461,2016-07-30 13:46:23.480000+00:00,18.7063,145.6625,169.46,4.3,mb,,135.0,3.448,0.5,us,us100069uk,2016-10-19T04:51:50.040Z,"6km S of Agrihan, Northern Mariana Islands",earthquake,9.5,11.3,0.111,24.0,reviewed,us,us
465,2016-07-30 13:22:21.820000+00:00,18.6261,145.6681,178.98,4.6,mb,,100.0,3.3680000000000003,1.01,us,us100069uj,2016-10-19T04:51:49.040Z,"15km S of Agrihan, Northern Mariana Islands",earthquake,10.8,8.7,0.09699999999999999,33.0,reviewed,us,us
479,2016-07-30 12:25:28.490000+00:00,18.6842,145.5002,166.11,4.5,mb,,152.0,3.435,0.52,us,us100069ug,2016-10-19T04:51:49.040Z,"19km WSW of Agrihan, Northern Mariana Islands",earthquake,17.9,10.9,0.156,12.0,reviewed,us,us
480,2016-07-30 12:20:09.700000+00:00,18.6092,145.7551,203.58,4.3,mb,,156.0,3.3489999999999998,1.25,us,us100069uh,2016-10-19T04:51:49.040Z,"19km SSE of Agrihan, Northern Mariana Islands",earthquake,19.5,11.2,0.177,9.0,reviewed,us,us
492,2016-07-30 11:22:50.430000+00:00,18.5512,145.7425,206.79,4.2,mb,,153.0,3.292,0.7,us,us100069uc,2016-10-19T04:51:48.040Z,"25km SSE of Agrihan, Northern Mariana Islands",earthquake,17.1,10.8,0.128,17.0,reviewed,us,us
493,2016-07-30 11:18:59.980000+00:00,18.4183,146.27100000000002,163.31,4.4,mb,,173.0,3.193,0.82,us,us100069un,2016-10-19T04:51:48.040Z,"62km ENE of Pagan, Northern Mariana Islands",earthquake,17.5,12.2,0.162,11.0,reviewed,us,us
498,2016-07-30 10:39:59.650000+00:00,18.6777,145.219,193.32,4.1,mb,,177.0,3.4610000000000003,0.39,us,us100069ua,2016-10-19T04:51:48.040Z,"48km WSW of Agrihan, Northern Mariana Islands",earthquake,15.0,17.1,0.23399999999999999,5.0,reviewed,us,us
505,2016-07-30 10:11:46.080000+00:00,18.7145,145.5257,207.47,4.3,mb,,100.0,3.463,0.77,us,us100069u5,2016-10-19T04:51:48.040Z,"15km WSW of Agrihan, Northern Mariana Islands",earthquake,11.5,8.1,0.08900000000000001,36.0,reviewed,us,us
506,2016-07-30 10:01:35.850000+00:00,18.5737,145.5353,193.36,4.2,mb,,144.0,3.323,0.28,us,us100069u6,2016-10-19T04:51:48.040Z,"25km SSW of Agrihan, Northern Mariana Islands",earthquake,9.5,12.2,0.16699999999999998,10.0,reviewed,us,us
513,2016-07-30 09:38:41.210000+00:00,18.8037,145.466,204.09,4.5,mb,,100.0,3.556,0.64,us,us100068qy,2016-10-19T04:51:48.040Z,"21km W of Agrihan, Northern Mariana Islands",earthquake,10.8,7.6,0.071,59.0,reviewed,us,us
579,2016-07-30 06:37:35.190000+00:00,18.6015,145.5826,196.56,4.2,mb,,124.0,3.347,0.56,us,us100069tz,2016-10-19T04:51:47.040Z,"20km SSW of Agrihan, Northern Mariana Islands",earthquake,11.9,8.5,0.132,16.0,reviewed,us,us
608,2016-07-30 05:21:45.830000+00:00,18.9437,146.0668,191.62,4.2,mb,,164.0,3.6919999999999997,0.46,us,us100069ty,2016-10-19T04:51:47.040Z,"46km ENE of Agrihan, Northern Mariana Islands",earthquake,15.0,12.5,0.16699999999999998,10.0,reviewed,us,us
615,2016-07-30 05:01:03.490000+00:00,18.5487,145.7175,190.16,4.4,mb,,123.0,3.29,0.6,us,us100069tu,2016-10-19T04:51:46.040Z,"24km SSE of Agrihan, Northern Mariana Islands",earthquake,10.7,8.1,0.12300000000000001,19.0,reviewed,us,us
618,2016-07-30 04:44:10.230000+00:00,18.3817,145.6787,214.82,4.0,mb,,102.0,3.125,0.9,us,us100069tt,2016-10-19T04:51:46.040Z,"31km NNW of Pagan, Northern Mariana Islands",earthquake,14.7,7.7,0.129,16.0,reviewed,us,us
619,2016-07-30 04:36:51.430000+00:00,18.4129,145.4834,224.79,4.2,mb,,122.0,3.167,0.97,us,us100069ts,2016-10-19T04:51:46.040Z,"43km SSW of Agrihan, Northern Mariana Islands",earthquake,16.9,11.0,0.10300000000000001,26.0,reviewed,us,us
628,2016-07-30 03:49:32.590000+00:00,18.7657,145.2908,172.29,3.7,mb,,175.0,3.537,0.89,us,us100069tp,2016-10-19T04:51:46.040Z,"39km W of Agrihan, Northern Mariana Islands",earthquake,20.7,3.2,0.191,7.0,reviewed,us,us
634,2016-07-30 03:42:33.750000+00:00,18.3594,145.9952,203.31,4.0,mb,,172.0,3.1069999999999998,0.64,us,us100069tq,2016-10-19T04:51:46.040Z,"36km NE of Pagan, Northern Mariana Islands",earthquake,12.5,7.9,0.085,37.0,reviewed,us,us
640,2016-07-30 03:16:49.820000+00:00,18.3955,145.542,183.41,3.9,mb,,124.0,3.1460000000000004,0.86,us,us100069tn,2016-10-19T04:51:45.040Z,"39km NW of Pagan, Northern Mariana Islands",earthquake,15.9,8.7,0.114,20.0,reviewed,us,us
642,2016-07-30 03:01:10.950000+00:00,18.4562,145.6273,186.06,4.1,mb,,110.0,3.201,0.85,us,us100069tk,2016-10-19T04:51:45.040Z,"34km S of Agrihan, Northern Mariana Islands",earthquake,13.5,7.6,0.107,24.0,reviewed,us,us
663,2016-07-30 01:25:30.300000+00:00,18.5378,145.6061,197.63,4.2,mb,,124.0,3.283,0.68,us,us100069ti,2016-10-19T04:51:45.040Z,"26km SSW of Agrihan, Northern Mariana Islands",earthquake,10.0,9.5,0.078,45.0,reviewed,us,us
676,2016-07-30 00:46:02.110000+00:00,18.6729,145.4728,182.15,4.1,mb,,144.0,3.426,0.51,us,us100069v3,2016-10-19T04:51:44.040Z,"22km WSW of Agrihan, Northern Mariana Islands",earthquake,11.4,11.3,0.145,13.0,reviewed,us,us
677,2016-07-30 00:45:39.580000+00:00,18.6483,145.4478,191.27,3.7,mb,,150.0,3.404,0.78,us,us100069v4,2016-10-19T04:51:44.040Z,"26km WSW of Agrihan, Northern Mariana Islands",earthquake,11.4,12.5,0.17800000000000002,8.0,reviewed,us,us
699,2016-07-29 23:42:43.070000+00:00,18.4999,145.6437,187.44,4.5,mb,,79.0,3.2430000000000003,0.9,us,us100068mw,2016-10-19T04:51:44.040Z,"29km S of Agrihan, Northern Mariana Islands",earthquake,9.4,7.0,0.054000000000000006,101.0,reviewed,us,us
709,2016-07-29 22:27:23.860000+00:00,18.4651,145.6209,193.42,4.5,mb,,28.0,3.21,0.56,us,us100068m5,2016-10-19T04:51:44.040Z,"33km S of Agrihan, Northern Mariana Islands",earthquake,5.0,5.8,0.040999999999999995,173.0,reviewed,us,us
710,2016-07-29 22:22:21.770000+00:00,18.8909,145.4661,198.91,4.2,mb,,140.0,3.6430000000000002,0.65,us,us100069re,2016-10-19T04:51:44.040Z,"25km WNW of Agrihan, Northern Mariana Islands",earthquake,18.1,11.5,0.113,22.0,reviewed,us,us
712,2016-07-29 22:18:29.350000+00:00,18.6253,145.6483,204.01,4.9,mb,,55.0,3.3680000000000003,0.64,us,us100068lr,2016-10-19T04:51:43.040Z,"15km S of Agrihan, Northern Mariana Islands",earthquake,6.1,5.5,0.03,348.0,reviewed,us,us
713,2016-07-29 22:15:53.580000+00:00,18.5465,145.5361,205.72,4.3,mb,,105.0,3.2960000000000003,0.62,us,us100069rd,2016-10-19T04:51:43.040Z,"28km SSW of Agrihan, Northern Mariana Islands",earthquake,13.1,8.1,0.076,49.0,reviewed,us,us
715,2016-07-29 22:12:36.530000+00:00,18.8766,145.4292,197.0,4.4,mb,,100.0,3.6319999999999997,0.32,us,us100069rj,2016-10-19T04:51:43.040Z,"27km WNW of Agrihan, Northern Mariana Islands",earthquake,9.8,6.9,0.09699999999999999,31.0,reviewed,us,us
716,2016-07-29 22:11:08.220000+00:00,18.9428,145.3636,296.23,4.4,mb,,80.0,3.7030000000000003,0.95,us,us100068lq,2016-10-19T04:51:43.040Z,"37km WNW of Agrihan, Northern Mariana Islands",earthquake,9.6,3.9,0.052000000000000005,105.0,reviewed,us,us
718,2016-07-29 22:05:46.590000+00:00,18.5688,145.7449,196.65,4.7,mb,,99.0,3.3089999999999997,0.91,us,us100069ra,2016-10-19T04:51:43.040Z,"23km SSE of Agrihan, Northern Mariana Islands",earthquake,9.6,6.2,0.043,166.0,reviewed,us,us
724,2016-07-29 21:52:48.930000+00:00,18.7219,145.7255,181.23,4.4,mb,,150.0,3.4619999999999997,0.53,us,us100069r8,2016-10-19T04:51:43.040Z,"7km SE of Agrihan, Northern Mariana Islands",earthquake,12.7,10.5,0.17,10.0,reviewed,us,us
725,2016-07-29 21:47:22.980000+00:00,18.9722,146.0547,207.47,4.7,mb,,120.0,3.719,0.92,us,us100069r5,2016-10-19T04:51:43.040Z,"46km ENE of Agrihan, Northern Mariana Islands",earthquake,12.2,8.7,0.096,33.0,reviewed,us,us
727,2016-07-29 21:45:23.330000+00:00,18.6296,145.6311,194.31,4.7,mb,,100.0,3.373,0.83,us,us100069r7,2016-10-19T04:51:42.040Z,"15km SSW of Agrihan, Northern Mariana Islands",earthquake,8.8,7.6,0.057,94.0,reviewed,us,us
729,2016-07-29 21:39:19.420000+00:00,18.8239,145.54,197.58,4.8,mb,,79.0,3.571,0.67,us,us100069r6,2016-10-19T04:51:42.040Z,"14km WNW of Agrihan, Northern Mariana Islands",earthquake,12.0,7.7,0.069,64.0,reviewed,us,us
731,2016-07-29 21:28:50.310000+00:00,18.4584,145.9534,206.28,5.3,mb,,83.0,3.2030000000000003,0.7,us,us100069rp,2016-10-19T04:51:42.040Z,"42km NNE of Pagan, Northern Mariana Islands",earthquake,8.0,8.6,0.10400000000000001,31.0,reviewed,us,us
733,2016-07-29 21:26:59.150000+00:00,18.7561,145.4878,187.78,5.6,mb,,33.0,3.5069999999999997,0.71,us,us100069rr,2016-10-19T04:51:42.040Z,"18km W of Agrihan, Northern Mariana Islands",earthquake,10.0,5.1,0.043,191.0,reviewed,us,us
735,2016-07-29 21:18:24.740000+00:00,18.5429,145.5073,196.0,7.7,mww,,14.0,3.2939999999999996,1.38,us,us100068jg,2017-02-07T23:50:15.901Z,"29km SW of Agrihan, Northern Mariana Islands",earthquake,7.5,1.8,,,reviewed,us,us
8630,2016-08-05 15:31:24.580000+00:00,18.7153,145.5396,206.97,4.2,mb,,101.0,3.463,1.08,us,us10006cbf,2016-10-26T03:10:19.040Z,"14km WSW of Agrihan, Northern Mariana Islands",earthquake,13.7,10.3,0.115,21.0,reviewed,us,us
8712,2016-08-05 08:13:51.410000+00:00,16.1793,145.2791,514.97,3.8,mb,,129.0,1.054,0.9,us,us10006cb8,2016-10-26T03:10:19.040Z,"45km WSW of Anatahan, Northern Mariana Islands",earthquake,14.1,12.8,0.17,9.0,reviewed,us,us
8899,2016-08-04 18:43:34.420000+00:00,18.6338,145.7031,189.05,4.3,mb,,187.0,3.375,0.45,us,us10006c3p,2016-10-19T04:52:26.040Z,"15km SSE of Agrihan, Northern Mariana Islands",earthquake,15.2,14.3,0.147,13.0,reviewed,us,us
8961,2016-08-04 15:06:00.290000+00:00,18.4332,145.7328,191.47,4.4,mb,,74.0,3.175,0.77,us,us10006a20,2016-10-19T04:52:26.040Z,"35km N of Pagan, Northern Mariana Islands",earthquake,7.3,7.2,0.047,129.0,reviewed,us,us
9008,2016-08-04 12:16:13.650000+00:00,18.6356,145.5692,191.27,4.5,mb,,118.0,3.3819999999999997,0.68,us,us10006c3e,2016-10-19T04:52:25.040Z,"17km SW of Agrihan, Northern Mariana Islands",earthquake,13.0,10.8,0.132,17.0,reviewed,us,us
9380,2016-08-03 16:29:01.100000+00:00,18.4451,145.6864,193.48,4.5,mb,,85.0,3.187,0.91,us,us100069st,2016-10-19T04:52:21.040Z,"35km S of Agrihan, Northern Mariana Islands",earthquake,5.2,6.9,0.055999999999999994,95.0,reviewed,us,us
9450,2016-08-03 11:37:16.640000+00:00,18.5355,145.5578,217.8,4.5,mb,,100.0,3.283,0.68,us,us100069pp,2016-10-19T04:52:18.040Z,"28km SSW of Agrihan, Northern Mariana Islands",earthquake,10.0,7.4,0.04,184.0,reviewed,us,us
9474,2016-08-03 10:15:42.600000+00:00,18.6124,145.6218,200.92,4.3,mb,,104.0,3.3560000000000003,0.45,us,us100069pi,2016-10-19T04:52:18.040Z,"17km SSW of Agrihan, Northern Mariana Islands",earthquake,11.5,8.0,0.083,41.0,reviewed,us,us
9675,2016-08-02 19:18:46.380000+00:00,18.5179,145.6285,193.17,4.3,mb,,143.0,3.262,0.49,us,us10006af0,2016-10-19T04:52:14.040Z,"27km S of Agrihan, Northern Mariana Islands",earthquake,12.9,11.6,0.168,10.0,reviewed,us,us
9684,2016-08-02 18:40:04.340000+00:00,18.6811,145.7252,211.99,4.5,mb,,75.0,3.4210000000000003,0.93,us,us100069iy,2016-10-19T04:52:14.040Z,"11km SSE of Agrihan, Northern Mariana Islands",earthquake,9.3,6.8,0.053,105.0,reviewed,us,us
9722,2016-08-02 14:59:18.680000+00:00,18.4049,145.5926,198.29,4.3,mb,,98.0,3.1519999999999997,1.02,us,us10006aev,2016-10-19T04:52:13.040Z,"37km NNW of Pagan, Northern Mariana Islands",earthquake,10.3,5.7,0.16899999999999998,10.0,reviewed,us,us
10014,2016-08-01 19:26:41.660000+00:00,18.7532,145.6615,208.09,4.0,mb,,121.0,3.495,0.81,us,us10006ade,2016-10-19T04:52:08.040Z,"1km SSW of Agrihan, Northern Mariana Islands",earthquake,13.8,9.7,0.126,17.0,reviewed,us,us
10032,2016-08-01 18:31:41.850000+00:00,18.896,145.3759,200.09,4.3,mb,,78.0,3.656,0.65,us,us1000699m,2016-10-19T04:52:07.040Z,"33km WNW of Agrihan, Northern Mariana Islands",earthquake,9.8,8.3,0.052000000000000005,105.0,reviewed,us,us
10054,2016-08-01 17:43:53.580000+00:00,18.7499,145.5097,208.86,4.3,mb,,99.0,3.4989999999999997,0.65,us,us10006997,2016-10-19T04:52:07.040Z,"16km W of Agrihan, Northern Mariana Islands",earthquake,11.9,5.0,0.055,94.0,reviewed,us,us
10073,2016-08-01 16:44:04.740000+00:00,18.7069,145.4705,182.62,4.1,mb,,123.0,3.46,0.89,us,us10006ad4,2016-10-19T04:52:07.040Z,"21km WSW of Agrihan, Northern Mariana Islands",earthquake,16.3,1.9,0.158,11.0,reviewed,us,us
10081,2016-08-01 15:57:53.600000+00:00,18.4952,145.6859,194.29,4.1,mb,,151.0,3.237,0.92,us,us10006ad8,2016-10-19T04:52:06.040Z,"30km S of Agrihan, Northern Mariana Islands",earthquake,23.4,9.3,0.301,3.0,reviewed,us,us
10168,2016-08-01 10:44:16.160000+00:00,18.8765,145.4576,186.84,4.1,mb,,123.0,3.6289999999999996,0.63,us,us10006acs,2016-10-19T04:52:05.040Z,"25km WNW of Agrihan, Northern Mariana Islands",earthquake,5.2,8.9,0.077,46.0,reviewed,us,us
10194,2016-08-01 09:09:42.930000+00:00,18.5354,145.8281,192.93,4.2,mb,,146.0,3.2760000000000002,0.62,us,us10006acn,2016-10-19T04:52:04.040Z,"30km SSE of Agrihan, Northern Mariana Islands",earthquake,10.7,9.3,0.13699999999999998,18.0,reviewed,us,us
10237,2016-08-01 07:08:06.860000+00:00,18.7749,145.3414,304.23,4.4,mb,,97.0,3.54,0.71,us,us10006949,2016-10-19T04:52:03.040Z,"34km W of Agrihan, Northern Mariana Islands",earthquake,10.5,5.2,0.051,110.0,reviewed,us,us
10238,2016-08-01 07:02:15.760000+00:00,22.1751,143.7688,104.45,4.3,mb,,146.0,5.106,0.32,us,us10006ace,2016-10-19T04:52:03.040Z,"215km NNW of Farallon de Pajaros, Northern Mariana Islands",earthquake,15.5,9.2,0.133,16.0,reviewed,us,us
10268,2016-08-01 05:51:47.590000+00:00,18.7845,145.7988,282.76,3.9,mb,,165.0,18.022000000000002,0.82,us,us10006acd,2016-10-19T04:52:02.040Z,"14km E of Agrihan, Northern Mariana Islands",earthquake,12.0,10.2,0.1,26.0,reviewed,us,us
10288,2016-08-01 04:44:37.300000+00:00,18.6009,145.7131,195.22,4.2,mb,,108.0,3.342,0.7,us,us10006acc,2016-10-19T04:52:02.040Z,"19km SSE of Agrihan, Northern Mariana Islands",earthquake,12.4,8.9,0.067,62.0,reviewed,us,us
10304,2016-08-01 03:40:25.370000+00:00,18.6007,144.4486,154.69,4.4,mb,,102.0,3.5789999999999997,0.84,us,us10006aca,2016-10-19T04:52:01.040Z,"129km W of Agrihan, Northern Mariana Islands",earthquake,13.4,10.4,0.162,11.0,reviewed,us,us
10320,2016-08-01 02:36:22.400000+00:00,17.2113,147.2465,52.7,4.6,mb,,75.0,2.408,0.61,us,us10006930,2016-10-19T04:52:01.040Z,"185km ESE of Pagan, Northern Mariana Islands",earthquake,11.4,8.5,0.08800000000000001,39.0,reviewed,us,us
