,time,latitude,longitude,depth,mag,magType,nst,gap,dmin,rms,net,id,updated,place,type,horizontalError,depthError,magError,magNst,status,locationSource,magSource
486,2016-08-30 04:24:59.870000+00:00,0.4145,-17.3391,10.0,4.7,mb,,97.0,8.807,0.66,us,us20006v80,2016-11-29T01:28:46.040Z,North of Ascension Island,earthquake,8.1,1.8,0.129,18.0,reviewed,us,us
503,2016-08-30 03:03:41.250000+00:00,0.4472,-17.3769,10.0,4.5,mb,,127.0,13.937000000000001,0.27,us,us10006rjk,2016-11-29T01:28:46.040Z,North of Ascension Island,earthquake,12.4,2.0,0.205,7.0,reviewed,us,us
734,2016-08-29 08:20:36.620000+00:00,-0.1168,-17.9729,10.0,5.0,mb,,72.0,8.43,0.83,us,us20006uzv,2016-11-29T01:28:45.040Z,North of Ascension Island,earthquake,9.6,1.9,0.037000000000000005,237.0,reviewed,us,us
771,2016-08-29 05:36:28.870000+00:00,0.2514,-17.3273,10.0,4.6,mb,,97.0,8.651,0.69,us,us10006jl9,2016-11-29T01:28:45.040Z,North of Ascension Island,earthquake,7.1,1.9,0.11900000000000001,21.0,reviewed,us,us
792,2016-08-29 04:29:57.860000+00:00,-0.0456,-17.8255,10.0,7.1,mww,,24.0,8.561,0.87,us,us20006uy6,2017-02-07T23:50:50.814Z,North of Ascension Island,earthquake,8.4,1.7,,,reviewed,us,us
2627,2016-08-23 18:38:26.930000+00:00,-1.4423,-16.3819,10.0,4.5,mb,,145.0,14.046,0.88,us,us20006u9x,2016-11-19T04:58:36.040Z,North of Ascension Island,earthquake,17.8,1.9,0.16399999999999998,11.0,reviewed,us,us
2638,2016-08-23 17:47:43.930000+00:00,-1.2451,-15.8358,10.0,5.0,mb,,39.0,6.675,0.61,us,us10006g1c,2016-11-19T04:58:36.040Z,North of Ascension Island,earthquake,9.3,1.8,0.063,79.0,reviewed,us,us
10367,2016-09-02 08:40:21.300000+00:00,0.1857,-16.8608,10.0,4.9,mb,,63.0,8.441,0.9,us,us10006jm6,2016-12-03T02:54:34.040Z,North of Ascension Island,earthquake,8.9,1.9,0.092,37.0,reviewed,us,us
10850,2016-09-01 03:14:19.220000+00:00,-0.0747,-17.8957,10.0,4.8,mb,,93.0,8.417,0.56,us,us10006j7b,2016-11-29T01:28:49.040Z,North of Ascension Island,earthquake,12.2,1.9,0.07,63.0,reviewed,us,us
