,time,latitude,longitude,depth,mag,magType,nst,gap,dmin,rms,net,id,updated,place,type,horizontalError,depthError,magError,magNst,status,locationSource,magSource
483,1975-05-15 14:39:30.500000+00:00,-38.201,-73.336,12.0,4.7,mb,,,,,us,usp0000b1q,2014-11-06T23:21:30.333Z,"Bio-Bio, Chile",earthquake,,,,,reviewed,us,us
508,1975-05-14 20:38:38.400000+00:00,-38.089,-72.618,39.0,5.0,mb,,,,,us,usp0000b1f,2014-11-06T23:21:30.326Z,"Araucania, Chile",earthquake,,,,,reviewed,us,us
533,1975-05-14 03:14:27.200000+00:00,-38.010999999999996,-73.131,20.0,4.1,mb,,,,,us,usp0000b12,2014-11-06T23:21:30.313Z,"Araucania, Chile",earthquake,,,,,reviewed,us,us
564,1975-05-13 06:24:20.300000+00:00,-38.096,-73.27199999999999,26.0,4.7,mb,,,,,us,usp0000b0k,2014-11-06T23:21:30.299Z,"Bio-Bio, Chile",earthquake,,,,,reviewed,us,us
580,1975-05-12 15:34:01.100000+00:00,-37.889,-72.847,80.0,4.2,mb,,,,,us,usp0000b0d,2014-11-06T23:21:30.294Z,"Araucania, Chile",earthquake,,,,,reviewed,us,us
583,1975-05-12 13:21:01.200000+00:00,-37.853,-73.331,24.0,4.3,mb,,,,,us,usp0000b0b,2014-11-06T23:21:30.292Z,"Bio-Bio, Chile",earthquake,,,,,reviewed,us,us
614,1975-05-11 21:47:03.400000+00:00,-37.938,-73.10300000000001,14.0,4.6,mb,,,,,us,usp0000azz,2014-11-06T23:21:30.280Z,"Araucania, Chile",earthquake,,,,,reviewed,us,us
618,1975-05-11 20:55:47.200000+00:00,-37.858000000000004,-73.375,33.0,4.1,mb,,,,,us,usp0000azy,2014-11-06T23:21:30.278Z,"Bio-Bio, Chile",earthquake,,,,,reviewed,us,us
632,1975-05-11 11:47:24+00:00,-37.949,-72.58,38.0,4.3,mb,,,,,us,usp0000azr,2014-11-06T23:21:30.272Z,"Araucania, Chile",earthquake,,,,,reviewed,us,us
634,1975-05-11 11:33:16.900000+00:00,-37.963,-72.801,27.0,4.9,mb,,,,,us,usp0000azq,2014-11-06T23:21:30.271Z,"Araucania, Chile",earthquake,,,,,reviewed,us,us
647,1975-05-11 04:37:52.700000+00:00,-37.824,-73.344,39.0,4.0,mb,,,,,us,usp0000aze,2014-11-06T23:21:30.263Z,"Bio-Bio, Chile",earthquake,,,,,reviewed,us,us
648,1975-05-11 04:10:45.400000+00:00,-37.927,-73.70100000000001,17.0,4.6,mb,,,,,us,usp0000azd,2014-11-06T23:21:30.261Z,"offshore Bio-Bio, Chile",earthquake,,,,,reviewed,us,us
660,1975-05-10 18:12:20.700000+00:00,-38.082,-73.445,35.0,4.8,mb,,,,,us,usp0000azb,2014-11-06T23:21:30.259Z,"Bio-Bio, Chile",earthquake,,,,,reviewed,us,us
664,1975-05-10 14:42:03.400000+00:00,-37.93,-73.072,33.0,5.2,mb,,,,,us,usp0000aza,2014-11-06T23:21:30.258Z,"Araucania, Chile",earthquake,,,,,reviewed,us,us
665,1975-05-10 14:27:38.700000+00:00,-38.183,-73.232,6.0,7.7,ms,,,,,us,usp0000az9,2017-04-26T17:28:26.847Z,"Bio-Bio, Chile",earthquake,,,,,reviewed,us,us
