,time,latitude,longitude,depth,mag,magType,nst,gap,dmin,rms,net,id,updated,place,type,horizontalError,depthError,magError,magNst,status,locationSource,magSource
144,1975-07-26 18:24:07.700000+00:00,-7.185,154.514,39.0,5.2,mb,,,,,us,usp0000c6j,2014-11-06T23:21:31.492Z,"Bougainville region, Papua New Guinea",earthquake,,,,,reviewed,us,us
145,1975-07-26 17:39:32+00:00,-7.061,154.55700000000002,42.0,4.6,mb,,,,,us,usp0000c6h,2014-11-06T23:21:31.491Z,"Bougainville region, Papua New Guinea",earthquake,,,,,reviewed,us,us
146,1975-07-26 17:30:25.300000+00:00,-6.843,154.893,33.0,4.8,mb,,,,,us,usp0000c6g,2014-11-06T23:21:31.491Z,"Bougainville region, Papua New Guinea",earthquake,,,,,reviewed,us,us
150,1975-07-26 13:19:42.100000+00:00,-6.625,155.285,33.0,5.1,mb,,,,,us,usp0000c6e,2014-11-06T23:21:31.490Z,"Bougainville region, Papua New Guinea",earthquake,,,,,reviewed,us,us
183,1975-07-25 16:36:40.600000+00:00,-6.928,154.812,42.0,5.0,mb,,,,,us,usp0000c64,2014-11-06T23:21:31.483Z,"Bougainville region, Papua New Guinea",earthquake,,,,,reviewed,us,us
185,1975-07-25 14:18:16.800000+00:00,-6.7,154.411,24.0,3.9,ms,,,,,us,usp0000c62,2014-11-06T23:21:31.482Z,"Bougainville region, Papua New Guinea",earthquake,,,,,reviewed,us,us
203,1975-07-25 01:35:10.400000+00:00,-6.582000000000001,153.675,88.0,5.0,mb,,,,,us,usp0000c5s,2014-11-06T23:21:31.466Z,"New Britain region, Papua New Guinea",earthquake,,,,,reviewed,us,us
215,1975-07-24 18:49:00.200000+00:00,-7.106,155.732,54.0,5.4,mb,,,,,us,usp0000c5p,2014-11-06T23:21:31.436Z,Solomon Islands,earthquake,,,,,reviewed,us,us
220,1975-07-24 16:05:14.500000+00:00,-6.631,154.605,33.0,4.6,mb,,,,,us,usp0000c5n,2014-11-06T23:21:31.431Z,"Bougainville region, Papua New Guinea",earthquake,,,,,reviewed,us,us
223,1975-07-24 13:20:34+00:00,-6.631,154.59,35.0,4.8,mb,,,,,us,usp0000c5m,2014-11-06T23:21:31.426Z,"Bougainville region, Papua New Guinea",earthquake,,,,,reviewed,us,us
250,1975-07-24 00:02:32.600000+00:00,-6.572,154.39600000000002,56.0,5.0,mb,,,,,us,usp0000c59,2014-11-06T23:21:31.357Z,"Bougainville region, Papua New Guinea",earthquake,,,,,reviewed,us,us
252,1975-07-23 23:22:43.800000+00:00,-7.226,155.078,42.0,5.7,ms,,,,,us,usp0000c58,2015-05-13T18:53:11.000Z,Solomon Islands,earthquake,,,,,reviewed,us,us
256,1975-07-23 22:20:00.800000+00:00,-6.4879999999999995,154.875,33.0,5.1,mb,,,,,us,usp0000c56,2014-11-06T23:21:31.355Z,"Bougainville region, Papua New Guinea",earthquake,,,,,reviewed,us,us
268,1975-07-23 17:42:15.100000+00:00,-7.215,154.882,35.0,5.1,mb,,,,,us,usp0000c52,2014-11-06T23:21:31.352Z,"Bougainville region, Papua New Guinea",earthquake,,,,,reviewed,us,us
277,1975-07-23 12:48:23.800000+00:00,-6.662000000000001,154.92600000000002,33.0,4.0,mb,,,,,us,usp0000c4z,2014-11-06T23:21:31.350Z,"Bougainville region, Papua New Guinea",earthquake,,,,,reviewed,us,us
286,1975-07-23 04:06:53.900000+00:00,-7.025,155.385,54.0,4.9,mb,,,,,us,usp0000c4v,2014-11-06T23:21:31.348Z,Solomon Islands,earthquake,,,,,reviewed,us,us
292,1975-07-22 22:26:39+00:00,-7.098,155.572,70.0,5.5,mb,,,,,us,usp0000c4q,2014-11-06T23:21:31.345Z,Solomon Islands,earthquake,,,,,reviewed,us,us
299,1975-07-22 19:20:13.800000+00:00,-7.206,155.716,36.0,6.1,ms,,,,,us,usp0000c4p,2017-04-26T17:28:38.336Z,Solomon Islands,earthquake,,,,,reviewed,us,us
304,1975-07-22 16:01:55.700000+00:00,-6.67,154.67,47.0,4.9,mb,,,,,us,usp0000c4n,2014-11-06T23:21:31.344Z,"Bougainville region, Papua New Guinea",earthquake,,,,,reviewed,us,us
305,1975-07-22 15:51:36.200000+00:00,-6.526,154.59799999999998,70.0,5.4,mb,,,,,us,usp0000c4m,2014-11-06T23:21:31.343Z,"Bougainville region, Papua New Guinea",earthquake,,,,,reviewed,us,us
309,1975-07-22 14:31:36.700000+00:00,-6.544,154.282,72.0,4.8,mb,,,,,us,usp0000c4k,2014-11-06T23:21:31.342Z,"Bougainville region, Papua New Guinea",earthquake,,,,,reviewed,us,us
311,1975-07-22 13:31:43.100000+00:00,-6.343999999999999,154.964,68.0,5.5,mb,,,,,us,usp0000c4h,2015-05-13T18:53:11.000Z,"Bougainville region, Papua New Guinea",earthquake,,,,,reviewed,us,us
321,1975-07-22 04:50:19.500000+00:00,-6.37,154.993,73.0,5.5,mb,,,,,us,usp0000c4b,2015-05-13T18:53:11.000Z,"Bougainville region, Papua New Guinea",earthquake,,,,,reviewed,us,us
322,1975-07-22 03:25:02.700000+00:00,-7.354,154.636,33.0,5.2,mb,,,,,us,usp0000c4a,2014-11-06T23:21:31.337Z,"Bougainville region, Papua New Guinea",earthquake,,,,,reviewed,us,us
323,1975-07-22 03:12:54.300000+00:00,-7.099,155.089,45.0,5.1,mb,,,,,us,usp0000c49,2014-11-06T23:21:31.336Z,Solomon Islands,earthquake,,,,,reviewed,us,us
328,1975-07-21 23:43:17.800000+00:00,-6.65,154.608,36.0,5.5,mb,,,,,us,usp0000c48,2014-11-06T23:21:31.336Z,"Bougainville region, Papua New Guinea",earthquake,,,,,reviewed,us,us
330,1975-07-21 23:11:51.400000+00:00,-7.086,155.344,33.0,5.5,mb,,,,,us,usp0000c46,2014-11-06T23:21:31.334Z,Solomon Islands,earthquake,,,,,reviewed,us,us
337,1975-07-21 20:10:59.500000+00:00,-6.914,154.762,44.0,4.7,mb,,,,,us,usp0000c43,2014-11-06T23:21:31.332Z,"Bougainville region, Papua New Guinea",earthquake,,,,,reviewed,us,us
338,1975-07-21 19:00:21.800000+00:00,-6.775,154.93200000000002,75.0,5.2,mb,,,,,us,usp0000c42,2014-11-06T23:21:31.332Z,"Bougainville region, Papua New Guinea",earthquake,,,,,reviewed,us,us
339,1975-07-21 18:56:11.100000+00:00,-6.502999999999999,155.326,67.0,4.3,mb,,,,,us,usp0000c41,2014-11-06T23:21:31.331Z,"Bougainville region, Papua New Guinea",earthquake,,,,,reviewed,us,us
340,1975-07-21 17:17:19.200000+00:00,-6.422999999999999,154.954,51.0,4.8,mb,,,,,us,usp0000c40,2014-11-06T23:21:31.331Z,"Bougainville region, Papua New Guinea",earthquake,,,,,reviewed,us,us
344,1975-07-21 13:34:30.500000+00:00,-6.361000000000001,154.912,50.0,5.5,mb,,,,,us,usp0000c3z,2014-11-06T23:21:31.330Z,"Bougainville region, Papua New Guinea",earthquake,,,,,reviewed,us,us
347,1975-07-21 10:51:58.500000+00:00,-6.8260000000000005,154.626,41.0,5.0,mb,,,,,us,usp0000c3w,2014-11-06T23:21:31.328Z,"Bougainville region, Papua New Guinea",earthquake,,,,,reviewed,us,us
349,1975-07-21 09:54:55+00:00,-7.042000000000001,155.292,40.0,5.1,mb,,,,,us,usp0000c3v,2014-11-06T23:21:31.328Z,Solomon Islands,earthquake,,,,,reviewed,us,us
356,1975-07-21 07:13:40.200000+00:00,-6.376,154.95,33.0,4.4,mb,,,,,us,usp0000c3t,2014-11-06T23:21:31.327Z,"Bougainville region, Papua New Guinea",earthquake,,,,,reviewed,us,us
357,1975-07-21 06:56:14+00:00,-7.002000000000001,155.189,56.0,5.2,mb,,,,,us,usp0000c3s,2014-11-06T23:21:31.326Z,Solomon Islands,earthquake,,,,,reviewed,us,us
358,1975-07-21 06:35:03.900000+00:00,-7.063,155.16,46.0,5.4,mb,,,,,us,usp0000c3r,2014-11-06T23:21:31.326Z,Solomon Islands,earthquake,,,,,reviewed,us,us
360,1975-07-21 05:22:01.700000+00:00,-7.0489999999999995,154.767,68.0,5.1,mb,,,,,us,usp0000c3p,2014-11-06T23:21:31.324Z,"Bougainville region, Papua New Guinea",earthquake,,,,,reviewed,us,us
364,1975-07-21 04:36:48.500000+00:00,-7.207999999999999,154.918,68.0,5.1,mb,,,,,us,usp0000c3k,2014-11-06T23:21:31.323Z,"Bougainville region, Papua New Guinea",earthquake,,,,,reviewed,us,us
365,1975-07-21 04:21:05.300000+00:00,-6.954,154.623,28.0,5.2,mb,,,,,us,usp0000c3j,2014-11-06T23:21:31.322Z,"Bougainville region, Papua New Guinea",earthquake,,,,,reviewed,us,us
367,1975-07-21 04:09:54.800000+00:00,-7.0329999999999995,154.628,33.0,5.4,mb,,,,,us,usp0000c3h,2015-05-13T18:53:11.000Z,"Bougainville region, Papua New Guinea",earthquake,,,,,reviewed,us,us
368,1975-07-21 03:17:29.400000+00:00,-6.994,154.341,61.0,5.4,mb,,,,,us,usp0000c3g,2014-11-06T23:21:31.321Z,"Bougainville region, Papua New Guinea",earthquake,,,,,reviewed,us,us
369,1975-07-21 02:39:01.200000+00:00,-6.9079999999999995,155.333,95.0,6.1,mb,,,,,us,usp0000c3f,2017-04-26T17:28:37.693Z,"Bougainville region, Papua New Guinea",earthquake,,,,,reviewed,us,us
371,1975-07-21 02:03:59.800000+00:00,-6.736000000000001,155.312,47.0,6.8,ms,,,,,us,usp0000c3d,2015-05-13T18:53:11.000Z,"Bougainville region, Papua New Guinea",earthquake,,,,,reviewed,us,us
375,1975-07-21 00:49:11.900000+00:00,-6.925,155.11,77.0,4.5,mb,,,,,us,usp0000c3a,2014-11-06T23:21:31.317Z,"Bougainville region, Papua New Guinea",earthquake,,,,,reviewed,us,us
377,1975-07-21 00:03:56.500000+00:00,-6.547000000000001,154.268,33.0,4.6,mb,,,,,us,usp0000c38,2014-11-06T23:21:31.316Z,"Bougainville region, Papua New Guinea",earthquake,,,,,reviewed,us,us
378,1975-07-20 23:46:44.900000+00:00,-7.2589999999999995,155.113,40.0,5.2,mb,,,,,us,usp0000c37,2014-11-06T23:21:31.315Z,Solomon Islands,earthquake,,,,,reviewed,us,us
379,1975-07-20 23:27:50.500000+00:00,-6.66,154.638,7.0,5.4,mb,,,,,us,usp0000c36,2015-05-13T18:53:10.000Z,"Bougainville region, Papua New Guinea",earthquake,,,,,reviewed,us,us
380,1975-07-20 23:05:18.800000+00:00,-6.58,154.651,50.0,6.7,ms,,,,,us,usp0000c35,2017-04-26T17:28:37.087Z,"Bougainville region, Papua New Guinea",earthquake,,,,,reviewed,us,us
381,1975-07-20 22:13:20.200000+00:00,-6.327999999999999,154.149,33.0,4.9,mb,,,,,us,usp0000c34,2014-11-06T23:21:31.314Z,"Bougainville region, Papua New Guinea",earthquake,,,,,reviewed,us,us
383,1975-07-20 21:55:25.900000+00:00,-6.954,155.16,33.0,5.0,mb,,,,,us,usp0000c32,2014-11-06T23:21:31.312Z,"Bougainville region, Papua New Guinea",earthquake,,,,,reviewed,us,us
384,1975-07-20 21:49:12.600000+00:00,-7.221,155.172,37.0,5.2,mb,,,,,us,usp0000c31,2014-11-06T23:21:31.312Z,Solomon Islands,earthquake,,,,,reviewed,us,us
387,1975-07-20 21:27:37.300000+00:00,-7.125,155.257,33.0,5.3,mb,,,,,us,usp0000c2y,2014-11-06T23:21:31.280Z,Solomon Islands,earthquake,,,,,reviewed,us,us
388,1975-07-20 21:08:55.500000+00:00,-7.067,155.138,33.0,5.3,mb,,,,,us,usp0000c2x,2014-11-06T23:21:31.280Z,Solomon Islands,earthquake,,,,,reviewed,us,us
390,1975-07-20 20:52:18.800000+00:00,-7.01,154.939,67.0,4.9,mb,,,,,us,usp0000c2w,2014-11-06T23:21:31.279Z,"Bougainville region, Papua New Guinea",earthquake,,,,,reviewed,us,us
392,1975-07-20 20:11:38.800000+00:00,-6.707000000000001,154.88,33.0,5.6,mb,,,,,us,usp0000c2u,2014-11-06T23:21:31.278Z,"Bougainville region, Papua New Guinea",earthquake,,,,,reviewed,us,us
393,1975-07-20 20:09:28.700000+00:00,-6.928,154.986,33.0,5.6,mb,,,,,us,usp0000c2t,2015-05-13T18:53:10.000Z,"Bougainville region, Papua New Guinea",earthquake,,,,,reviewed,us,us
394,1975-07-20 19:54:27.700000+00:00,-7.104,155.15200000000002,44.0,7.7,ms,,,,,us,usp0000c2s,2017-04-26T17:28:36.433Z,Solomon Islands,earthquake,,,,,reviewed,us,us
395,1975-07-20 19:47:16.100000+00:00,-6.95,155.19799999999998,53.0,5.3,mb,,,,,us,usp0000c2r,2014-11-06T23:21:31.276Z,"Bougainville region, Papua New Guinea",earthquake,,,,,reviewed,us,us
396,1975-07-20 19:23:13+00:00,-6.848,155.135,49.0,4.8,mb,,,,,us,usp0000c2q,2014-11-06T23:21:31.276Z,"Bougainville region, Papua New Guinea",earthquake,,,,,reviewed,us,us
400,1975-07-20 18:01:40.400000+00:00,-6.754,154.903,34.0,4.8,mb,,,,,us,usp0000c2p,2014-11-06T23:21:31.275Z,"Bougainville region, Papua New Guinea",earthquake,,,,,reviewed,us,us
401,1975-07-20 17:36:12.400000+00:00,-6.997999999999999,155.139,33.0,4.8,mb,,,,,us,usp0000c2n,2014-11-06T23:21:31.275Z,"Bougainville region, Papua New Guinea",earthquake,,,,,reviewed,us,us
403,1975-07-20 17:26:16.800000+00:00,-6.861000000000001,154.906,33.0,5.1,mb,,,,,us,usp0000c2k,2014-11-06T23:21:31.274Z,"Bougainville region, Papua New Guinea",earthquake,,,,,reviewed,us,us
404,1975-07-20 17:22:21.300000+00:00,-6.97,154.874,52.0,5.3,mb,,,,,us,usp0000c2j,2014-11-06T23:21:31.273Z,"Bougainville region, Papua New Guinea",earthquake,,,,,reviewed,us,us
405,1975-07-20 17:16:26.200000+00:00,-6.855,154.655,51.0,4.9,mb,,,,,us,usp0000c2h,2014-11-06T23:21:31.273Z,"Bougainville region, Papua New Guinea",earthquake,,,,,reviewed,us,us
406,1975-07-20 17:10:51.500000+00:00,-6.939,154.832,24.0,5.4,mb,,,,,us,usp0000c2g,2015-05-13T18:53:10.000Z,"Bougainville region, Papua New Guinea",earthquake,,,,,reviewed,us,us
407,1975-07-20 17:00:48.800000+00:00,-6.956,154.434,40.0,5.4,mb,,,,,us,usp0000c2f,2014-11-06T23:21:31.271Z,"Bougainville region, Papua New Guinea",earthquake,,,,,reviewed,us,us
409,1975-07-20 16:45:07.700000+00:00,-6.352,154.575,28.0,4.6,mb,,,,,us,usp0000c2d,2014-11-06T23:21:31.270Z,"Bougainville region, Papua New Guinea",earthquake,,,,,reviewed,us,us
410,1975-07-20 16:34:38.700000+00:00,-6.824,154.464,33.0,4.5,mb,,,,,us,usp0000c2c,2014-11-06T23:21:31.270Z,"Bougainville region, Papua New Guinea",earthquake,,,,,reviewed,us,us
411,1975-07-20 16:14:01.200000+00:00,-6.942,154.959,31.0,5.4,mb,,,,,us,usp0000c2b,2014-11-06T23:21:31.269Z,"Bougainville region, Papua New Guinea",earthquake,,,,,reviewed,us,us
412,1975-07-20 16:08:32.500000+00:00,-6.841,154.789,33.0,4.7,mb,,,,,us,usp0000c2a,2014-11-06T23:21:31.268Z,"Bougainville region, Papua New Guinea",earthquake,,,,,reviewed,us,us
415,1975-07-20 15:35:47+00:00,-6.809,154.597,54.0,4.5,mb,,,,,us,usp0000c28,2014-11-06T23:21:31.267Z,"Bougainville region, Papua New Guinea",earthquake,,,,,reviewed,us,us
417,1975-07-20 15:24:16+00:00,-7.0729999999999995,154.412,33.0,5.5,mb,,,,,us,usp0000c26,2014-11-06T23:21:31.266Z,"Bougainville region, Papua New Guinea",earthquake,,,,,reviewed,us,us
418,1975-07-20 15:12:13.800000+00:00,-7.026,155.42700000000002,33.0,5.1,mb,,,,,us,usp0000c25,2014-11-06T23:21:31.265Z,Solomon Islands,earthquake,,,,,reviewed,us,us
419,1975-07-20 14:37:39.900000+00:00,-6.59,155.054,49.0,7.9,ms,,,,,us,usp0000c24,2017-04-13T21:48:53.346Z,"Bougainville region, Papua New Guinea",earthquake,,,,,reviewed,us,us
598,1975-07-14 20:03:34.800000+00:00,-4.5680000000000005,153.099,78.0,5.0,mb,,,,,us,usp0000c05,2014-11-06T23:21:31.183Z,"New Ireland region, Papua New Guinea",earthquake,,,,,reviewed,us,us
