,time,latitude,longitude,depth,mag,magType,nst,gap,dmin,rms,net,id,updated,place,type,horizontalError,depthError,magError,magNst,status,locationSource,magSource
562,1975-10-16 07:29:10.700000+00:00,-24.639,-175.798,30.0,4.6,mb,,,,,us,usp0000d59,2014-11-06T23:21:32.265Z,south of Tonga,earthquake,,,,,reviewed,us,us
564,1975-10-16 03:37:42.500000+00:00,-24.75,-175.59099999999998,33.0,5.4,mb,,,,,us,usp0000d58,2014-11-06T23:21:32.265Z,south of Tonga,earthquake,,,,,reviewed,us,us
575,1975-10-15 17:24:32+00:00,-24.746,-175.18,33.0,5.4,mb,,,,,us,usp0000d54,2014-11-06T23:21:32.263Z,south of Tonga,earthquake,,,,,reviewed,us,us
606,1975-10-14 19:12:05.900000+00:00,-24.653000000000002,-176.19,112.0,5.1,mb,,,,,us,usp0000d4z,2014-11-06T23:21:32.260Z,south of the Fiji Islands,earthquake,,,,,reviewed,us,us
618,1975-10-14 09:10:04.900000+00:00,-25.014,-175.27,33.0,5.0,mb,,,,,us,usp0000d4u,2014-11-06T23:21:32.257Z,south of Tonga,earthquake,,,,,reviewed,us,us
635,1975-10-13 22:12:37.500000+00:00,-24.901,-175.299,33.0,5.2,mb,,,,,us,usp0000d4p,2014-11-06T23:21:32.254Z,south of Tonga,earthquake,,,,,reviewed,us,us
640,1975-10-13 20:51:20.200000+00:00,-24.842,-175.435,35.0,5.5,mb,,,,,us,usp0000d4n,2014-11-06T23:21:32.254Z,south of Tonga,earthquake,,,,,reviewed,us,us
706,1975-10-11 14:55:00.300000+00:00,-24.041,-175.375,33.0,6.1,mb,,,,,us,usp0000d44,2015-05-13T18:53:11.000Z,south of Tonga,earthquake,,,,,reviewed,us,us
708,1975-10-11 14:35:15+00:00,-24.894000000000002,-175.11900000000003,9.0,7.8,ms,,,,,us,usp0000d42,2015-05-13T18:53:11.000Z,south of Tonga,earthquake,,,,,reviewed,us,us
