,time,latitude,longitude,depth,mag,magType,nst,gap,dmin,rms,net,id,updated,place,type,horizontalError,depthError,magError,magNst,status,locationSource,magSource
435,1978-09-22 18:53:07+00:00,33.327,56.88399999999999,37.0,4.4,mb,,,,,us,usp0000wp7,2014-11-06T23:21:52.462Z,central Iran,earthquake,,,,,reviewed,us,us
568,1978-09-20 04:45:57.600000+00:00,33.185,56.656000000000006,33.0,4.3,mb,,,,,us,usp0000wn0,2014-11-06T23:21:52.419Z,central Iran,earthquake,,,,,reviewed,us,us
632,1978-09-18 17:35:08.200000+00:00,33.699,56.925,33.0,4.9,mb,,,,,us,usp0000wm6,2014-11-06T23:21:52.393Z,central Iran,earthquake,,,,,reviewed,us,us
671,1978-09-18 04:50:02+00:00,33.535,57.303000000000004,23.0,4.7,mb,,,,,us,usp0000wkv,2014-11-06T23:21:52.384Z,eastern Iran,earthquake,,,,,reviewed,us,us
678,1978-09-18 01:34:48+00:00,33.686,57.202,33.0,4.5,mb,,,,,us,usp0000wks,2014-11-06T23:21:52.381Z,eastern Iran,earthquake,,,,,reviewed,us,us
682,1978-09-17 21:39:45+00:00,33.744,57.21,33.0,4.2,mb,,,,,us,usp0000wkr,2014-11-06T23:21:52.379Z,eastern Iran,earthquake,,,,,reviewed,us,us
707,1978-09-17 12:43:25.500000+00:00,34.12,57.576,33.0,4.7,mb,,,,,us,usp0000wkj,2014-11-06T23:21:52.374Z,northeastern Iran,earthquake,,,,,reviewed,us,us
711,1978-09-17 08:17:24.600000+00:00,33.665,57.001999999999995,33.0,5.0,mb,,,,,us,usp0000wkg,2014-11-06T23:21:52.371Z,eastern Iran,earthquake,,,,,reviewed,us,us
712,1978-09-17 07:35:49.900000+00:00,33.144,56.933,33.0,4.7,mb,,,,,us,usp0000wkf,2014-11-06T23:21:52.371Z,central Iran,earthquake,,,,,reviewed,us,us
716,1978-09-17 05:41:19.500000+00:00,33.626999999999995,57.489,33.0,4.4,mb,,,,,us,usp0000wkc,2014-11-06T23:21:52.367Z,eastern Iran,earthquake,,,,,reviewed,us,us
732,1978-09-16 22:07:13.700000+00:00,34.949,57.11,33.0,4.5,mb,,,,,us,usp0000wk2,2014-11-06T23:21:52.358Z,northeastern Iran,earthquake,,,,,reviewed,us,us
738,1978-09-16 19:50:21.300000+00:00,33.727,57.115,33.0,4.9,mb,,,,,us,usp0000wk0,2014-11-06T23:21:52.355Z,eastern Iran,earthquake,,,,,reviewed,us,us
740,1978-09-16 18:45:14+00:00,33.87,57.081,16.0,4.8,mb,,,,,us,usp0000wjz,2014-11-06T23:21:52.354Z,eastern Iran,earthquake,,,,,reviewed,us,us
741,1978-09-16 18:25:47.200000+00:00,33.788000000000004,57.198,33.0,4.6,mb,,,,,us,usp0000wjy,2014-11-06T23:21:52.353Z,eastern Iran,earthquake,,,,,reviewed,us,us
744,1978-09-16 15:35:56.600000+00:00,33.385999999999996,57.434,33.0,7.4,ms,,,,,us,usp0000wjx,2017-04-26T17:32:07.443Z,eastern Iran,earthquake,,,,,reviewed,us,us
